(footprint "2X20" (version 20221018) (generator pcbnew)
  (layer "F.Cu")
  (descr "<b>PIN HEADER</b>")
  (fp_text reference "REF**" (at -25.4 -3.175) (layer "F.SilkS")
      (effects (font (size 1.143 1.143) (thickness 0.127)) (justify left bottom))
    (tstamp 48687fcd-fd3b-4c89-8c6a-78282188cd6b)
  )
  (fp_text value "2X20" (at -25.4 4.445) (layer "F.Fab")
      (effects (font (size 1.1684 1.1684) (thickness 0.1016)) (justify left bottom))
    (tstamp a6a96953-7780-493e-a3fd-5c4456f813af)
  )
  (fp_line (start -25.4 -1.905) (end -24.765 -2.54)
    (stroke (width 0.1524) (type solid)) (layer "F.SilkS") (tstamp 29f39ebf-c601-4106-b64f-732b0cb2cf42))
  (fp_line (start -25.4 1.905) (end -25.4 -1.905)
    (stroke (width 0.1524) (type solid)) (layer "F.SilkS") (tstamp 24a6cd74-7c46-4170-827d-7eff1efb452a))
  (fp_line (start -25.4 1.905) (end -24.765 2.54)
    (stroke (width 0.1524) (type solid)) (layer "F.SilkS") (tstamp d322fc72-63fc-4dba-aa32-141e1a3c25e7))
  (fp_line (start -24.765 -2.54) (end -23.495 -2.54)
    (stroke (width 0.1524) (type solid)) (layer "F.SilkS") (tstamp 9ec8450a-b418-484a-8625-ea1bfcd1c4fe))
  (fp_line (start -24.765 2.54) (end -23.495 2.54)
    (stroke (width 0.1524) (type solid)) (layer "F.SilkS") (tstamp 16711a95-1d5b-4ba0-b610-7b412c25268b))
  (fp_line (start -23.495 -2.54) (end -22.86 -1.905)
    (stroke (width 0.1524) (type solid)) (layer "F.SilkS") (tstamp 9d548d9e-b212-458c-a642-b3b61e53991d))
  (fp_line (start -23.495 2.54) (end -22.86 1.905)
    (stroke (width 0.1524) (type solid)) (layer "F.SilkS") (tstamp b049d443-23cd-479a-bdb9-a07963ce4976))
  (fp_line (start -22.86 -1.905) (end -22.86 1.905)
    (stroke (width 0.1524) (type solid)) (layer "F.SilkS") (tstamp 2d03bb90-2d05-4738-bbba-72a04fe2b95d))
  (fp_line (start -22.86 -1.905) (end -22.225 -2.54)
    (stroke (width 0.1524) (type solid)) (layer "F.SilkS") (tstamp 68a42f93-9d48-40ec-8026-9d499c5b287a))
  (fp_line (start -22.86 1.905) (end -22.225 2.54)
    (stroke (width 0.1524) (type solid)) (layer "F.SilkS") (tstamp 93b6dd8c-0c82-4713-bee0-5134dec89261))
  (fp_line (start -22.225 -2.54) (end -20.955 -2.54)
    (stroke (width 0.1524) (type solid)) (layer "F.SilkS") (tstamp fc93a39a-668f-4f22-b302-808414a02e2c))
  (fp_line (start -22.225 2.54) (end -20.955 2.54)
    (stroke (width 0.1524) (type solid)) (layer "F.SilkS") (tstamp f00749e0-0a7e-4010-b904-173352d055a2))
  (fp_line (start -20.955 -2.54) (end -20.32 -1.905)
    (stroke (width 0.1524) (type solid)) (layer "F.SilkS") (tstamp bd3f680a-70fa-4e33-a549-e38108740266))
  (fp_line (start -20.955 2.54) (end -20.32 1.905)
    (stroke (width 0.1524) (type solid)) (layer "F.SilkS") (tstamp f06a8429-f37e-4cdc-a48b-6387f8f26f74))
  (fp_line (start -20.32 -1.905) (end -20.32 1.905)
    (stroke (width 0.1524) (type solid)) (layer "F.SilkS") (tstamp d6a51361-0bec-4b7a-b49c-a672f3ebef8a))
  (fp_line (start -20.32 -1.905) (end -19.685 -2.54)
    (stroke (width 0.1524) (type solid)) (layer "F.SilkS") (tstamp d9aed151-2dfb-45ef-a909-c19d917c7385))
  (fp_line (start -20.32 1.905) (end -19.685 2.54)
    (stroke (width 0.1524) (type solid)) (layer "F.SilkS") (tstamp 3168c3d4-bcbc-46fd-87db-4718badf9e48))
  (fp_line (start -19.685 -2.54) (end -18.415 -2.54)
    (stroke (width 0.1524) (type solid)) (layer "F.SilkS") (tstamp 26f8aad1-eed2-4668-a7e1-1d789bca6095))
  (fp_line (start -19.685 2.54) (end -18.415 2.54)
    (stroke (width 0.1524) (type solid)) (layer "F.SilkS") (tstamp de53acea-069d-4c04-b5c5-c8a9f5272070))
  (fp_line (start -18.415 -2.54) (end -17.78 -1.905)
    (stroke (width 0.1524) (type solid)) (layer "F.SilkS") (tstamp fd450fc3-29e4-4d16-9544-a1df0c7423f4))
  (fp_line (start -18.415 2.54) (end -17.78 1.905)
    (stroke (width 0.1524) (type solid)) (layer "F.SilkS") (tstamp 99b8af9c-378d-415c-829d-ff077a18e812))
  (fp_line (start -17.78 -1.905) (end -17.78 1.905)
    (stroke (width 0.1524) (type solid)) (layer "F.SilkS") (tstamp 33b5030d-037c-4efc-bfef-567ca0c67161))
  (fp_line (start -17.78 -1.905) (end -17.145 -2.54)
    (stroke (width 0.1524) (type solid)) (layer "F.SilkS") (tstamp 276efb2d-818e-4374-808d-711c37358b61))
  (fp_line (start -17.78 1.905) (end -17.145 2.54)
    (stroke (width 0.1524) (type solid)) (layer "F.SilkS") (tstamp 5592ef5c-35a4-43c7-a539-80fa588526d0))
  (fp_line (start -17.145 -2.54) (end -15.875 -2.54)
    (stroke (width 0.1524) (type solid)) (layer "F.SilkS") (tstamp 02f8541f-1cd2-47c4-894c-749721fd5cec))
  (fp_line (start -17.145 2.54) (end -15.875 2.54)
    (stroke (width 0.1524) (type solid)) (layer "F.SilkS") (tstamp b4564a36-ed8d-4858-b8e6-9466bd72c334))
  (fp_line (start -15.875 -2.54) (end -15.24 -1.905)
    (stroke (width 0.1524) (type solid)) (layer "F.SilkS") (tstamp 79e53ef6-2d66-4744-ab5d-7d05737834a3))
  (fp_line (start -15.875 2.54) (end -15.24 1.905)
    (stroke (width 0.1524) (type solid)) (layer "F.SilkS") (tstamp b1c29a25-f977-4eb2-ba1e-653720f483a9))
  (fp_line (start -15.24 -1.905) (end -15.24 1.905)
    (stroke (width 0.1524) (type solid)) (layer "F.SilkS") (tstamp 6013cc6b-1967-49dc-8e7e-f21bad80c236))
  (fp_line (start -15.24 -1.905) (end -14.605 -2.54)
    (stroke (width 0.1524) (type solid)) (layer "F.SilkS") (tstamp e0ff77e7-7ba5-44bc-80bd-b99216d03cf6))
  (fp_line (start -15.24 1.905) (end -14.605 2.54)
    (stroke (width 0.1524) (type solid)) (layer "F.SilkS") (tstamp fa878f83-ae26-4f4c-87c2-b46b0a234f09))
  (fp_line (start -14.605 -2.54) (end -13.335 -2.54)
    (stroke (width 0.1524) (type solid)) (layer "F.SilkS") (tstamp d71ec44a-ca81-452d-b75f-9bd5a6df2d24))
  (fp_line (start -14.605 2.54) (end -13.335 2.54)
    (stroke (width 0.1524) (type solid)) (layer "F.SilkS") (tstamp b2fd3d23-f33d-448f-9d3c-a84be37f62ed))
  (fp_line (start -13.335 -2.54) (end -12.7 -1.905)
    (stroke (width 0.1524) (type solid)) (layer "F.SilkS") (tstamp 5c07c329-86eb-46c5-b95e-11dd3ff428b4))
  (fp_line (start -13.335 2.54) (end -12.7 1.905)
    (stroke (width 0.1524) (type solid)) (layer "F.SilkS") (tstamp fb621a69-f1ab-4721-a464-1770bf08bf07))
  (fp_line (start -12.7 -1.905) (end -12.7 1.905)
    (stroke (width 0.1524) (type solid)) (layer "F.SilkS") (tstamp c062b7fb-1069-486f-b927-c07e48ebbcf6))
  (fp_line (start -12.7 -1.905) (end -12.065 -2.54)
    (stroke (width 0.1524) (type solid)) (layer "F.SilkS") (tstamp 55f7f2c5-b36b-458c-b220-735b7d037cd4))
  (fp_line (start -12.7 1.905) (end -12.065 2.54)
    (stroke (width 0.1524) (type solid)) (layer "F.SilkS") (tstamp e2328005-145a-422f-af11-fe6634022892))
  (fp_line (start -12.065 -2.54) (end -10.795 -2.54)
    (stroke (width 0.1524) (type solid)) (layer "F.SilkS") (tstamp 235540ba-59b2-45a6-94cd-c055e80e9b50))
  (fp_line (start -12.065 2.54) (end -10.795 2.54)
    (stroke (width 0.1524) (type solid)) (layer "F.SilkS") (tstamp 797a9061-292e-4f3c-8b09-e261fd931237))
  (fp_line (start -10.795 -2.54) (end -10.16 -1.905)
    (stroke (width 0.1524) (type solid)) (layer "F.SilkS") (tstamp ddf29327-d976-4d5a-a3aa-0b7ecb8c7f2d))
  (fp_line (start -10.795 2.54) (end -10.16 1.905)
    (stroke (width 0.1524) (type solid)) (layer "F.SilkS") (tstamp a0babc13-85ca-4a06-a7f2-860fe2788be7))
  (fp_line (start -10.16 -1.905) (end -10.16 1.905)
    (stroke (width 0.1524) (type solid)) (layer "F.SilkS") (tstamp 93a66ece-a20b-4617-8111-efc8f1c19c5d))
  (fp_line (start -10.16 -1.905) (end -9.525 -2.54)
    (stroke (width 0.1524) (type solid)) (layer "F.SilkS") (tstamp 838dfeb6-af48-47c6-8e89-d37be9ce5c61))
  (fp_line (start -10.16 1.905) (end -9.525 2.54)
    (stroke (width 0.1524) (type solid)) (layer "F.SilkS") (tstamp 7590cedb-6f0c-42a6-b36e-0301405dfcf4))
  (fp_line (start -9.525 -2.54) (end -8.255 -2.54)
    (stroke (width 0.1524) (type solid)) (layer "F.SilkS") (tstamp 804e6319-d78e-42d2-9eab-2199e47b4301))
  (fp_line (start -8.255 -2.54) (end -7.62 -1.905)
    (stroke (width 0.1524) (type solid)) (layer "F.SilkS") (tstamp 4f245bb0-ccdf-496d-846f-80811798b3eb))
  (fp_line (start -8.255 2.54) (end -9.525 2.54)
    (stroke (width 0.1524) (type solid)) (layer "F.SilkS") (tstamp 5a31327e-88a6-4998-98b9-178390d05773))
  (fp_line (start -7.62 -1.905) (end -7.62 1.905)
    (stroke (width 0.1524) (type solid)) (layer "F.SilkS") (tstamp 05f462b6-615e-42de-b4e4-2cbc081bb3b1))
  (fp_line (start -7.62 -1.905) (end -6.985 -2.54)
    (stroke (width 0.1524) (type solid)) (layer "F.SilkS") (tstamp 97f3c899-5f76-445a-9d2e-72bb7be8f1bc))
  (fp_line (start -7.62 1.905) (end -8.255 2.54)
    (stroke (width 0.1524) (type solid)) (layer "F.SilkS") (tstamp b09bd048-fc6e-4df0-9138-fde93e0b27ca))
  (fp_line (start -7.62 1.905) (end -6.985 2.54)
    (stroke (width 0.1524) (type solid)) (layer "F.SilkS") (tstamp c2fb2f33-e1b4-4101-82f2-ac5cc280e098))
  (fp_line (start -6.985 -2.54) (end -5.715 -2.54)
    (stroke (width 0.1524) (type solid)) (layer "F.SilkS") (tstamp c1392875-f1ab-4940-8878-feb004deaabb))
  (fp_line (start -5.715 -2.54) (end -5.08 -1.905)
    (stroke (width 0.1524) (type solid)) (layer "F.SilkS") (tstamp c83d98a8-1aa5-476e-85ff-334e3c4ee7c6))
  (fp_line (start -5.715 2.54) (end -6.985 2.54)
    (stroke (width 0.1524) (type solid)) (layer "F.SilkS") (tstamp c182c564-a148-4c65-9039-3f11094d071e))
  (fp_line (start -5.08 -1.905) (end -5.08 1.905)
    (stroke (width 0.1524) (type solid)) (layer "F.SilkS") (tstamp 52e18e56-5fd5-47e7-b373-8cb5716fd8d0))
  (fp_line (start -5.08 -1.905) (end -4.445 -2.54)
    (stroke (width 0.1524) (type solid)) (layer "F.SilkS") (tstamp bc302ad7-d200-478c-8eb6-6d282c9ecc22))
  (fp_line (start -5.08 1.905) (end -5.715 2.54)
    (stroke (width 0.1524) (type solid)) (layer "F.SilkS") (tstamp 4eef6374-06dd-4bcd-8fcd-e22102e9ffc3))
  (fp_line (start -5.08 1.905) (end -4.445 2.54)
    (stroke (width 0.1524) (type solid)) (layer "F.SilkS") (tstamp 73448fa1-b8a7-4503-b5ae-94438d00b9e5))
  (fp_line (start -4.445 -2.54) (end -3.175 -2.54)
    (stroke (width 0.1524) (type solid)) (layer "F.SilkS") (tstamp a7aa9003-54f8-4132-ac38-a27cbf72eaa6))
  (fp_line (start -3.175 -2.54) (end -2.54 -1.905)
    (stroke (width 0.1524) (type solid)) (layer "F.SilkS") (tstamp 61f974cf-b5e6-48a7-8f0b-b12d5dedfa45))
  (fp_line (start -3.175 2.54) (end -4.445 2.54)
    (stroke (width 0.1524) (type solid)) (layer "F.SilkS") (tstamp db6e721f-aa76-40ac-90db-e3e51c2a8df7))
  (fp_line (start -2.54 -1.905) (end -2.54 1.905)
    (stroke (width 0.1524) (type solid)) (layer "F.SilkS") (tstamp 9c98a1c5-ecc1-4d05-be88-96b50f864420))
  (fp_line (start -2.54 -1.905) (end -1.905 -2.54)
    (stroke (width 0.1524) (type solid)) (layer "F.SilkS") (tstamp 84bde507-db97-4324-81e4-a91769ff41ce))
  (fp_line (start -2.54 1.905) (end -3.175 2.54)
    (stroke (width 0.1524) (type solid)) (layer "F.SilkS") (tstamp 291e74a9-0d7b-4ad5-a09a-9c809bee806f))
  (fp_line (start -2.54 1.905) (end -1.905 2.54)
    (stroke (width 0.1524) (type solid)) (layer "F.SilkS") (tstamp 7dbb2cc9-281e-4ca7-aa66-8c4d70b725ba))
  (fp_line (start -1.905 -2.54) (end -0.635 -2.54)
    (stroke (width 0.1524) (type solid)) (layer "F.SilkS") (tstamp f5d1060f-8e14-49fd-b6ac-730d674e94db))
  (fp_line (start -0.635 -2.54) (end 0 -1.905)
    (stroke (width 0.1524) (type solid)) (layer "F.SilkS") (tstamp 95da77fd-66b9-44a6-801a-2500c0889e5a))
  (fp_line (start -0.635 2.54) (end -1.905 2.54)
    (stroke (width 0.1524) (type solid)) (layer "F.SilkS") (tstamp 818ccb0a-bab4-449f-bd35-ce7940fd3f22))
  (fp_line (start 0 -1.905) (end 0 1.905)
    (stroke (width 0.1524) (type solid)) (layer "F.SilkS") (tstamp c39e123f-4570-44a4-bca1-9fd28b0d1c57))
  (fp_line (start 0 -1.905) (end 0.635 -2.54)
    (stroke (width 0.1524) (type solid)) (layer "F.SilkS") (tstamp a2239f2c-ac87-4d50-9586-e485088642e8))
  (fp_line (start 0 1.905) (end -0.635 2.54)
    (stroke (width 0.1524) (type solid)) (layer "F.SilkS") (tstamp dbc1fb11-caf6-4bbe-a1af-7682f60cae48))
  (fp_line (start 0 1.905) (end 0.635 2.54)
    (stroke (width 0.1524) (type solid)) (layer "F.SilkS") (tstamp 1c1c123c-34b1-495a-b447-7e21106c8d5e))
  (fp_line (start 0.635 -2.54) (end 1.905 -2.54)
    (stroke (width 0.1524) (type solid)) (layer "F.SilkS") (tstamp ebfdec52-526c-4914-a6db-cc4dab38e4e5))
  (fp_line (start 1.905 -2.54) (end 2.54 -1.905)
    (stroke (width 0.1524) (type solid)) (layer "F.SilkS") (tstamp d41145e2-e85a-4022-be11-53b6db315a98))
  (fp_line (start 1.905 2.54) (end 0.635 2.54)
    (stroke (width 0.1524) (type solid)) (layer "F.SilkS") (tstamp dc8d0f05-43b1-4c5e-87eb-58b568753a6f))
  (fp_line (start 2.54 -1.905) (end 2.54 1.905)
    (stroke (width 0.1524) (type solid)) (layer "F.SilkS") (tstamp 4898c45b-2392-4933-b8c0-2112d5efa57a))
  (fp_line (start 2.54 -1.905) (end 3.175 -2.54)
    (stroke (width 0.1524) (type solid)) (layer "F.SilkS") (tstamp 057c721f-96ff-4aae-8092-c014c16348b9))
  (fp_line (start 2.54 1.905) (end 1.905 2.54)
    (stroke (width 0.1524) (type solid)) (layer "F.SilkS") (tstamp 28517a75-a0a1-4650-a0c0-f6e744cdd573))
  (fp_line (start 2.54 1.905) (end 3.175 2.54)
    (stroke (width 0.1524) (type solid)) (layer "F.SilkS") (tstamp 55699b58-1fae-451f-b7d6-9fe79e101ee0))
  (fp_line (start 3.175 -2.54) (end 4.445 -2.54)
    (stroke (width 0.1524) (type solid)) (layer "F.SilkS") (tstamp eed89877-586d-4e25-9372-8d1021091be8))
  (fp_line (start 4.445 2.54) (end 3.175 2.54)
    (stroke (width 0.1524) (type solid)) (layer "F.SilkS") (tstamp ac29a8f4-9134-4c87-af08-db98d34ae4cf))
  (fp_line (start 5.08 -1.905) (end 4.445 -2.54)
    (stroke (width 0.1524) (type solid)) (layer "F.SilkS") (tstamp 89da6f31-e4b6-4254-b87a-4893313d791f))
  (fp_line (start 5.08 -1.905) (end 5.08 1.905)
    (stroke (width 0.1524) (type solid)) (layer "F.SilkS") (tstamp 5b9164b1-81ac-4569-aedb-153f549569e0))
  (fp_line (start 5.08 -1.905) (end 5.715 -2.54)
    (stroke (width 0.1524) (type solid)) (layer "F.SilkS") (tstamp 13b56bea-08ea-4436-9e46-abc006f78edd))
  (fp_line (start 5.08 1.905) (end 4.445 2.54)
    (stroke (width 0.1524) (type solid)) (layer "F.SilkS") (tstamp 31f4a78a-5791-4618-96ae-96b55a4edb4a))
  (fp_line (start 5.08 1.905) (end 5.715 2.54)
    (stroke (width 0.1524) (type solid)) (layer "F.SilkS") (tstamp 73ac9dbc-7e12-4bd7-9edb-144e1961cd4c))
  (fp_line (start 6.985 -2.54) (end 5.715 -2.54)
    (stroke (width 0.1524) (type solid)) (layer "F.SilkS") (tstamp fbfae113-2bd2-4aad-b519-ad856ae4350b))
  (fp_line (start 6.985 -2.54) (end 7.62 -1.905)
    (stroke (width 0.1524) (type solid)) (layer "F.SilkS") (tstamp fa2a7c2b-8766-4fe0-8b64-42d892cb7389))
  (fp_line (start 6.985 2.54) (end 5.715 2.54)
    (stroke (width 0.1524) (type solid)) (layer "F.SilkS") (tstamp 22e3a22f-83d7-436d-94ea-182daa71825d))
  (fp_line (start 7.62 -1.905) (end 7.62 1.905)
    (stroke (width 0.1524) (type solid)) (layer "F.SilkS") (tstamp ad6520fd-2b96-4597-bbd9-7f6024a24163))
  (fp_line (start 7.62 -1.905) (end 8.255 -2.54)
    (stroke (width 0.1524) (type solid)) (layer "F.SilkS") (tstamp 76c58f81-8d82-45fd-983a-57aebaedb80a))
  (fp_line (start 7.62 1.905) (end 6.985 2.54)
    (stroke (width 0.1524) (type solid)) (layer "F.SilkS") (tstamp 8da72535-2b3a-43e8-850c-d8f347eea6f0))
  (fp_line (start 7.62 1.905) (end 8.255 2.54)
    (stroke (width 0.1524) (type solid)) (layer "F.SilkS") (tstamp 82e3aaa8-87b4-49d2-a2ef-feef063ce0ee))
  (fp_line (start 9.525 -2.54) (end 8.255 -2.54)
    (stroke (width 0.1524) (type solid)) (layer "F.SilkS") (tstamp f7547bae-526c-4ba2-8d24-b97c2ade5823))
  (fp_line (start 9.525 -2.54) (end 10.16 -1.905)
    (stroke (width 0.1524) (type solid)) (layer "F.SilkS") (tstamp 2ebea2c2-1ff4-4c50-bba5-a758aa2cfb48))
  (fp_line (start 9.525 2.54) (end 8.255 2.54)
    (stroke (width 0.1524) (type solid)) (layer "F.SilkS") (tstamp ce80ba2f-7544-4b4c-973c-e5138883ea35))
  (fp_line (start 10.16 -1.905) (end 10.16 1.905)
    (stroke (width 0.1524) (type solid)) (layer "F.SilkS") (tstamp 824a246e-ea65-4f66-a35e-60f92ba16b59))
  (fp_line (start 10.16 -1.905) (end 10.795 -2.54)
    (stroke (width 0.1524) (type solid)) (layer "F.SilkS") (tstamp 2c9f68b6-8b09-4c58-9e98-3f543431394f))
  (fp_line (start 10.16 1.905) (end 9.525 2.54)
    (stroke (width 0.1524) (type solid)) (layer "F.SilkS") (tstamp 741d2254-b589-4cd6-a3c1-53571ad0960f))
  (fp_line (start 10.795 2.54) (end 10.16 1.905)
    (stroke (width 0.1524) (type solid)) (layer "F.SilkS") (tstamp ad769a2a-2d9c-437e-a650-3264c886a5fd))
  (fp_line (start 10.795 2.54) (end 12.065 2.54)
    (stroke (width 0.1524) (type solid)) (layer "F.SilkS") (tstamp a39f3136-0319-4167-867f-e617dbc5da31))
  (fp_line (start 12.065 -2.54) (end 10.795 -2.54)
    (stroke (width 0.1524) (type solid)) (layer "F.SilkS") (tstamp 2f9b35cc-d80a-4010-b807-c83888681bdd))
  (fp_line (start 12.065 -2.54) (end 12.7 -1.905)
    (stroke (width 0.1524) (type solid)) (layer "F.SilkS") (tstamp b1f15ef7-f313-457b-9351-a22b14e9534c))
  (fp_line (start 12.7 -1.905) (end 12.7 1.905)
    (stroke (width 0.1524) (type solid)) (layer "F.SilkS") (tstamp 27aa14dd-0c75-4940-bc58-041534300526))
  (fp_line (start 12.7 -1.905) (end 13.335 -2.54)
    (stroke (width 0.1524) (type solid)) (layer "F.SilkS") (tstamp 6495329a-89aa-4e1b-9067-9a669b0d37d5))
  (fp_line (start 12.7 1.905) (end 12.065 2.54)
    (stroke (width 0.1524) (type solid)) (layer "F.SilkS") (tstamp 6eb4d7cd-d9b4-4a92-aee6-038bec56eefb))
  (fp_line (start 13.335 2.54) (end 12.7 1.905)
    (stroke (width 0.1524) (type solid)) (layer "F.SilkS") (tstamp 068e4913-2fb6-4688-8377-8f2b28cc7a72))
  (fp_line (start 13.335 2.54) (end 14.605 2.54)
    (stroke (width 0.1524) (type solid)) (layer "F.SilkS") (tstamp 1d4cb0c9-da1f-404c-8b0e-d7e5139f27c4))
  (fp_line (start 14.605 -2.54) (end 13.335 -2.54)
    (stroke (width 0.1524) (type solid)) (layer "F.SilkS") (tstamp 88de617f-ead7-4301-87ca-7c8c9f34ae1d))
  (fp_line (start 14.605 -2.54) (end 15.24 -1.905)
    (stroke (width 0.1524) (type solid)) (layer "F.SilkS") (tstamp 66adff99-c7e9-4404-856c-f45a8cabbd35))
  (fp_line (start 15.24 -1.905) (end 15.24 1.905)
    (stroke (width 0.1524) (type solid)) (layer "F.SilkS") (tstamp cf1cd354-ebed-46ef-bf58-0c791324d485))
  (fp_line (start 15.24 -1.905) (end 15.875 -2.54)
    (stroke (width 0.1524) (type solid)) (layer "F.SilkS") (tstamp 082b66a5-5061-4e5f-a4ab-de3317dc6062))
  (fp_line (start 15.24 1.905) (end 14.605 2.54)
    (stroke (width 0.1524) (type solid)) (layer "F.SilkS") (tstamp 8e2bb866-522f-40ec-9892-0b7d3a05d906))
  (fp_line (start 15.24 1.905) (end 15.875 2.54)
    (stroke (width 0.1524) (type solid)) (layer "F.SilkS") (tstamp d048ad20-7a5d-4369-a1a5-4b85c765b6e8))
  (fp_line (start 17.145 -2.54) (end 15.875 -2.54)
    (stroke (width 0.1524) (type solid)) (layer "F.SilkS") (tstamp 33a1dcda-b53b-4922-b617-19a7d93a72a8))
  (fp_line (start 17.145 -2.54) (end 17.78 -1.905)
    (stroke (width 0.1524) (type solid)) (layer "F.SilkS") (tstamp e0f0d619-5ff4-4f24-9c36-3b1d616f2a33))
  (fp_line (start 17.145 2.54) (end 15.875 2.54)
    (stroke (width 0.1524) (type solid)) (layer "F.SilkS") (tstamp bc6cb71d-06cb-487e-afa0-660fe9ec8cfe))
  (fp_line (start 17.78 -1.905) (end 17.78 1.905)
    (stroke (width 0.1524) (type solid)) (layer "F.SilkS") (tstamp a21f9fbc-38de-41af-bafa-8daed08c47e3))
  (fp_line (start 17.78 -1.905) (end 18.415 -2.54)
    (stroke (width 0.1524) (type solid)) (layer "F.SilkS") (tstamp 508b3b3c-51d0-4833-ba92-ed5858ad94da))
  (fp_line (start 17.78 1.905) (end 17.145 2.54)
    (stroke (width 0.1524) (type solid)) (layer "F.SilkS") (tstamp 99bf7ee4-2365-42b6-870f-394dcd951d15))
  (fp_line (start 17.78 1.905) (end 18.415 2.54)
    (stroke (width 0.1524) (type solid)) (layer "F.SilkS") (tstamp 820de94a-d389-47dc-ab65-67db9f6f0151))
  (fp_line (start 19.685 -2.54) (end 18.415 -2.54)
    (stroke (width 0.1524) (type solid)) (layer "F.SilkS") (tstamp d9c324b1-95f8-406d-acb6-16c8a2539ea5))
  (fp_line (start 19.685 -2.54) (end 20.32 -1.905)
    (stroke (width 0.1524) (type solid)) (layer "F.SilkS") (tstamp 705894ed-00cd-4bba-bfc3-7cd232caf86f))
  (fp_line (start 19.685 2.54) (end 18.415 2.54)
    (stroke (width 0.1524) (type solid)) (layer "F.SilkS") (tstamp df8693d1-e4ca-4c84-b3c5-5df59d6fe2e2))
  (fp_line (start 20.32 -1.905) (end 20.32 1.905)
    (stroke (width 0.1524) (type solid)) (layer "F.SilkS") (tstamp 43a8e6fc-c05b-44ee-b156-080f339a6a86))
  (fp_line (start 20.32 -1.905) (end 20.955 -2.54)
    (stroke (width 0.1524) (type solid)) (layer "F.SilkS") (tstamp 29d3651f-cfb6-485d-ac87-09178d535a76))
  (fp_line (start 20.32 1.905) (end 19.685 2.54)
    (stroke (width 0.1524) (type solid)) (layer "F.SilkS") (tstamp 88c134da-8b88-43af-b300-a013b2ed247e))
  (fp_line (start 20.32 1.905) (end 20.955 2.54)
    (stroke (width 0.1524) (type solid)) (layer "F.SilkS") (tstamp affec861-1f66-4b64-86b7-f8d4a177195b))
  (fp_line (start 22.225 -2.54) (end 20.955 -2.54)
    (stroke (width 0.1524) (type solid)) (layer "F.SilkS") (tstamp 940689bd-ee84-426b-896f-460c0b6f7c61))
  (fp_line (start 22.225 -2.54) (end 22.86 -1.905)
    (stroke (width 0.1524) (type solid)) (layer "F.SilkS") (tstamp 7172e9aa-52f0-48a9-91db-efc37aaed38c))
  (fp_line (start 22.225 2.54) (end 20.955 2.54)
    (stroke (width 0.1524) (type solid)) (layer "F.SilkS") (tstamp 0c976b95-e8f0-4fff-99a4-67fceabea3a1))
  (fp_line (start 22.86 -1.905) (end 22.86 1.905)
    (stroke (width 0.1524) (type solid)) (layer "F.SilkS") (tstamp b65aecc4-cf80-4fc2-bace-c2ae1d954b85))
  (fp_line (start 22.86 -1.905) (end 23.495 -2.54)
    (stroke (width 0.1524) (type solid)) (layer "F.SilkS") (tstamp 17a2a624-86a3-4bcc-9570-d9931816ca4d))
  (fp_line (start 22.86 1.905) (end 22.225 2.54)
    (stroke (width 0.1524) (type solid)) (layer "F.SilkS") (tstamp b100f444-4f1d-4379-afb1-e93d58515fc8))
  (fp_line (start 22.86 1.905) (end 23.495 2.54)
    (stroke (width 0.1524) (type solid)) (layer "F.SilkS") (tstamp 14ec7d3b-7dde-4310-a672-0bba59e0da79))
  (fp_line (start 24.765 -2.54) (end 23.495 -2.54)
    (stroke (width 0.1524) (type solid)) (layer "F.SilkS") (tstamp c100d036-439d-4694-9bc5-4acade0216b1))
  (fp_line (start 24.765 -2.54) (end 25.4 -1.905)
    (stroke (width 0.1524) (type solid)) (layer "F.SilkS") (tstamp 61b66ff2-8365-48ac-8b5d-04485ff8d9ec))
  (fp_line (start 24.765 2.54) (end 23.495 2.54)
    (stroke (width 0.1524) (type solid)) (layer "F.SilkS") (tstamp a6468f42-5d7b-4401-9dc4-fa443f045cff))
  (fp_line (start 25.4 -1.905) (end 25.4 1.905)
    (stroke (width 0.1524) (type solid)) (layer "F.SilkS") (tstamp 3da44575-9723-41a7-8e32-71efc7fe63e5))
  (fp_line (start 25.4 1.905) (end 24.765 2.54)
    (stroke (width 0.1524) (type solid)) (layer "F.SilkS") (tstamp 3b3fa661-863c-42c4-a27e-ff5500e39402))
  (fp_poly
    (pts
      (xy -24.384 -1.016)
      (xy -23.876 -1.016)
      (xy -23.876 -1.524)
      (xy -24.384 -1.524)
    )

    (stroke (width 0) (type default)) (fill solid) (layer "F.Fab") (tstamp 4e22bf75-0bbc-4a6a-8ce7-47c512613eac))
  (fp_poly
    (pts
      (xy -24.384 1.524)
      (xy -23.876 1.524)
      (xy -23.876 1.016)
      (xy -24.384 1.016)
    )

    (stroke (width 0) (type default)) (fill solid) (layer "F.Fab") (tstamp d2b713cf-43df-46f0-adcd-1eab19383d53))
  (fp_poly
    (pts
      (xy -21.844 -1.016)
      (xy -21.336 -1.016)
      (xy -21.336 -1.524)
      (xy -21.844 -1.524)
    )

    (stroke (width 0) (type default)) (fill solid) (layer "F.Fab") (tstamp 2bfe8c37-cb2f-483f-9899-74119fbf598e))
  (fp_poly
    (pts
      (xy -21.844 1.524)
      (xy -21.336 1.524)
      (xy -21.336 1.016)
      (xy -21.844 1.016)
    )

    (stroke (width 0) (type default)) (fill solid) (layer "F.Fab") (tstamp e4f7c677-503d-48b0-9a64-13f6564ed9d5))
  (fp_poly
    (pts
      (xy -19.304 -1.016)
      (xy -18.796 -1.016)
      (xy -18.796 -1.524)
      (xy -19.304 -1.524)
    )

    (stroke (width 0) (type default)) (fill solid) (layer "F.Fab") (tstamp 0efe956a-c0eb-427e-8a39-a7d62ac6cc2a))
  (fp_poly
    (pts
      (xy -19.304 1.524)
      (xy -18.796 1.524)
      (xy -18.796 1.016)
      (xy -19.304 1.016)
    )

    (stroke (width 0) (type default)) (fill solid) (layer "F.Fab") (tstamp 7ea19bdb-0e37-42b1-b8ca-6d8f54dec567))
  (fp_poly
    (pts
      (xy -16.764 -1.016)
      (xy -16.256 -1.016)
      (xy -16.256 -1.524)
      (xy -16.764 -1.524)
    )

    (stroke (width 0) (type default)) (fill solid) (layer "F.Fab") (tstamp 0c90076a-2bf2-4346-b3e8-4329d93ebe47))
  (fp_poly
    (pts
      (xy -16.764 1.524)
      (xy -16.256 1.524)
      (xy -16.256 1.016)
      (xy -16.764 1.016)
    )

    (stroke (width 0) (type default)) (fill solid) (layer "F.Fab") (tstamp 22fbd86b-5fab-4d24-9f42-a28299fbf886))
  (fp_poly
    (pts
      (xy -14.224 -1.016)
      (xy -13.716 -1.016)
      (xy -13.716 -1.524)
      (xy -14.224 -1.524)
    )

    (stroke (width 0) (type default)) (fill solid) (layer "F.Fab") (tstamp e3d087d3-208a-41bf-876b-40f74f4e8c5a))
  (fp_poly
    (pts
      (xy -14.224 1.524)
      (xy -13.716 1.524)
      (xy -13.716 1.016)
      (xy -14.224 1.016)
    )

    (stroke (width 0) (type default)) (fill solid) (layer "F.Fab") (tstamp ad213723-91e1-4596-90b6-743d448ab75b))
  (fp_poly
    (pts
      (xy -11.684 -1.016)
      (xy -11.176 -1.016)
      (xy -11.176 -1.524)
      (xy -11.684 -1.524)
    )

    (stroke (width 0) (type default)) (fill solid) (layer "F.Fab") (tstamp 1bef1abe-2e75-4833-a5b0-5929b418b5e1))
  (fp_poly
    (pts
      (xy -11.684 1.524)
      (xy -11.176 1.524)
      (xy -11.176 1.016)
      (xy -11.684 1.016)
    )

    (stroke (width 0) (type default)) (fill solid) (layer "F.Fab") (tstamp 57e4e787-8ab8-48a1-9c98-3442e7302ac9))
  (fp_poly
    (pts
      (xy -9.144 -1.016)
      (xy -8.636 -1.016)
      (xy -8.636 -1.524)
      (xy -9.144 -1.524)
    )

    (stroke (width 0) (type default)) (fill solid) (layer "F.Fab") (tstamp 0e75ee4b-3bcf-41de-b8b6-3acc3e602609))
  (fp_poly
    (pts
      (xy -9.144 1.524)
      (xy -8.636 1.524)
      (xy -8.636 1.016)
      (xy -9.144 1.016)
    )

    (stroke (width 0) (type default)) (fill solid) (layer "F.Fab") (tstamp fd8c27c3-780c-4fc4-b7c7-0587083ca33c))
  (fp_poly
    (pts
      (xy -6.604 -1.016)
      (xy -6.096 -1.016)
      (xy -6.096 -1.524)
      (xy -6.604 -1.524)
    )

    (stroke (width 0) (type default)) (fill solid) (layer "F.Fab") (tstamp 8576e748-174d-4e8d-85d0-419bf7291fb7))
  (fp_poly
    (pts
      (xy -6.604 1.524)
      (xy -6.096 1.524)
      (xy -6.096 1.016)
      (xy -6.604 1.016)
    )

    (stroke (width 0) (type default)) (fill solid) (layer "F.Fab") (tstamp 4ae989ef-0e42-4abb-be7e-cb4bc59fb1d0))
  (fp_poly
    (pts
      (xy -4.064 -1.016)
      (xy -3.556 -1.016)
      (xy -3.556 -1.524)
      (xy -4.064 -1.524)
    )

    (stroke (width 0) (type default)) (fill solid) (layer "F.Fab") (tstamp 106ca5cc-fbde-4cd4-9962-e0c5ba6d008b))
  (fp_poly
    (pts
      (xy -4.064 1.524)
      (xy -3.556 1.524)
      (xy -3.556 1.016)
      (xy -4.064 1.016)
    )

    (stroke (width 0) (type default)) (fill solid) (layer "F.Fab") (tstamp eec87150-6ab1-4397-8588-b428f122164f))
  (fp_poly
    (pts
      (xy -1.524 -1.016)
      (xy -1.016 -1.016)
      (xy -1.016 -1.524)
      (xy -1.524 -1.524)
    )

    (stroke (width 0) (type default)) (fill solid) (layer "F.Fab") (tstamp 9135f9b9-84d3-4d73-ab87-1d6f4e03aaac))
  (fp_poly
    (pts
      (xy -1.524 1.524)
      (xy -1.016 1.524)
      (xy -1.016 1.016)
      (xy -1.524 1.016)
    )

    (stroke (width 0) (type default)) (fill solid) (layer "F.Fab") (tstamp 730c81f4-57df-48f2-ab9f-b24a50a4a24f))
  (fp_poly
    (pts
      (xy 1.016 -1.016)
      (xy 1.524 -1.016)
      (xy 1.524 -1.524)
      (xy 1.016 -1.524)
    )

    (stroke (width 0) (type default)) (fill solid) (layer "F.Fab") (tstamp 92ecc00d-5a9e-42b4-a9c0-2596f8ac0cc4))
  (fp_poly
    (pts
      (xy 1.016 1.524)
      (xy 1.524 1.524)
      (xy 1.524 1.016)
      (xy 1.016 1.016)
    )

    (stroke (width 0) (type default)) (fill solid) (layer "F.Fab") (tstamp 4ac57afe-d012-4600-b72c-bd4151ef33c5))
  (fp_poly
    (pts
      (xy 3.556 -1.016)
      (xy 4.064 -1.016)
      (xy 4.064 -1.524)
      (xy 3.556 -1.524)
    )

    (stroke (width 0) (type default)) (fill solid) (layer "F.Fab") (tstamp 24f7fa36-1421-46bc-8889-bfe89b585517))
  (fp_poly
    (pts
      (xy 3.556 1.524)
      (xy 4.064 1.524)
      (xy 4.064 1.016)
      (xy 3.556 1.016)
    )

    (stroke (width 0) (type default)) (fill solid) (layer "F.Fab") (tstamp b352a68e-70ed-4f49-80a2-11da4886c51a))
  (fp_poly
    (pts
      (xy 6.096 -1.016)
      (xy 6.604 -1.016)
      (xy 6.604 -1.524)
      (xy 6.096 -1.524)
    )

    (stroke (width 0) (type default)) (fill solid) (layer "F.Fab") (tstamp 7f0fcdf1-223c-4919-a85c-415669b47e21))
  (fp_poly
    (pts
      (xy 6.096 1.524)
      (xy 6.604 1.524)
      (xy 6.604 1.016)
      (xy 6.096 1.016)
    )

    (stroke (width 0) (type default)) (fill solid) (layer "F.Fab") (tstamp a5011f23-a42c-4369-8182-b6692c13e186))
  (fp_poly
    (pts
      (xy 8.636 -1.016)
      (xy 9.144 -1.016)
      (xy 9.144 -1.524)
      (xy 8.636 -1.524)
    )

    (stroke (width 0) (type default)) (fill solid) (layer "F.Fab") (tstamp 574e5f6e-8e7c-4d06-8f65-eb3e5d295b7a))
  (fp_poly
    (pts
      (xy 8.636 1.524)
      (xy 9.144 1.524)
      (xy 9.144 1.016)
      (xy 8.636 1.016)
    )

    (stroke (width 0) (type default)) (fill solid) (layer "F.Fab") (tstamp c91b9bdd-888e-4c56-91c7-2bcfd9b1fb80))
  (fp_poly
    (pts
      (xy 11.176 -1.016)
      (xy 11.684 -1.016)
      (xy 11.684 -1.524)
      (xy 11.176 -1.524)
    )

    (stroke (width 0) (type default)) (fill solid) (layer "F.Fab") (tstamp 6c072626-0108-430b-b73b-366b62d50148))
  (fp_poly
    (pts
      (xy 11.176 1.524)
      (xy 11.684 1.524)
      (xy 11.684 1.016)
      (xy 11.176 1.016)
    )

    (stroke (width 0) (type default)) (fill solid) (layer "F.Fab") (tstamp 8132f2cd-c22d-4e38-8840-973d3285ab97))
  (fp_poly
    (pts
      (xy 13.716 -1.016)
      (xy 14.224 -1.016)
      (xy 14.224 -1.524)
      (xy 13.716 -1.524)
    )

    (stroke (width 0) (type default)) (fill solid) (layer "F.Fab") (tstamp e4a998c7-95da-4ee2-b123-cae02182ef09))
  (fp_poly
    (pts
      (xy 13.716 1.524)
      (xy 14.224 1.524)
      (xy 14.224 1.016)
      (xy 13.716 1.016)
    )

    (stroke (width 0) (type default)) (fill solid) (layer "F.Fab") (tstamp c168b954-a270-4875-9f9d-2578d4582950))
  (fp_poly
    (pts
      (xy 16.256 -1.016)
      (xy 16.764 -1.016)
      (xy 16.764 -1.524)
      (xy 16.256 -1.524)
    )

    (stroke (width 0) (type default)) (fill solid) (layer "F.Fab") (tstamp 71fcaec9-9c2d-42af-9119-86efa024a72f))
  (fp_poly
    (pts
      (xy 16.256 1.524)
      (xy 16.764 1.524)
      (xy 16.764 1.016)
      (xy 16.256 1.016)
    )

    (stroke (width 0) (type default)) (fill solid) (layer "F.Fab") (tstamp d806d9a7-7297-4a02-94de-8df69525f532))
  (fp_poly
    (pts
      (xy 18.796 -1.016)
      (xy 19.304 -1.016)
      (xy 19.304 -1.524)
      (xy 18.796 -1.524)
    )

    (stroke (width 0) (type default)) (fill solid) (layer "F.Fab") (tstamp 996741f2-c2f9-434b-85d2-c4d1f31cd13e))
  (fp_poly
    (pts
      (xy 18.796 1.524)
      (xy 19.304 1.524)
      (xy 19.304 1.016)
      (xy 18.796 1.016)
    )

    (stroke (width 0) (type default)) (fill solid) (layer "F.Fab") (tstamp d5b74eaa-a441-489a-8782-6769f46ca682))
  (fp_poly
    (pts
      (xy 21.336 -1.016)
      (xy 21.844 -1.016)
      (xy 21.844 -1.524)
      (xy 21.336 -1.524)
    )

    (stroke (width 0) (type default)) (fill solid) (layer "F.Fab") (tstamp 19763e9d-6b8d-41e7-9dd5-4a5f29c16b0d))
  (fp_poly
    (pts
      (xy 21.336 1.524)
      (xy 21.844 1.524)
      (xy 21.844 1.016)
      (xy 21.336 1.016)
    )

    (stroke (width 0) (type default)) (fill solid) (layer "F.Fab") (tstamp 85081195-e6d0-43ec-9572-36f8de836539))
  (fp_poly
    (pts
      (xy 23.876 -1.016)
      (xy 24.384 -1.016)
      (xy 24.384 -1.524)
      (xy 23.876 -1.524)
    )

    (stroke (width 0) (type default)) (fill solid) (layer "F.Fab") (tstamp 10d00b46-7cda-4a44-a181-be07d52af2b8))
  (fp_poly
    (pts
      (xy 23.876 1.524)
      (xy 24.384 1.524)
      (xy 24.384 1.016)
      (xy 23.876 1.016)
    )

    (stroke (width 0) (type default)) (fill solid) (layer "F.Fab") (tstamp 9efd2e3e-b7a7-45c3-9074-975fa614d641))
  (pad "1" thru_hole roundrect (at -24.13 1.27) (size 1.524 1.524) (drill 1.016) (layers "*.Cu" "*.Mask") (roundrect_rratio 0.25)
    (chamfer_ratio 0.2928932188) (chamfer top_left top_right bottom_left bottom_right)
    (solder_mask_margin 0.1016) (thermal_bridge_angle 45) (tstamp ecfea25a-bcdb-4b06-a087-efc2b7617475))
  (pad "2" thru_hole roundrect (at -24.13 -1.27) (size 1.524 1.524) (drill 1.016) (layers "*.Cu" "*.Mask") (roundrect_rratio 0.25)
    (chamfer_ratio 0.2928932188) (chamfer top_left top_right bottom_left bottom_right)
    (solder_mask_margin 0.1016) (thermal_bridge_angle 45) (tstamp 9c6d4e0e-ee27-45a1-a0d1-53c38007a902))
  (pad "3" thru_hole roundrect (at -21.59 1.27) (size 1.524 1.524) (drill 1.016) (layers "*.Cu" "*.Mask") (roundrect_rratio 0.25)
    (chamfer_ratio 0.2928932188) (chamfer top_left top_right bottom_left bottom_right)
    (solder_mask_margin 0.1016) (thermal_bridge_angle 45) (tstamp 8346182c-3436-4a51-83aa-402c3a04db42))
  (pad "4" thru_hole roundrect (at -21.59 -1.27) (size 1.524 1.524) (drill 1.016) (layers "*.Cu" "*.Mask") (roundrect_rratio 0.25)
    (chamfer_ratio 0.2928932188) (chamfer top_left top_right bottom_left bottom_right)
    (solder_mask_margin 0.1016) (thermal_bridge_angle 45) (tstamp 4d0a8883-53f4-4223-a7cb-45561177a545))
  (pad "5" thru_hole roundrect (at -19.05 1.27) (size 1.524 1.524) (drill 1.016) (layers "*.Cu" "*.Mask") (roundrect_rratio 0.25)
    (chamfer_ratio 0.2928932188) (chamfer top_left top_right bottom_left bottom_right)
    (solder_mask_margin 0.1016) (thermal_bridge_angle 45) (tstamp 5b915eea-faf6-4a0b-844c-e54cc6c88b3a))
  (pad "6" thru_hole roundrect (at -19.05 -1.27) (size 1.524 1.524) (drill 1.016) (layers "*.Cu" "*.Mask") (roundrect_rratio 0.25)
    (chamfer_ratio 0.2928932188) (chamfer top_left top_right bottom_left bottom_right)
    (solder_mask_margin 0.1016) (thermal_bridge_angle 45) (tstamp 46af0555-80eb-4f96-957c-2222a1bc1f4f))
  (pad "7" thru_hole roundrect (at -16.51 1.27) (size 1.524 1.524) (drill 1.016) (layers "*.Cu" "*.Mask") (roundrect_rratio 0.25)
    (chamfer_ratio 0.2928932188) (chamfer top_left top_right bottom_left bottom_right)
    (solder_mask_margin 0.1016) (thermal_bridge_angle 45) (tstamp f3c96659-1229-4402-968f-e0a01edda5fd))
  (pad "8" thru_hole roundrect (at -16.51 -1.27) (size 1.524 1.524) (drill 1.016) (layers "*.Cu" "*.Mask") (roundrect_rratio 0.25)
    (chamfer_ratio 0.2928932188) (chamfer top_left top_right bottom_left bottom_right)
    (solder_mask_margin 0.1016) (thermal_bridge_angle 45) (tstamp 9ffab6e8-166b-4801-aec3-35db470dce7a))
  (pad "9" thru_hole roundrect (at -13.97 1.27) (size 1.524 1.524) (drill 1.016) (layers "*.Cu" "*.Mask") (roundrect_rratio 0.25)
    (chamfer_ratio 0.2928932188) (chamfer top_left top_right bottom_left bottom_right)
    (solder_mask_margin 0.1016) (thermal_bridge_angle 45) (tstamp 93b636a8-a73d-4b20-9260-32df49f03070))
  (pad "10" thru_hole roundrect (at -13.97 -1.27) (size 1.524 1.524) (drill 1.016) (layers "*.Cu" "*.Mask") (roundrect_rratio 0.25)
    (chamfer_ratio 0.2928932188) (chamfer top_left top_right bottom_left bottom_right)
    (solder_mask_margin 0.1016) (thermal_bridge_angle 45) (tstamp 6e0d473d-256c-4e27-8114-312b64edf821))
  (pad "11" thru_hole roundrect (at -11.43 1.27) (size 1.524 1.524) (drill 1.016) (layers "*.Cu" "*.Mask") (roundrect_rratio 0.25)
    (chamfer_ratio 0.2928932188) (chamfer top_left top_right bottom_left bottom_right)
    (solder_mask_margin 0.1016) (thermal_bridge_angle 45) (tstamp 324e5441-40a6-49f6-af91-60f6ee9ff126))
  (pad "12" thru_hole roundrect (at -11.43 -1.27) (size 1.524 1.524) (drill 1.016) (layers "*.Cu" "*.Mask") (roundrect_rratio 0.25)
    (chamfer_ratio 0.2928932188) (chamfer top_left top_right bottom_left bottom_right)
    (solder_mask_margin 0.1016) (thermal_bridge_angle 45) (tstamp 60900f8c-700b-417d-8f56-5e383f367dcb))
  (pad "13" thru_hole roundrect (at -8.89 1.27) (size 1.524 1.524) (drill 1.016) (layers "*.Cu" "*.Mask") (roundrect_rratio 0.25)
    (chamfer_ratio 0.2928932188) (chamfer top_left top_right bottom_left bottom_right)
    (solder_mask_margin 0.1016) (thermal_bridge_angle 45) (tstamp 550b7a4f-961c-46c6-8a0b-a87f88c74830))
  (pad "14" thru_hole roundrect (at -8.89 -1.27) (size 1.524 1.524) (drill 1.016) (layers "*.Cu" "*.Mask") (roundrect_rratio 0.25)
    (chamfer_ratio 0.2928932188) (chamfer top_left top_right bottom_left bottom_right)
    (solder_mask_margin 0.1016) (thermal_bridge_angle 45) (tstamp 5b371c40-0974-491b-9d8d-61b0748d3369))
  (pad "15" thru_hole roundrect (at -6.35 1.27) (size 1.524 1.524) (drill 1.016) (layers "*.Cu" "*.Mask") (roundrect_rratio 0.25)
    (chamfer_ratio 0.2928932188) (chamfer top_left top_right bottom_left bottom_right)
    (solder_mask_margin 0.1016) (thermal_bridge_angle 45) (tstamp a8a6eab1-d3b7-455e-a520-3e06fc55e6b2))
  (pad "16" thru_hole roundrect (at -6.35 -1.27) (size 1.524 1.524) (drill 1.016) (layers "*.Cu" "*.Mask") (roundrect_rratio 0.25)
    (chamfer_ratio 0.2928932188) (chamfer top_left top_right bottom_left bottom_right)
    (solder_mask_margin 0.1016) (thermal_bridge_angle 45) (tstamp af638e58-da66-43be-8ac4-e8e8067b6325))
  (pad "17" thru_hole roundrect (at -3.81 1.27) (size 1.524 1.524) (drill 1.016) (layers "*.Cu" "*.Mask") (roundrect_rratio 0.25)
    (chamfer_ratio 0.2928932188) (chamfer top_left top_right bottom_left bottom_right)
    (solder_mask_margin 0.1016) (thermal_bridge_angle 45) (tstamp dc775a68-3741-4b42-ba89-e7092a2979b4))
  (pad "18" thru_hole roundrect (at -3.81 -1.27) (size 1.524 1.524) (drill 1.016) (layers "*.Cu" "*.Mask") (roundrect_rratio 0.25)
    (chamfer_ratio 0.2928932188) (chamfer top_left top_right bottom_left bottom_right)
    (solder_mask_margin 0.1016) (thermal_bridge_angle 45) (tstamp e034d53d-98ef-4dbf-b20a-951293a66559))
  (pad "19" thru_hole roundrect (at -1.27 1.27) (size 1.524 1.524) (drill 1.016) (layers "*.Cu" "*.Mask") (roundrect_rratio 0.25)
    (chamfer_ratio 0.2928932188) (chamfer top_left top_right bottom_left bottom_right)
    (solder_mask_margin 0.1016) (thermal_bridge_angle 45) (tstamp 12675b4a-15c6-4c9d-a0fe-1f5393f83a3c))
  (pad "20" thru_hole roundrect (at -1.27 -1.27) (size 1.524 1.524) (drill 1.016) (layers "*.Cu" "*.Mask") (roundrect_rratio 0.25)
    (chamfer_ratio 0.2928932188) (chamfer top_left top_right bottom_left bottom_right)
    (solder_mask_margin 0.1016) (thermal_bridge_angle 45) (tstamp f71cc791-1027-4a46-8bf0-d70f76af3555))
  (pad "21" thru_hole roundrect (at 1.27 1.27) (size 1.524 1.524) (drill 1.016) (layers "*.Cu" "*.Mask") (roundrect_rratio 0.25)
    (chamfer_ratio 0.2928932188) (chamfer top_left top_right bottom_left bottom_right)
    (solder_mask_margin 0.1016) (thermal_bridge_angle 45) (tstamp 4afc84df-a617-4f04-8840-da68299d583e))
  (pad "22" thru_hole roundrect (at 1.27 -1.27) (size 1.524 1.524) (drill 1.016) (layers "*.Cu" "*.Mask") (roundrect_rratio 0.25)
    (chamfer_ratio 0.2928932188) (chamfer top_left top_right bottom_left bottom_right)
    (solder_mask_margin 0.1016) (thermal_bridge_angle 45) (tstamp baf1390e-94e6-48e1-a64e-628505572daa))
  (pad "23" thru_hole roundrect (at 3.81 1.27) (size 1.524 1.524) (drill 1.016) (layers "*.Cu" "*.Mask") (roundrect_rratio 0.25)
    (chamfer_ratio 0.2928932188) (chamfer top_left top_right bottom_left bottom_right)
    (solder_mask_margin 0.1016) (thermal_bridge_angle 45) (tstamp edffe43e-8e6a-4c0d-8667-281f22d3f365))
  (pad "24" thru_hole roundrect (at 3.81 -1.27) (size 1.524 1.524) (drill 1.016) (layers "*.Cu" "*.Mask") (roundrect_rratio 0.25)
    (chamfer_ratio 0.2928932188) (chamfer top_left top_right bottom_left bottom_right)
    (solder_mask_margin 0.1016) (thermal_bridge_angle 45) (tstamp 816ecd2e-301b-4bab-81fe-5c090f008689))
  (pad "25" thru_hole roundrect (at 6.35 1.27) (size 1.524 1.524) (drill 1.016) (layers "*.Cu" "*.Mask") (roundrect_rratio 0.25)
    (chamfer_ratio 0.2928932188) (chamfer top_left top_right bottom_left bottom_right)
    (solder_mask_margin 0.1016) (thermal_bridge_angle 45) (tstamp 2edd62f2-8fcd-4586-a0f5-89d662a59dcc))
  (pad "26" thru_hole roundrect (at 6.35 -1.27) (size 1.524 1.524) (drill 1.016) (layers "*.Cu" "*.Mask") (roundrect_rratio 0.25)
    (chamfer_ratio 0.2928932188) (chamfer top_left top_right bottom_left bottom_right)
    (solder_mask_margin 0.1016) (thermal_bridge_angle 45) (tstamp e3f5700e-783b-4045-b22f-2523c05648a1))
  (pad "27" thru_hole roundrect (at 8.89 1.27) (size 1.524 1.524) (drill 1.016) (layers "*.Cu" "*.Mask") (roundrect_rratio 0.25)
    (chamfer_ratio 0.2928932188) (chamfer top_left top_right bottom_left bottom_right)
    (solder_mask_margin 0.1016) (thermal_bridge_angle 45) (tstamp 6911c0d2-5b2c-4215-995b-e3efbc8cc364))
  (pad "28" thru_hole roundrect (at 8.89 -1.27) (size 1.524 1.524) (drill 1.016) (layers "*.Cu" "*.Mask") (roundrect_rratio 0.25)
    (chamfer_ratio 0.2928932188) (chamfer top_left top_right bottom_left bottom_right)
    (solder_mask_margin 0.1016) (thermal_bridge_angle 45) (tstamp 338b8df1-1389-4ce0-a049-db2ccedff413))
  (pad "29" thru_hole roundrect (at 11.43 1.27) (size 1.524 1.524) (drill 1.016) (layers "*.Cu" "*.Mask") (roundrect_rratio 0.25)
    (chamfer_ratio 0.2928932188) (chamfer top_left top_right bottom_left bottom_right)
    (solder_mask_margin 0.1016) (thermal_bridge_angle 45) (tstamp 389ece48-a8e4-41e5-9ed7-f557a4f497f8))
  (pad "30" thru_hole roundrect (at 11.43 -1.27) (size 1.524 1.524) (drill 1.016) (layers "*.Cu" "*.Mask") (roundrect_rratio 0.25)
    (chamfer_ratio 0.2928932188) (chamfer top_left top_right bottom_left bottom_right)
    (solder_mask_margin 0.1016) (thermal_bridge_angle 45) (tstamp 5618bba0-ea05-4e23-80f1-91e2f41ce959))
  (pad "31" thru_hole roundrect (at 13.97 1.27) (size 1.524 1.524) (drill 1.016) (layers "*.Cu" "*.Mask") (roundrect_rratio 0.25)
    (chamfer_ratio 0.2928932188) (chamfer top_left top_right bottom_left bottom_right)
    (solder_mask_margin 0.1016) (thermal_bridge_angle 45) (tstamp 229ce9e5-25b8-4d8c-a9bc-02dc7ec7e985))
  (pad "32" thru_hole roundrect (at 13.97 -1.27) (size 1.524 1.524) (drill 1.016) (layers "*.Cu" "*.Mask") (roundrect_rratio 0.25)
    (chamfer_ratio 0.2928932188) (chamfer top_left top_right bottom_left bottom_right)
    (solder_mask_margin 0.1016) (thermal_bridge_angle 45) (tstamp a41a4363-ab23-40c0-9ea7-8ec418f9b6a9))
  (pad "33" thru_hole roundrect (at 16.51 1.27) (size 1.524 1.524) (drill 1.016) (layers "*.Cu" "*.Mask") (roundrect_rratio 0.25)
    (chamfer_ratio 0.2928932188) (chamfer top_left top_right bottom_left bottom_right)
    (solder_mask_margin 0.1016) (thermal_bridge_angle 45) (tstamp de17dfe5-5b99-44c2-a40a-b28f90d68537))
  (pad "34" thru_hole roundrect (at 16.51 -1.27) (size 1.524 1.524) (drill 1.016) (layers "*.Cu" "*.Mask") (roundrect_rratio 0.25)
    (chamfer_ratio 0.2928932188) (chamfer top_left top_right bottom_left bottom_right)
    (solder_mask_margin 0.1016) (thermal_bridge_angle 45) (tstamp d626bf26-3d19-4321-979f-95b40449c07d))
  (pad "35" thru_hole roundrect (at 19.05 1.27) (size 1.524 1.524) (drill 1.016) (layers "*.Cu" "*.Mask") (roundrect_rratio 0.25)
    (chamfer_ratio 0.2928932188) (chamfer top_left top_right bottom_left bottom_right)
    (solder_mask_margin 0.1016) (thermal_bridge_angle 45) (tstamp 052edaff-ad8e-4bb1-b69c-f763f95c6945))
  (pad "36" thru_hole roundrect (at 19.05 -1.27) (size 1.524 1.524) (drill 1.016) (layers "*.Cu" "*.Mask") (roundrect_rratio 0.25)
    (chamfer_ratio 0.2928932188) (chamfer top_left top_right bottom_left bottom_right)
    (solder_mask_margin 0.1016) (thermal_bridge_angle 45) (tstamp da58969e-d7ac-4776-9269-6ab2485f7df9))
  (pad "37" thru_hole roundrect (at 21.59 1.27) (size 1.524 1.524) (drill 1.016) (layers "*.Cu" "*.Mask") (roundrect_rratio 0.25)
    (chamfer_ratio 0.2928932188) (chamfer top_left top_right bottom_left bottom_right)
    (solder_mask_margin 0.1016) (thermal_bridge_angle 45) (tstamp 8d2b5b82-08e8-4c33-bb43-448e812b35ea))
  (pad "38" thru_hole roundrect (at 21.59 -1.27) (size 1.524 1.524) (drill 1.016) (layers "*.Cu" "*.Mask") (roundrect_rratio 0.25)
    (chamfer_ratio 0.2928932188) (chamfer top_left top_right bottom_left bottom_right)
    (solder_mask_margin 0.1016) (thermal_bridge_angle 45) (tstamp cdc7452b-4cb4-4425-934f-f27c85647a7f))
  (pad "39" thru_hole roundrect (at 24.13 1.27) (size 1.524 1.524) (drill 1.016) (layers "*.Cu" "*.Mask") (roundrect_rratio 0.25)
    (chamfer_ratio 0.2928932188) (chamfer top_left top_right bottom_left bottom_right)
    (solder_mask_margin 0.1016) (thermal_bridge_angle 45) (tstamp ce74900f-93f7-4f27-8651-38ebb83b59c1))
  (pad "40" thru_hole roundrect (at 24.13 -1.27) (size 1.524 1.524) (drill 1.016) (layers "*.Cu" "*.Mask") (roundrect_rratio 0.25)
    (chamfer_ratio 0.2928932188) (chamfer top_left top_right bottom_left bottom_right)
    (solder_mask_margin 0.1016) (thermal_bridge_angle 45) (tstamp ce60e53a-a3ab-4f69-a1e6-effbef62f99f))
)
