(footprint "JP2" (version 20221018) (generator pcbnew)
  (layer "F.Cu")
  (descr "<b>JUMPER</b>")
  (fp_text reference "REF**" (at -3.556 -1.651) (layer "F.SilkS")
      (effects (font (size 1.143 1.143) (thickness 0.127)) (justify left bottom))
    (tstamp 6f051267-dd23-4e8f-b3e7-bebfb408bf1e)
  )
  (fp_text value "JP2" (at -3.556 4.318) (layer "F.Fab")
      (effects (font (size 1.143 1.143) (thickness 0.127)) (justify left bottom))
    (tstamp 97d71f3b-4f24-4e0b-9679-c4808a2b64de)
  )
  (fp_text user "1" (at -2.54 2.667) (layer "F.SilkS")
      (effects (font (size 0.871728 0.871728) (thickness 0.118872)) (justify left bottom))
    (tstamp 76d3ab75-e9fa-4acf-990e-03f0b4d53873)
  )
  (fp_text user "2" (at 0 2.667) (layer "F.SilkS")
      (effects (font (size 0.871728 0.871728) (thickness 0.118872)) (justify left bottom))
    (tstamp e988c3b4-c4da-4e77-bb7b-275fccb26fc5)
  )
  (fp_text user "3" (at 2.54 2.667) (layer "F.SilkS")
      (effects (font (size 0.871728 0.871728) (thickness 0.118872)) (justify left bottom))
    (tstamp f6907e53-ad65-4d87-a119-842ddecd3cd4)
  )
  (fp_line (start -3.81 -1.016) (end -3.556 -1.27)
    (stroke (width 0.1524) (type solid)) (layer "F.SilkS") (tstamp 10bc51fd-4ffa-474b-9143-99ed6af9fd7e))
  (fp_line (start -3.81 1.016) (end -3.81 -1.016)
    (stroke (width 0.1524) (type solid)) (layer "F.SilkS") (tstamp 123bb992-1fbf-42c4-80bb-9967696c36df))
  (fp_line (start -3.81 1.016) (end -3.556 1.27)
    (stroke (width 0.1524) (type solid)) (layer "F.SilkS") (tstamp 1d2dbeef-f227-4ea0-b4e5-a6bdd4abbf65))
  (fp_line (start -1.524 -1.27) (end -3.556 -1.27)
    (stroke (width 0.1524) (type solid)) (layer "F.SilkS") (tstamp eddd607c-e859-4801-872c-74f713124d67))
  (fp_line (start -1.524 -1.27) (end -1.27 -1.016)
    (stroke (width 0.1524) (type solid)) (layer "F.SilkS") (tstamp f6e266d2-7354-42bd-967c-a9d40eb7976b))
  (fp_line (start -1.524 1.27) (end -3.556 1.27)
    (stroke (width 0.1524) (type solid)) (layer "F.SilkS") (tstamp 3bb68f91-78db-44dd-b2f9-194840cc7177))
  (fp_line (start -1.524 1.27) (end -1.27 1.016)
    (stroke (width 0.1524) (type solid)) (layer "F.SilkS") (tstamp 85ffdfa4-43c5-40f8-85cc-8c5181d04bdd))
  (fp_line (start -1.27 -1.016) (end -1.016 -1.27)
    (stroke (width 0.1524) (type solid)) (layer "F.SilkS") (tstamp d9db8b6f-714e-4e62-abe3-9360928c95b8))
  (fp_line (start -1.27 1.016) (end -1.016 1.27)
    (stroke (width 0.1524) (type solid)) (layer "F.SilkS") (tstamp 2e024755-b7bd-4aef-86ef-e893a1d9928a))
  (fp_line (start 1.016 -1.27) (end -1.016 -1.27)
    (stroke (width 0.1524) (type solid)) (layer "F.SilkS") (tstamp 64389f3d-3f34-44e7-ad1f-6f496f02e103))
  (fp_line (start 1.016 -1.27) (end 1.27 -1.016)
    (stroke (width 0.1524) (type solid)) (layer "F.SilkS") (tstamp 9b390b3a-760b-4c98-a74f-e34131bf351d))
  (fp_line (start 1.016 1.27) (end -1.016 1.27)
    (stroke (width 0.1524) (type solid)) (layer "F.SilkS") (tstamp 0eb60bde-73ee-47d2-b3a1-358e4423103a))
  (fp_line (start 1.016 1.27) (end 1.27 1.016)
    (stroke (width 0.1524) (type solid)) (layer "F.SilkS") (tstamp 6633102f-4e3c-46cd-ba79-082b1c54a66d))
  (fp_line (start 1.27 -1.016) (end 1.524 -1.27)
    (stroke (width 0.1524) (type solid)) (layer "F.SilkS") (tstamp 271413f6-b4a6-4294-a5df-02b17710b1d2))
  (fp_line (start 1.27 1.016) (end 1.524 1.27)
    (stroke (width 0.1524) (type solid)) (layer "F.SilkS") (tstamp a1d48f3b-527f-43c6-833e-caeccbc4640c))
  (fp_line (start 3.556 -1.27) (end 1.524 -1.27)
    (stroke (width 0.1524) (type solid)) (layer "F.SilkS") (tstamp 149827ad-0f1a-43e8-a51a-4d5439372752))
  (fp_line (start 3.556 -1.27) (end 3.81 -1.016)
    (stroke (width 0.1524) (type solid)) (layer "F.SilkS") (tstamp 35baef58-a322-40f4-83f0-42c7d366997b))
  (fp_line (start 3.556 1.27) (end 1.524 1.27)
    (stroke (width 0.1524) (type solid)) (layer "F.SilkS") (tstamp 1634b4e9-3476-432c-a7dd-148bf1d8f533))
  (fp_line (start 3.556 1.27) (end 3.81 1.016)
    (stroke (width 0.1524) (type solid)) (layer "F.SilkS") (tstamp b830310a-453a-4786-be46-b19a30b8b1af))
  (fp_line (start 3.81 -1.016) (end 3.81 1.016)
    (stroke (width 0.1524) (type solid)) (layer "F.SilkS") (tstamp 10a37dd7-c28f-4bd0-a58c-87078979517c))
  (fp_poly
    (pts
      (xy -2.8448 0.3048)
      (xy -2.2352 0.3048)
      (xy -2.2352 -0.3048)
      (xy -2.8448 -0.3048)
    )

    (stroke (width 0) (type default)) (fill solid) (layer "F.Fab") (tstamp 23070346-42e8-45e9-8bce-1dadf7ce84fb))
  (fp_poly
    (pts
      (xy -0.3048 0.3048)
      (xy 0.3048 0.3048)
      (xy 0.3048 -0.3048)
      (xy -0.3048 -0.3048)
    )

    (stroke (width 0) (type default)) (fill solid) (layer "F.Fab") (tstamp c48fe349-f162-4285-8168-b6219ffdc9d4))
  (fp_poly
    (pts
      (xy 2.2352 0.3048)
      (xy 2.8448 0.3048)
      (xy 2.8448 -0.3048)
      (xy 2.2352 -0.3048)
    )

    (stroke (width 0) (type default)) (fill solid) (layer "F.Fab") (tstamp 339e77f6-c687-4b4e-aefd-e051b4b61f5c))
  (pad "1" thru_hole oval (at -2.54 0 90) (size 2.8448 1.4224) (drill 0.9144) (layers "*.Cu" "*.Mask")
    (solder_mask_margin 0.1016) (thermal_bridge_angle 45) (tstamp d4f26b7f-d9b3-43c1-8469-fa72bfc29d73))
  (pad "2" thru_hole oval (at 0 0 90) (size 2.8448 1.4224) (drill 0.9144) (layers "*.Cu" "*.Mask")
    (solder_mask_margin 0.1016) (thermal_bridge_angle 45) (tstamp 58f7f13c-6edb-42f5-be66-fa1d5710d1f7))
  (pad "3" thru_hole oval (at 2.54 0 90) (size 2.8448 1.4224) (drill 0.9144) (layers "*.Cu" "*.Mask")
    (solder_mask_margin 0.1016) (thermal_bridge_angle 45) (tstamp 301282fe-1553-414d-a1e5-e62f4ccbd7eb))
)
