G04 EAGLE Gerber RS-274X export*
G75*
%MOMM*%
%FSLAX34Y34*%
%LPD*%
%INSilkscreen Bottom*%
%IPPOS*%
%AMOC8*
5,1,8,0,0,1.08239X$1,22.5*%
G01*
%ADD10C,0.152400*%
%ADD11C,0.127000*%


D10*
X569238Y193406D02*
X564722Y197018D01*
X564722Y180762D01*
X560207Y180762D02*
X569238Y180762D01*
X547650Y224600D02*
X554000Y230950D01*
X547650Y224600D02*
X534950Y224600D01*
X528600Y230950D01*
X522250Y224600D01*
X509550Y224600D01*
X503200Y230950D01*
X496850Y224600D01*
X484150Y224600D01*
X477800Y230950D01*
X471450Y224600D01*
X458750Y224600D01*
X452400Y230950D01*
X446050Y224600D01*
X433350Y224600D01*
X427000Y230950D01*
X420650Y224600D01*
X407950Y224600D01*
X401600Y230950D01*
X554000Y230950D02*
X554000Y269050D01*
X547650Y275400D01*
X534950Y275400D01*
X528600Y269050D01*
X522250Y275400D01*
X509550Y275400D01*
X503200Y269050D01*
X496850Y275400D01*
X484150Y275400D01*
X477800Y269050D01*
X471450Y275400D01*
X458750Y275400D01*
X452400Y269050D01*
X446050Y275400D01*
X433350Y275400D01*
X427000Y269050D01*
X420650Y275400D01*
X407950Y275400D01*
X401600Y269050D01*
X395250Y275400D01*
X382550Y275400D01*
X376200Y269050D01*
X369850Y275400D01*
X357150Y275400D01*
X350800Y269050D01*
X344450Y275400D01*
X331750Y275400D01*
X325400Y269050D01*
X319050Y275400D01*
X306350Y275400D01*
X300000Y269050D01*
X293650Y275400D01*
X280950Y275400D01*
X274600Y269050D01*
X268250Y275400D01*
X255550Y275400D01*
X249200Y269050D01*
X242850Y275400D01*
X230150Y275400D01*
X223800Y269050D01*
X217450Y275400D01*
X204750Y275400D01*
X198400Y269050D01*
X192050Y275400D01*
X179350Y275400D01*
X173000Y269050D01*
X166650Y275400D01*
X153950Y275400D01*
X147600Y269050D01*
X141250Y275400D01*
X128550Y275400D01*
X122200Y269050D01*
X115850Y275400D01*
X103150Y275400D01*
X96800Y269050D01*
X90450Y275400D01*
X77750Y275400D01*
X71400Y269050D01*
X71400Y230950D02*
X77750Y224600D01*
X90450Y224600D01*
X96800Y230950D01*
X103150Y224600D01*
X115850Y224600D01*
X122200Y230950D01*
X128550Y224600D01*
X141250Y224600D01*
X147600Y230950D01*
X153950Y224600D01*
X166650Y224600D01*
X173000Y230950D01*
X179350Y224600D01*
X192050Y224600D01*
X198400Y230950D01*
X204750Y224600D01*
X217450Y224600D01*
X223800Y230950D01*
X230150Y224600D01*
X242850Y224600D01*
X249200Y230950D01*
X255550Y224600D01*
X268250Y224600D01*
X274600Y230950D01*
X280950Y224600D01*
X293650Y224600D01*
X300000Y230950D01*
X306350Y224600D01*
X319050Y224600D01*
X325400Y230950D01*
X331750Y224600D01*
X344450Y224600D01*
X350800Y230950D01*
X357150Y224600D01*
X369850Y224600D01*
X376200Y230950D01*
X382550Y224600D01*
X395250Y224600D01*
X401600Y230950D01*
X528600Y230950D02*
X528600Y269050D01*
X503200Y269050D02*
X503200Y230950D01*
X477800Y230950D02*
X477800Y269050D01*
X452400Y269050D02*
X452400Y230950D01*
X427000Y230950D02*
X427000Y269050D01*
X401600Y269050D02*
X401600Y230950D01*
X376200Y230950D02*
X376200Y269050D01*
X350800Y269050D02*
X350800Y230950D01*
X325400Y230950D02*
X325400Y269050D01*
X300000Y269050D02*
X300000Y230950D01*
X274600Y230950D02*
X274600Y269050D01*
X249200Y269050D02*
X249200Y230950D01*
X223800Y230950D02*
X223800Y269050D01*
X198400Y269050D02*
X198400Y230950D01*
X173000Y230950D02*
X173000Y269050D01*
X147600Y269050D02*
X147600Y230950D01*
X122200Y230950D02*
X122200Y269050D01*
X96800Y269050D02*
X96800Y230950D01*
X71400Y230950D02*
X71400Y269050D01*
X65050Y275400D01*
X52350Y275400D01*
X46000Y269050D01*
X46000Y230950D02*
X52350Y224600D01*
X65050Y224600D01*
X71400Y230950D01*
X46000Y230950D02*
X46000Y269050D01*
D11*
X545745Y286830D02*
X553365Y286830D01*
X540411Y290005D02*
X532791Y286830D01*
X540411Y283655D01*
X527178Y282385D02*
X522098Y282385D01*
X527178Y282385D02*
X527178Y293815D01*
X522098Y293815D01*
X523368Y288735D02*
X527178Y288735D01*
X515175Y282385D02*
X512635Y282385D01*
X515175Y282385D02*
X515275Y282387D01*
X515374Y282393D01*
X515474Y282403D01*
X515572Y282416D01*
X515671Y282434D01*
X515768Y282455D01*
X515864Y282480D01*
X515960Y282509D01*
X516054Y282542D01*
X516147Y282578D01*
X516238Y282618D01*
X516328Y282662D01*
X516416Y282709D01*
X516502Y282759D01*
X516586Y282813D01*
X516668Y282870D01*
X516747Y282930D01*
X516825Y282994D01*
X516899Y283060D01*
X516971Y283129D01*
X517040Y283201D01*
X517106Y283275D01*
X517170Y283353D01*
X517230Y283432D01*
X517287Y283514D01*
X517341Y283598D01*
X517391Y283684D01*
X517438Y283772D01*
X517482Y283862D01*
X517522Y283953D01*
X517558Y284046D01*
X517591Y284140D01*
X517620Y284236D01*
X517645Y284332D01*
X517666Y284429D01*
X517684Y284528D01*
X517697Y284626D01*
X517707Y284726D01*
X517713Y284825D01*
X517715Y284925D01*
X517715Y291275D01*
X517713Y291375D01*
X517707Y291474D01*
X517697Y291574D01*
X517684Y291672D01*
X517666Y291771D01*
X517645Y291868D01*
X517620Y291964D01*
X517591Y292060D01*
X517558Y292154D01*
X517522Y292247D01*
X517482Y292338D01*
X517438Y292428D01*
X517391Y292516D01*
X517341Y292602D01*
X517287Y292686D01*
X517230Y292768D01*
X517170Y292847D01*
X517106Y292925D01*
X517040Y292999D01*
X516971Y293071D01*
X516899Y293140D01*
X516825Y293206D01*
X516747Y293270D01*
X516668Y293330D01*
X516586Y293387D01*
X516502Y293441D01*
X516416Y293491D01*
X516328Y293538D01*
X516238Y293582D01*
X516147Y293622D01*
X516054Y293658D01*
X515960Y293691D01*
X515864Y293720D01*
X515768Y293745D01*
X515671Y293766D01*
X515572Y293784D01*
X515474Y293797D01*
X515374Y293807D01*
X515275Y293813D01*
X515175Y293815D01*
X512635Y293815D01*
X507772Y293815D02*
X507772Y285560D01*
X507770Y285449D01*
X507764Y285339D01*
X507755Y285228D01*
X507741Y285118D01*
X507724Y285009D01*
X507703Y284900D01*
X507678Y284792D01*
X507649Y284685D01*
X507617Y284579D01*
X507581Y284474D01*
X507541Y284371D01*
X507498Y284269D01*
X507451Y284168D01*
X507400Y284069D01*
X507347Y283972D01*
X507290Y283878D01*
X507229Y283785D01*
X507166Y283694D01*
X507099Y283605D01*
X507029Y283519D01*
X506956Y283436D01*
X506881Y283354D01*
X506803Y283276D01*
X506721Y283201D01*
X506638Y283128D01*
X506552Y283058D01*
X506463Y282991D01*
X506372Y282928D01*
X506279Y282867D01*
X506184Y282810D01*
X506088Y282757D01*
X505989Y282706D01*
X505888Y282659D01*
X505786Y282616D01*
X505683Y282576D01*
X505578Y282540D01*
X505472Y282508D01*
X505365Y282479D01*
X505257Y282454D01*
X505148Y282433D01*
X505039Y282416D01*
X504929Y282402D01*
X504818Y282393D01*
X504708Y282387D01*
X504597Y282385D01*
X504486Y282387D01*
X504376Y282393D01*
X504265Y282402D01*
X504155Y282416D01*
X504046Y282433D01*
X503937Y282454D01*
X503829Y282479D01*
X503722Y282508D01*
X503616Y282540D01*
X503511Y282576D01*
X503408Y282616D01*
X503306Y282659D01*
X503205Y282706D01*
X503106Y282757D01*
X503010Y282810D01*
X502915Y282867D01*
X502822Y282928D01*
X502731Y282991D01*
X502642Y283058D01*
X502556Y283128D01*
X502473Y283201D01*
X502391Y283276D01*
X502313Y283354D01*
X502238Y283436D01*
X502165Y283519D01*
X502095Y283605D01*
X502028Y283694D01*
X501965Y283785D01*
X501904Y283878D01*
X501847Y283973D01*
X501794Y284069D01*
X501743Y284168D01*
X501696Y284269D01*
X501653Y284371D01*
X501613Y284474D01*
X501577Y284579D01*
X501545Y284685D01*
X501516Y284792D01*
X501491Y284900D01*
X501470Y285009D01*
X501453Y285118D01*
X501439Y285228D01*
X501430Y285339D01*
X501424Y285449D01*
X501422Y285560D01*
X501422Y293815D01*
M02*
