G04 EAGLE Gerber RS-274X export*
G75*
%MOMM*%
%FSLAX34Y34*%
%LPD*%
%INSoldermask Top*%
%IPPOS*%
%AMOC8*
5,1,8,0,0,1.08239X$1,22.5*%
G01*
%ADD10P,1.869504X8X202.500000*%
%ADD11C,3.505200*%


D10*
X541300Y237300D03*
X541300Y262700D03*
X515900Y237300D03*
X515900Y262700D03*
X490500Y237300D03*
X490500Y262700D03*
X465100Y237300D03*
X465100Y262700D03*
X439700Y237300D03*
X439700Y262700D03*
X414300Y237300D03*
X414300Y262700D03*
X388900Y237300D03*
X388900Y262700D03*
X363500Y237300D03*
X363500Y262700D03*
X338100Y237300D03*
X338100Y262700D03*
X312700Y237300D03*
X312700Y262700D03*
X287300Y237300D03*
X287300Y262700D03*
X261900Y237300D03*
X261900Y262700D03*
X236500Y237300D03*
X236500Y262700D03*
X211100Y237300D03*
X211100Y262700D03*
X185700Y237300D03*
X185700Y262700D03*
X160300Y237300D03*
X160300Y262700D03*
X134900Y237300D03*
X134900Y262700D03*
X109500Y237300D03*
X109500Y262700D03*
X84100Y237300D03*
X84100Y262700D03*
X58700Y237300D03*
X58700Y262700D03*
X541300Y362700D03*
X541300Y337300D03*
X515900Y362700D03*
X515900Y337300D03*
X490500Y362700D03*
X490500Y337300D03*
X465100Y362700D03*
X465100Y337300D03*
X439700Y362700D03*
X439700Y337300D03*
X414300Y362700D03*
X414300Y337300D03*
X388900Y362700D03*
X388900Y337300D03*
X363500Y362700D03*
X363500Y337300D03*
X338100Y362700D03*
X338100Y337300D03*
X312700Y362700D03*
X312700Y337300D03*
X287300Y362700D03*
X287300Y337300D03*
X261900Y362700D03*
X261900Y337300D03*
X236500Y362700D03*
X236500Y337300D03*
X211100Y362700D03*
X211100Y337300D03*
X185700Y362700D03*
X185700Y337300D03*
X160300Y362700D03*
X160300Y337300D03*
X134900Y362700D03*
X134900Y337300D03*
X109500Y362700D03*
X109500Y337300D03*
X84100Y362700D03*
X84100Y337300D03*
X58700Y362700D03*
X58700Y337300D03*
X541300Y162700D03*
X541300Y137300D03*
X515900Y162700D03*
X515900Y137300D03*
X490500Y162700D03*
X490500Y137300D03*
X465100Y162700D03*
X465100Y137300D03*
X439700Y162700D03*
X439700Y137300D03*
X414300Y162700D03*
X414300Y137300D03*
X388900Y162700D03*
X388900Y137300D03*
X363500Y162700D03*
X363500Y137300D03*
X338100Y162700D03*
X338100Y137300D03*
X312700Y162700D03*
X312700Y137300D03*
X287300Y162700D03*
X287300Y137300D03*
X261900Y162700D03*
X261900Y137300D03*
X236500Y162700D03*
X236500Y137300D03*
X211100Y162700D03*
X211100Y137300D03*
X185700Y162700D03*
X185700Y137300D03*
X160300Y162700D03*
X160300Y137300D03*
X134900Y162700D03*
X134900Y137300D03*
X109500Y162700D03*
X109500Y137300D03*
X84100Y162700D03*
X84100Y137300D03*
X58700Y162700D03*
X58700Y137300D03*
D11*
X50000Y50000D03*
X50000Y450000D03*
X550000Y450000D03*
X550000Y50000D03*
M02*
