<?xml version="1.0" encoding="utf-8"?>
<!DOCTYPE eagle SYSTEM "eagle.dtd">
<eagle version="9.6.2">
<drawing>
<settings>
<setting alwaysvectorfont="no"/>
<setting verticaltext="up"/>
</settings>
<grid distance="0.1" unitdist="inch" unit="inch" style="lines" multiple="1" display="no" altdistance="0.01" altunitdist="inch" altunit="inch"/>
<layers>
<layer number="1" name="Top" color="4" fill="1" visible="no" active="no"/>
<layer number="16" name="Bottom" color="1" fill="1" visible="no" active="no"/>
<layer number="17" name="Pads" color="2" fill="1" visible="no" active="no"/>
<layer number="18" name="Vias" color="2" fill="1" visible="no" active="no"/>
<layer number="19" name="Unrouted" color="6" fill="1" visible="no" active="no"/>
<layer number="20" name="Dimension" color="15" fill="1" visible="no" active="no"/>
<layer number="21" name="tPlace" color="7" fill="1" visible="no" active="no"/>
<layer number="22" name="bPlace" color="7" fill="1" visible="no" active="no"/>
<layer number="23" name="tOrigins" color="15" fill="1" visible="no" active="no"/>
<layer number="24" name="bOrigins" color="15" fill="1" visible="no" active="no"/>
<layer number="25" name="tNames" color="7" fill="1" visible="no" active="no"/>
<layer number="26" name="bNames" color="7" fill="1" visible="no" active="no"/>
<layer number="27" name="tValues" color="7" fill="1" visible="no" active="no"/>
<layer number="28" name="bValues" color="7" fill="1" visible="no" active="no"/>
<layer number="29" name="tStop" color="7" fill="3" visible="no" active="no"/>
<layer number="30" name="bStop" color="7" fill="6" visible="no" active="no"/>
<layer number="31" name="tCream" color="7" fill="4" visible="no" active="no"/>
<layer number="32" name="bCream" color="7" fill="5" visible="no" active="no"/>
<layer number="33" name="tFinish" color="6" fill="3" visible="no" active="no"/>
<layer number="34" name="bFinish" color="6" fill="6" visible="no" active="no"/>
<layer number="35" name="tGlue" color="7" fill="4" visible="no" active="no"/>
<layer number="36" name="bGlue" color="7" fill="5" visible="no" active="no"/>
<layer number="37" name="tTest" color="7" fill="1" visible="no" active="no"/>
<layer number="38" name="bTest" color="7" fill="1" visible="no" active="no"/>
<layer number="39" name="tKeepout" color="4" fill="11" visible="no" active="no"/>
<layer number="40" name="bKeepout" color="1" fill="11" visible="no" active="no"/>
<layer number="41" name="tRestrict" color="4" fill="10" visible="no" active="no"/>
<layer number="42" name="bRestrict" color="1" fill="10" visible="no" active="no"/>
<layer number="43" name="vRestrict" color="2" fill="10" visible="no" active="no"/>
<layer number="44" name="Drills" color="7" fill="1" visible="no" active="no"/>
<layer number="45" name="Holes" color="7" fill="1" visible="no" active="no"/>
<layer number="46" name="Milling" color="3" fill="1" visible="no" active="no"/>
<layer number="47" name="Measures" color="7" fill="1" visible="no" active="no"/>
<layer number="48" name="Document" color="7" fill="1" visible="no" active="no"/>
<layer number="49" name="Reference" color="7" fill="1" visible="no" active="no"/>
<layer number="50" name="dxf" color="7" fill="1" visible="no" active="no"/>
<layer number="51" name="tDocu" color="7" fill="1" visible="no" active="no"/>
<layer number="52" name="bDocu" color="7" fill="1" visible="no" active="no"/>
<layer number="53" name="tGND_GNDA" color="7" fill="9" visible="no" active="no"/>
<layer number="54" name="bGND_GNDA" color="1" fill="9" visible="no" active="no"/>
<layer number="56" name="wert" color="7" fill="1" visible="no" active="no"/>
<layer number="57" name="tCAD" color="7" fill="1" visible="no" active="no"/>
<layer number="59" name="tCarbon" color="7" fill="1" visible="no" active="no"/>
<layer number="60" name="bCarbon" color="7" fill="1" visible="no" active="no"/>
<layer number="88" name="SimResults" color="9" fill="1" visible="yes" active="yes"/>
<layer number="89" name="SimProbes" color="9" fill="1" visible="yes" active="yes"/>
<layer number="90" name="Modules" color="5" fill="1" visible="yes" active="yes"/>
<layer number="91" name="Nets" color="2" fill="1" visible="yes" active="yes"/>
<layer number="92" name="Busses" color="1" fill="1" visible="yes" active="yes"/>
<layer number="93" name="Pins" color="2" fill="1" visible="no" active="yes"/>
<layer number="94" name="Symbols" color="4" fill="1" visible="yes" active="yes"/>
<layer number="95" name="Names" color="7" fill="1" visible="yes" active="yes"/>
<layer number="96" name="Values" color="7" fill="1" visible="yes" active="yes"/>
<layer number="97" name="Info" color="7" fill="1" visible="yes" active="yes"/>
<layer number="98" name="Guide" color="6" fill="1" visible="yes" active="yes"/>
<layer number="99" name="SpiceOrder" color="7" fill="1" visible="no" active="no"/>
<layer number="100" name="Muster" color="7" fill="1" visible="no" active="no"/>
<layer number="101" name="Patch_Top" color="12" fill="4" visible="no" active="yes"/>
<layer number="102" name="Vscore" color="7" fill="1" visible="no" active="yes"/>
<layer number="103" name="fp3" color="7" fill="1" visible="no" active="yes"/>
<layer number="104" name="Name" color="7" fill="1" visible="no" active="yes"/>
<layer number="105" name="Beschreib" color="9" fill="1" visible="no" active="yes"/>
<layer number="106" name="BGA-Top" color="4" fill="1" visible="no" active="yes"/>
<layer number="107" name="BD-Top" color="5" fill="1" visible="no" active="yes"/>
<layer number="108" name="fp8" color="7" fill="1" visible="no" active="yes"/>
<layer number="109" name="fp9" color="7" fill="1" visible="no" active="yes"/>
<layer number="110" name="fp0" color="7" fill="1" visible="no" active="yes"/>
<layer number="111" name="LPC17xx" color="7" fill="1" visible="no" active="yes"/>
<layer number="112" name="tSilk" color="7" fill="1" visible="no" active="yes"/>
<layer number="113" name="ReferenceLS" color="7" fill="1" visible="no" active="no"/>
<layer number="116" name="Patch_BOT" color="9" fill="4" visible="no" active="yes"/>
<layer number="118" name="Rect_Pads" color="7" fill="1" visible="no" active="no"/>
<layer number="121" name="_tsilk" color="7" fill="1" visible="no" active="yes"/>
<layer number="122" name="_bsilk" color="7" fill="1" visible="no" active="yes"/>
<layer number="123" name="tTestmark" color="7" fill="1" visible="no" active="yes"/>
<layer number="124" name="bTestmark" color="7" fill="1" visible="no" active="yes"/>
<layer number="125" name="_tNames" color="7" fill="1" visible="no" active="yes"/>
<layer number="126" name="_bNames" color="7" fill="1" visible="no" active="yes"/>
<layer number="127" name="_tValues" color="7" fill="1" visible="no" active="yes"/>
<layer number="128" name="_bValues" color="7" fill="1" visible="no" active="yes"/>
<layer number="129" name="Mask" color="7" fill="1" visible="yes" active="yes"/>
<layer number="131" name="tAdjust" color="7" fill="1" visible="no" active="yes"/>
<layer number="132" name="bAdjust" color="7" fill="1" visible="no" active="yes"/>
<layer number="144" name="Drill_legend" color="7" fill="1" visible="no" active="yes"/>
<layer number="150" name="Notes" color="7" fill="1" visible="no" active="yes"/>
<layer number="151" name="HeatSink" color="7" fill="1" visible="no" active="yes"/>
<layer number="152" name="_bDocu" color="7" fill="1" visible="no" active="yes"/>
<layer number="153" name="FabDoc1" color="6" fill="1" visible="no" active="no"/>
<layer number="154" name="FabDoc2" color="2" fill="1" visible="no" active="no"/>
<layer number="155" name="FabDoc3" color="7" fill="15" visible="no" active="no"/>
<layer number="199" name="Contour" color="7" fill="1" visible="no" active="yes"/>
<layer number="200" name="200bmp" color="1" fill="10" visible="no" active="yes"/>
<layer number="201" name="201bmp" color="2" fill="1" visible="no" active="no"/>
<layer number="202" name="202bmp" color="3" fill="1" visible="no" active="no"/>
<layer number="203" name="203bmp" color="4" fill="10" visible="no" active="yes"/>
<layer number="204" name="204bmp" color="5" fill="10" visible="no" active="yes"/>
<layer number="205" name="205bmp" color="6" fill="10" visible="no" active="yes"/>
<layer number="206" name="206bmp" color="7" fill="10" visible="no" active="yes"/>
<layer number="207" name="207bmp" color="8" fill="10" visible="no" active="yes"/>
<layer number="208" name="208bmp" color="9" fill="10" visible="no" active="yes"/>
<layer number="209" name="209bmp" color="7" fill="1" visible="no" active="yes"/>
<layer number="210" name="210bmp" color="7" fill="1" visible="no" active="yes"/>
<layer number="211" name="211bmp" color="7" fill="1" visible="no" active="yes"/>
<layer number="212" name="212bmp" color="7" fill="1" visible="no" active="yes"/>
<layer number="213" name="213bmp" color="7" fill="1" visible="no" active="yes"/>
<layer number="214" name="214bmp" color="7" fill="1" visible="no" active="yes"/>
<layer number="215" name="215bmp" color="7" fill="1" visible="no" active="yes"/>
<layer number="216" name="216bmp" color="7" fill="1" visible="no" active="yes"/>
<layer number="217" name="217bmp" color="18" fill="1" visible="no" active="no"/>
<layer number="218" name="218bmp" color="19" fill="1" visible="no" active="no"/>
<layer number="219" name="219bmp" color="20" fill="1" visible="no" active="no"/>
<layer number="220" name="220bmp" color="21" fill="1" visible="no" active="no"/>
<layer number="221" name="221bmp" color="22" fill="1" visible="no" active="no"/>
<layer number="222" name="222bmp" color="23" fill="1" visible="no" active="no"/>
<layer number="223" name="223bmp" color="24" fill="1" visible="no" active="no"/>
<layer number="224" name="224bmp" color="25" fill="1" visible="no" active="no"/>
<layer number="225" name="225bmp" color="7" fill="1" visible="yes" active="yes"/>
<layer number="226" name="226bmp" color="7" fill="1" visible="yes" active="yes"/>
<layer number="227" name="227bmp" color="7" fill="1" visible="yes" active="yes"/>
<layer number="228" name="228bmp" color="7" fill="1" visible="yes" active="yes"/>
<layer number="229" name="229bmp" color="7" fill="1" visible="yes" active="yes"/>
<layer number="230" name="230bmp" color="7" fill="1" visible="yes" active="yes"/>
<layer number="231" name="Eagle3D_PG1" color="7" fill="1" visible="no" active="no"/>
<layer number="232" name="Eagle3D_PG2" color="7" fill="1" visible="no" active="no"/>
<layer number="233" name="Eagle3D_PG3" color="7" fill="1" visible="no" active="no"/>
<layer number="248" name="Housing" color="7" fill="1" visible="no" active="yes"/>
<layer number="249" name="Edge" color="7" fill="1" visible="no" active="yes"/>
<layer number="250" name="Descript" color="7" fill="1" visible="no" active="no"/>
<layer number="251" name="SMDround" color="7" fill="1" visible="no" active="no"/>
<layer number="254" name="cooling" color="7" fill="1" visible="no" active="yes"/>
<layer number="255" name="routoute" color="7" fill="1" visible="yes" active="yes"/>
</layers>
<schematic xreflabel="%F%N/%S.%C%R" xrefpart="/%S.%C%R">
<libraries>
<library name="frames" urn="urn:adsk.eagle:library:229">
<description>&lt;b&gt;Frames for Sheet and Layout&lt;/b&gt;</description>
<packages>
</packages>
<symbols>
<symbol name="FRAME_A_L" urn="urn:adsk.eagle:symbol:13882/1" library_version="1">
<frame x1="0" y1="0" x2="279.4" y2="215.9" columns="6" rows="5" layer="94" border-bottom="no"/>
</symbol>
<symbol name="DOCFIELD" urn="urn:adsk.eagle:symbol:13864/1" library_version="1">
<wire x1="0" y1="0" x2="71.12" y2="0" width="0.1016" layer="94"/>
<wire x1="101.6" y1="15.24" x2="87.63" y2="15.24" width="0.1016" layer="94"/>
<wire x1="0" y1="0" x2="0" y2="5.08" width="0.1016" layer="94"/>
<wire x1="0" y1="5.08" x2="71.12" y2="5.08" width="0.1016" layer="94"/>
<wire x1="0" y1="5.08" x2="0" y2="15.24" width="0.1016" layer="94"/>
<wire x1="101.6" y1="15.24" x2="101.6" y2="5.08" width="0.1016" layer="94"/>
<wire x1="71.12" y1="5.08" x2="71.12" y2="0" width="0.1016" layer="94"/>
<wire x1="71.12" y1="5.08" x2="87.63" y2="5.08" width="0.1016" layer="94"/>
<wire x1="71.12" y1="0" x2="101.6" y2="0" width="0.1016" layer="94"/>
<wire x1="87.63" y1="15.24" x2="87.63" y2="5.08" width="0.1016" layer="94"/>
<wire x1="87.63" y1="15.24" x2="0" y2="15.24" width="0.1016" layer="94"/>
<wire x1="87.63" y1="5.08" x2="101.6" y2="5.08" width="0.1016" layer="94"/>
<wire x1="101.6" y1="5.08" x2="101.6" y2="0" width="0.1016" layer="94"/>
<wire x1="0" y1="15.24" x2="0" y2="22.86" width="0.1016" layer="94"/>
<wire x1="101.6" y1="35.56" x2="0" y2="35.56" width="0.1016" layer="94"/>
<wire x1="101.6" y1="35.56" x2="101.6" y2="22.86" width="0.1016" layer="94"/>
<wire x1="0" y1="22.86" x2="101.6" y2="22.86" width="0.1016" layer="94"/>
<wire x1="0" y1="22.86" x2="0" y2="35.56" width="0.1016" layer="94"/>
<wire x1="101.6" y1="22.86" x2="101.6" y2="15.24" width="0.1016" layer="94"/>
<text x="1.27" y="1.27" size="2.54" layer="94">Date:</text>
<text x="12.7" y="1.27" size="2.54" layer="94">&gt;LAST_DATE_TIME</text>
<text x="72.39" y="1.27" size="2.54" layer="94">Sheet:</text>
<text x="86.36" y="1.27" size="2.54" layer="94">&gt;SHEET</text>
<text x="88.9" y="11.43" size="2.54" layer="94">REV:</text>
<text x="1.27" y="19.05" size="2.54" layer="94">TITLE:</text>
<text x="1.27" y="11.43" size="2.54" layer="94">Document Number:</text>
<text x="17.78" y="19.05" size="2.54" layer="94">&gt;DRAWING_NAME</text>
</symbol>
</symbols>
<devicesets>
<deviceset name="FRAME_A_L" urn="urn:adsk.eagle:component:13939/1" prefix="FRAME" uservalue="yes" library_version="1">
<description>&lt;b&gt;FRAME&lt;/b&gt; A Size , 8 1/2 x 11 INCH, Landscape&lt;p&gt;</description>
<gates>
<gate name="G$1" symbol="FRAME_A_L" x="0" y="0" addlevel="always"/>
<gate name="G$2" symbol="DOCFIELD" x="172.72" y="0" addlevel="always"/>
</gates>
<devices>
<device name="">
<technologies>
<technology name=""/>
</technologies>
</device>
</devices>
</deviceset>
</devicesets>
</library>
<library name="adafruit" urn="urn:adsk.eagle:library:420">
<packages>
<package name="2X20" urn="urn:adsk.eagle:footprint:6240133/1" library_version="2">
<description>&lt;b&gt;PIN HEADER&lt;/b&gt;</description>
<wire x1="-25.4" y1="-1.905" x2="-24.765" y2="-2.54" width="0.1524" layer="21"/>
<wire x1="-24.765" y1="-2.54" x2="-23.495" y2="-2.54" width="0.1524" layer="21"/>
<wire x1="-23.495" y1="-2.54" x2="-22.86" y2="-1.905" width="0.1524" layer="21"/>
<wire x1="-22.86" y1="-1.905" x2="-22.225" y2="-2.54" width="0.1524" layer="21"/>
<wire x1="-22.225" y1="-2.54" x2="-20.955" y2="-2.54" width="0.1524" layer="21"/>
<wire x1="-20.955" y1="-2.54" x2="-20.32" y2="-1.905" width="0.1524" layer="21"/>
<wire x1="-20.32" y1="-1.905" x2="-19.685" y2="-2.54" width="0.1524" layer="21"/>
<wire x1="-19.685" y1="-2.54" x2="-18.415" y2="-2.54" width="0.1524" layer="21"/>
<wire x1="-18.415" y1="-2.54" x2="-17.78" y2="-1.905" width="0.1524" layer="21"/>
<wire x1="-17.78" y1="-1.905" x2="-17.145" y2="-2.54" width="0.1524" layer="21"/>
<wire x1="-17.145" y1="-2.54" x2="-15.875" y2="-2.54" width="0.1524" layer="21"/>
<wire x1="-15.875" y1="-2.54" x2="-15.24" y2="-1.905" width="0.1524" layer="21"/>
<wire x1="-15.24" y1="-1.905" x2="-14.605" y2="-2.54" width="0.1524" layer="21"/>
<wire x1="-14.605" y1="-2.54" x2="-13.335" y2="-2.54" width="0.1524" layer="21"/>
<wire x1="-13.335" y1="-2.54" x2="-12.7" y2="-1.905" width="0.1524" layer="21"/>
<wire x1="-12.7" y1="-1.905" x2="-12.065" y2="-2.54" width="0.1524" layer="21"/>
<wire x1="-12.065" y1="-2.54" x2="-10.795" y2="-2.54" width="0.1524" layer="21"/>
<wire x1="-10.795" y1="-2.54" x2="-10.16" y2="-1.905" width="0.1524" layer="21"/>
<wire x1="-25.4" y1="-1.905" x2="-25.4" y2="1.905" width="0.1524" layer="21"/>
<wire x1="-25.4" y1="1.905" x2="-24.765" y2="2.54" width="0.1524" layer="21"/>
<wire x1="-24.765" y1="2.54" x2="-23.495" y2="2.54" width="0.1524" layer="21"/>
<wire x1="-23.495" y1="2.54" x2="-22.86" y2="1.905" width="0.1524" layer="21"/>
<wire x1="-22.86" y1="1.905" x2="-22.225" y2="2.54" width="0.1524" layer="21"/>
<wire x1="-22.225" y1="2.54" x2="-20.955" y2="2.54" width="0.1524" layer="21"/>
<wire x1="-20.955" y1="2.54" x2="-20.32" y2="1.905" width="0.1524" layer="21"/>
<wire x1="-20.32" y1="1.905" x2="-19.685" y2="2.54" width="0.1524" layer="21"/>
<wire x1="-19.685" y1="2.54" x2="-18.415" y2="2.54" width="0.1524" layer="21"/>
<wire x1="-18.415" y1="2.54" x2="-17.78" y2="1.905" width="0.1524" layer="21"/>
<wire x1="-17.78" y1="1.905" x2="-17.145" y2="2.54" width="0.1524" layer="21"/>
<wire x1="-17.145" y1="2.54" x2="-15.875" y2="2.54" width="0.1524" layer="21"/>
<wire x1="-15.875" y1="2.54" x2="-15.24" y2="1.905" width="0.1524" layer="21"/>
<wire x1="-15.24" y1="1.905" x2="-14.605" y2="2.54" width="0.1524" layer="21"/>
<wire x1="-14.605" y1="2.54" x2="-13.335" y2="2.54" width="0.1524" layer="21"/>
<wire x1="-13.335" y1="2.54" x2="-12.7" y2="1.905" width="0.1524" layer="21"/>
<wire x1="-12.7" y1="1.905" x2="-12.065" y2="2.54" width="0.1524" layer="21"/>
<wire x1="-12.065" y1="2.54" x2="-10.795" y2="2.54" width="0.1524" layer="21"/>
<wire x1="-10.795" y1="2.54" x2="-10.16" y2="1.905" width="0.1524" layer="21"/>
<wire x1="-10.16" y1="1.905" x2="-9.525" y2="2.54" width="0.1524" layer="21"/>
<wire x1="-9.525" y1="2.54" x2="-8.255" y2="2.54" width="0.1524" layer="21"/>
<wire x1="-8.255" y1="2.54" x2="-7.62" y2="1.905" width="0.1524" layer="21"/>
<wire x1="-7.62" y1="1.905" x2="-6.985" y2="2.54" width="0.1524" layer="21"/>
<wire x1="-6.985" y1="2.54" x2="-5.715" y2="2.54" width="0.1524" layer="21"/>
<wire x1="-5.715" y1="2.54" x2="-5.08" y2="1.905" width="0.1524" layer="21"/>
<wire x1="-5.08" y1="1.905" x2="-4.445" y2="2.54" width="0.1524" layer="21"/>
<wire x1="-4.445" y1="2.54" x2="-3.175" y2="2.54" width="0.1524" layer="21"/>
<wire x1="-3.175" y1="2.54" x2="-2.54" y2="1.905" width="0.1524" layer="21"/>
<wire x1="-2.54" y1="1.905" x2="-1.905" y2="2.54" width="0.1524" layer="21"/>
<wire x1="-1.905" y1="2.54" x2="-0.635" y2="2.54" width="0.1524" layer="21"/>
<wire x1="-0.635" y1="2.54" x2="0" y2="1.905" width="0.1524" layer="21"/>
<wire x1="0" y1="1.905" x2="0.635" y2="2.54" width="0.1524" layer="21"/>
<wire x1="0.635" y1="2.54" x2="1.905" y2="2.54" width="0.1524" layer="21"/>
<wire x1="1.905" y1="2.54" x2="2.54" y2="1.905" width="0.1524" layer="21"/>
<wire x1="2.54" y1="1.905" x2="3.175" y2="2.54" width="0.1524" layer="21"/>
<wire x1="3.175" y1="2.54" x2="4.445" y2="2.54" width="0.1524" layer="21"/>
<wire x1="5.08" y1="1.905" x2="4.445" y2="2.54" width="0.1524" layer="21"/>
<wire x1="5.08" y1="1.905" x2="5.715" y2="2.54" width="0.1524" layer="21"/>
<wire x1="6.985" y1="2.54" x2="5.715" y2="2.54" width="0.1524" layer="21"/>
<wire x1="6.985" y1="2.54" x2="7.62" y2="1.905" width="0.1524" layer="21"/>
<wire x1="7.62" y1="1.905" x2="8.255" y2="2.54" width="0.1524" layer="21"/>
<wire x1="9.525" y1="2.54" x2="8.255" y2="2.54" width="0.1524" layer="21"/>
<wire x1="9.525" y1="2.54" x2="10.16" y2="1.905" width="0.1524" layer="21"/>
<wire x1="10.16" y1="1.905" x2="10.795" y2="2.54" width="0.1524" layer="21"/>
<wire x1="12.065" y1="2.54" x2="10.795" y2="2.54" width="0.1524" layer="21"/>
<wire x1="12.065" y1="2.54" x2="12.7" y2="1.905" width="0.1524" layer="21"/>
<wire x1="12.7" y1="1.905" x2="13.335" y2="2.54" width="0.1524" layer="21"/>
<wire x1="14.605" y1="2.54" x2="13.335" y2="2.54" width="0.1524" layer="21"/>
<wire x1="14.605" y1="2.54" x2="15.24" y2="1.905" width="0.1524" layer="21"/>
<wire x1="15.24" y1="1.905" x2="15.875" y2="2.54" width="0.1524" layer="21"/>
<wire x1="17.145" y1="2.54" x2="15.875" y2="2.54" width="0.1524" layer="21"/>
<wire x1="17.145" y1="2.54" x2="17.78" y2="1.905" width="0.1524" layer="21"/>
<wire x1="17.78" y1="1.905" x2="18.415" y2="2.54" width="0.1524" layer="21"/>
<wire x1="19.685" y1="2.54" x2="18.415" y2="2.54" width="0.1524" layer="21"/>
<wire x1="19.685" y1="2.54" x2="20.32" y2="1.905" width="0.1524" layer="21"/>
<wire x1="20.32" y1="1.905" x2="20.955" y2="2.54" width="0.1524" layer="21"/>
<wire x1="22.225" y1="2.54" x2="20.955" y2="2.54" width="0.1524" layer="21"/>
<wire x1="22.225" y1="2.54" x2="22.86" y2="1.905" width="0.1524" layer="21"/>
<wire x1="22.86" y1="-1.905" x2="22.225" y2="-2.54" width="0.1524" layer="21"/>
<wire x1="22.225" y1="-2.54" x2="20.955" y2="-2.54" width="0.1524" layer="21"/>
<wire x1="20.32" y1="-1.905" x2="20.955" y2="-2.54" width="0.1524" layer="21"/>
<wire x1="20.32" y1="-1.905" x2="19.685" y2="-2.54" width="0.1524" layer="21"/>
<wire x1="19.685" y1="-2.54" x2="18.415" y2="-2.54" width="0.1524" layer="21"/>
<wire x1="17.78" y1="-1.905" x2="18.415" y2="-2.54" width="0.1524" layer="21"/>
<wire x1="17.78" y1="-1.905" x2="17.145" y2="-2.54" width="0.1524" layer="21"/>
<wire x1="17.145" y1="-2.54" x2="15.875" y2="-2.54" width="0.1524" layer="21"/>
<wire x1="15.24" y1="-1.905" x2="15.875" y2="-2.54" width="0.1524" layer="21"/>
<wire x1="15.24" y1="-1.905" x2="14.605" y2="-2.54" width="0.1524" layer="21"/>
<wire x1="13.335" y1="-2.54" x2="14.605" y2="-2.54" width="0.1524" layer="21"/>
<wire x1="13.335" y1="-2.54" x2="12.7" y2="-1.905" width="0.1524" layer="21"/>
<wire x1="12.7" y1="-1.905" x2="12.065" y2="-2.54" width="0.1524" layer="21"/>
<wire x1="10.795" y1="-2.54" x2="12.065" y2="-2.54" width="0.1524" layer="21"/>
<wire x1="10.795" y1="-2.54" x2="10.16" y2="-1.905" width="0.1524" layer="21"/>
<wire x1="10.16" y1="-1.905" x2="9.525" y2="-2.54" width="0.1524" layer="21"/>
<wire x1="9.525" y1="-2.54" x2="8.255" y2="-2.54" width="0.1524" layer="21"/>
<wire x1="7.62" y1="-1.905" x2="8.255" y2="-2.54" width="0.1524" layer="21"/>
<wire x1="7.62" y1="-1.905" x2="6.985" y2="-2.54" width="0.1524" layer="21"/>
<wire x1="6.985" y1="-2.54" x2="5.715" y2="-2.54" width="0.1524" layer="21"/>
<wire x1="5.08" y1="-1.905" x2="5.715" y2="-2.54" width="0.1524" layer="21"/>
<wire x1="5.08" y1="-1.905" x2="4.445" y2="-2.54" width="0.1524" layer="21"/>
<wire x1="4.445" y1="-2.54" x2="3.175" y2="-2.54" width="0.1524" layer="21"/>
<wire x1="2.54" y1="-1.905" x2="3.175" y2="-2.54" width="0.1524" layer="21"/>
<wire x1="2.54" y1="-1.905" x2="1.905" y2="-2.54" width="0.1524" layer="21"/>
<wire x1="1.905" y1="-2.54" x2="0.635" y2="-2.54" width="0.1524" layer="21"/>
<wire x1="0" y1="-1.905" x2="0.635" y2="-2.54" width="0.1524" layer="21"/>
<wire x1="0" y1="-1.905" x2="-0.635" y2="-2.54" width="0.1524" layer="21"/>
<wire x1="-0.635" y1="-2.54" x2="-1.905" y2="-2.54" width="0.1524" layer="21"/>
<wire x1="-2.54" y1="-1.905" x2="-1.905" y2="-2.54" width="0.1524" layer="21"/>
<wire x1="-2.54" y1="-1.905" x2="-3.175" y2="-2.54" width="0.1524" layer="21"/>
<wire x1="-3.175" y1="-2.54" x2="-4.445" y2="-2.54" width="0.1524" layer="21"/>
<wire x1="-5.08" y1="-1.905" x2="-4.445" y2="-2.54" width="0.1524" layer="21"/>
<wire x1="-5.08" y1="-1.905" x2="-5.715" y2="-2.54" width="0.1524" layer="21"/>
<wire x1="-5.715" y1="-2.54" x2="-6.985" y2="-2.54" width="0.1524" layer="21"/>
<wire x1="-7.62" y1="-1.905" x2="-6.985" y2="-2.54" width="0.1524" layer="21"/>
<wire x1="-7.62" y1="-1.905" x2="-8.255" y2="-2.54" width="0.1524" layer="21"/>
<wire x1="-8.255" y1="-2.54" x2="-9.525" y2="-2.54" width="0.1524" layer="21"/>
<wire x1="-10.16" y1="-1.905" x2="-9.525" y2="-2.54" width="0.1524" layer="21"/>
<wire x1="-22.86" y1="1.905" x2="-22.86" y2="-1.905" width="0.1524" layer="21"/>
<wire x1="-20.32" y1="1.905" x2="-20.32" y2="-1.905" width="0.1524" layer="21"/>
<wire x1="-17.78" y1="1.905" x2="-17.78" y2="-1.905" width="0.1524" layer="21"/>
<wire x1="-15.24" y1="1.905" x2="-15.24" y2="-1.905" width="0.1524" layer="21"/>
<wire x1="-12.7" y1="1.905" x2="-12.7" y2="-1.905" width="0.1524" layer="21"/>
<wire x1="-10.16" y1="1.905" x2="-10.16" y2="-1.905" width="0.1524" layer="21"/>
<wire x1="-7.62" y1="1.905" x2="-7.62" y2="-1.905" width="0.1524" layer="21"/>
<wire x1="-5.08" y1="1.905" x2="-5.08" y2="-1.905" width="0.1524" layer="21"/>
<wire x1="-2.54" y1="1.905" x2="-2.54" y2="-1.905" width="0.1524" layer="21"/>
<wire x1="0" y1="1.905" x2="0" y2="-1.905" width="0.1524" layer="21"/>
<wire x1="2.54" y1="1.905" x2="2.54" y2="-1.905" width="0.1524" layer="21"/>
<wire x1="5.08" y1="1.905" x2="5.08" y2="-1.905" width="0.1524" layer="21"/>
<wire x1="7.62" y1="1.905" x2="7.62" y2="-1.905" width="0.1524" layer="21"/>
<wire x1="10.16" y1="1.905" x2="10.16" y2="-1.905" width="0.1524" layer="21"/>
<wire x1="12.7" y1="1.905" x2="12.7" y2="-1.905" width="0.1524" layer="21"/>
<wire x1="15.24" y1="1.905" x2="15.24" y2="-1.905" width="0.1524" layer="21"/>
<wire x1="17.78" y1="1.905" x2="17.78" y2="-1.905" width="0.1524" layer="21"/>
<wire x1="20.32" y1="1.905" x2="20.32" y2="-1.905" width="0.1524" layer="21"/>
<wire x1="22.86" y1="1.905" x2="22.86" y2="-1.905" width="0.1524" layer="21"/>
<wire x1="22.86" y1="1.905" x2="23.495" y2="2.54" width="0.1524" layer="21"/>
<wire x1="24.765" y1="2.54" x2="23.495" y2="2.54" width="0.1524" layer="21"/>
<wire x1="24.765" y1="2.54" x2="25.4" y2="1.905" width="0.1524" layer="21"/>
<wire x1="25.4" y1="-1.905" x2="24.765" y2="-2.54" width="0.1524" layer="21"/>
<wire x1="24.765" y1="-2.54" x2="23.495" y2="-2.54" width="0.1524" layer="21"/>
<wire x1="22.86" y1="-1.905" x2="23.495" y2="-2.54" width="0.1524" layer="21"/>
<wire x1="25.4" y1="1.905" x2="25.4" y2="-1.905" width="0.1524" layer="21"/>
<pad name="1" x="-24.13" y="-1.27" drill="1.016" shape="octagon"/>
<pad name="2" x="-24.13" y="1.27" drill="1.016" shape="octagon"/>
<pad name="3" x="-21.59" y="-1.27" drill="1.016" shape="octagon"/>
<pad name="4" x="-21.59" y="1.27" drill="1.016" shape="octagon"/>
<pad name="5" x="-19.05" y="-1.27" drill="1.016" shape="octagon"/>
<pad name="6" x="-19.05" y="1.27" drill="1.016" shape="octagon"/>
<pad name="7" x="-16.51" y="-1.27" drill="1.016" shape="octagon"/>
<pad name="8" x="-16.51" y="1.27" drill="1.016" shape="octagon"/>
<pad name="9" x="-13.97" y="-1.27" drill="1.016" shape="octagon"/>
<pad name="10" x="-13.97" y="1.27" drill="1.016" shape="octagon"/>
<pad name="11" x="-11.43" y="-1.27" drill="1.016" shape="octagon"/>
<pad name="12" x="-11.43" y="1.27" drill="1.016" shape="octagon"/>
<pad name="13" x="-8.89" y="-1.27" drill="1.016" shape="octagon"/>
<pad name="14" x="-8.89" y="1.27" drill="1.016" shape="octagon"/>
<pad name="15" x="-6.35" y="-1.27" drill="1.016" shape="octagon"/>
<pad name="16" x="-6.35" y="1.27" drill="1.016" shape="octagon"/>
<pad name="17" x="-3.81" y="-1.27" drill="1.016" shape="octagon"/>
<pad name="18" x="-3.81" y="1.27" drill="1.016" shape="octagon"/>
<pad name="19" x="-1.27" y="-1.27" drill="1.016" shape="octagon"/>
<pad name="20" x="-1.27" y="1.27" drill="1.016" shape="octagon"/>
<pad name="21" x="1.27" y="-1.27" drill="1.016" shape="octagon"/>
<pad name="22" x="1.27" y="1.27" drill="1.016" shape="octagon"/>
<pad name="23" x="3.81" y="-1.27" drill="1.016" shape="octagon"/>
<pad name="24" x="3.81" y="1.27" drill="1.016" shape="octagon"/>
<pad name="25" x="6.35" y="-1.27" drill="1.016" shape="octagon"/>
<pad name="26" x="6.35" y="1.27" drill="1.016" shape="octagon"/>
<pad name="27" x="8.89" y="-1.27" drill="1.016" shape="octagon"/>
<pad name="28" x="8.89" y="1.27" drill="1.016" shape="octagon"/>
<pad name="29" x="11.43" y="-1.27" drill="1.016" shape="octagon"/>
<pad name="30" x="11.43" y="1.27" drill="1.016" shape="octagon"/>
<pad name="31" x="13.97" y="-1.27" drill="1.016" shape="octagon"/>
<pad name="32" x="13.97" y="1.27" drill="1.016" shape="octagon"/>
<pad name="33" x="16.51" y="-1.27" drill="1.016" shape="octagon"/>
<pad name="34" x="16.51" y="1.27" drill="1.016" shape="octagon"/>
<pad name="35" x="19.05" y="-1.27" drill="1.016" shape="octagon"/>
<pad name="36" x="19.05" y="1.27" drill="1.016" shape="octagon"/>
<pad name="37" x="21.59" y="-1.27" drill="1.016" shape="octagon"/>
<pad name="38" x="21.59" y="1.27" drill="1.016" shape="octagon"/>
<pad name="39" x="24.13" y="-1.27" drill="1.016" shape="octagon"/>
<pad name="40" x="24.13" y="1.27" drill="1.016" shape="octagon"/>
<text x="-25.4" y="3.175" size="1.27" layer="25" ratio="10">&gt;NAME</text>
<text x="-25.4" y="-4.445" size="1.27" layer="27">&gt;VALUE</text>
<rectangle x1="-24.384" y1="-1.524" x2="-23.876" y2="-1.016" layer="51"/>
<rectangle x1="-24.384" y1="1.016" x2="-23.876" y2="1.524" layer="51"/>
<rectangle x1="-21.844" y1="1.016" x2="-21.336" y2="1.524" layer="51"/>
<rectangle x1="-21.844" y1="-1.524" x2="-21.336" y2="-1.016" layer="51"/>
<rectangle x1="-19.304" y1="1.016" x2="-18.796" y2="1.524" layer="51"/>
<rectangle x1="-19.304" y1="-1.524" x2="-18.796" y2="-1.016" layer="51"/>
<rectangle x1="-16.764" y1="1.016" x2="-16.256" y2="1.524" layer="51"/>
<rectangle x1="-14.224" y1="1.016" x2="-13.716" y2="1.524" layer="51"/>
<rectangle x1="-11.684" y1="1.016" x2="-11.176" y2="1.524" layer="51"/>
<rectangle x1="-16.764" y1="-1.524" x2="-16.256" y2="-1.016" layer="51"/>
<rectangle x1="-14.224" y1="-1.524" x2="-13.716" y2="-1.016" layer="51"/>
<rectangle x1="-11.684" y1="-1.524" x2="-11.176" y2="-1.016" layer="51"/>
<rectangle x1="-9.144" y1="1.016" x2="-8.636" y2="1.524" layer="51"/>
<rectangle x1="-9.144" y1="-1.524" x2="-8.636" y2="-1.016" layer="51"/>
<rectangle x1="-6.604" y1="1.016" x2="-6.096" y2="1.524" layer="51"/>
<rectangle x1="-6.604" y1="-1.524" x2="-6.096" y2="-1.016" layer="51"/>
<rectangle x1="-4.064" y1="1.016" x2="-3.556" y2="1.524" layer="51"/>
<rectangle x1="-4.064" y1="-1.524" x2="-3.556" y2="-1.016" layer="51"/>
<rectangle x1="-1.524" y1="1.016" x2="-1.016" y2="1.524" layer="51"/>
<rectangle x1="-1.524" y1="-1.524" x2="-1.016" y2="-1.016" layer="51"/>
<rectangle x1="1.016" y1="1.016" x2="1.524" y2="1.524" layer="51"/>
<rectangle x1="1.016" y1="-1.524" x2="1.524" y2="-1.016" layer="51"/>
<rectangle x1="3.556" y1="1.016" x2="4.064" y2="1.524" layer="51"/>
<rectangle x1="3.556" y1="-1.524" x2="4.064" y2="-1.016" layer="51"/>
<rectangle x1="6.096" y1="1.016" x2="6.604" y2="1.524" layer="51"/>
<rectangle x1="6.096" y1="-1.524" x2="6.604" y2="-1.016" layer="51"/>
<rectangle x1="8.636" y1="1.016" x2="9.144" y2="1.524" layer="51"/>
<rectangle x1="8.636" y1="-1.524" x2="9.144" y2="-1.016" layer="51"/>
<rectangle x1="11.176" y1="1.016" x2="11.684" y2="1.524" layer="51"/>
<rectangle x1="11.176" y1="-1.524" x2="11.684" y2="-1.016" layer="51"/>
<rectangle x1="13.716" y1="1.016" x2="14.224" y2="1.524" layer="51"/>
<rectangle x1="13.716" y1="-1.524" x2="14.224" y2="-1.016" layer="51"/>
<rectangle x1="16.256" y1="1.016" x2="16.764" y2="1.524" layer="51"/>
<rectangle x1="16.256" y1="-1.524" x2="16.764" y2="-1.016" layer="51"/>
<rectangle x1="18.796" y1="1.016" x2="19.304" y2="1.524" layer="51"/>
<rectangle x1="18.796" y1="-1.524" x2="19.304" y2="-1.016" layer="51"/>
<rectangle x1="21.336" y1="1.016" x2="21.844" y2="1.524" layer="51"/>
<rectangle x1="21.336" y1="-1.524" x2="21.844" y2="-1.016" layer="51"/>
<rectangle x1="23.876" y1="1.016" x2="24.384" y2="1.524" layer="51"/>
<rectangle x1="23.876" y1="-1.524" x2="24.384" y2="-1.016" layer="51"/>
</package>
<package name="2X20-BIG" urn="urn:adsk.eagle:footprint:6240135/1" library_version="2">
<wire x1="-25.4" y1="-1.905" x2="-24.765" y2="-2.54" width="0.1524" layer="21"/>
<wire x1="-24.765" y1="-2.54" x2="-23.495" y2="-2.54" width="0.1524" layer="21"/>
<wire x1="-23.495" y1="-2.54" x2="-22.86" y2="-1.905" width="0.1524" layer="21"/>
<wire x1="-22.86" y1="-1.905" x2="-22.225" y2="-2.54" width="0.1524" layer="21"/>
<wire x1="-22.225" y1="-2.54" x2="-20.955" y2="-2.54" width="0.1524" layer="21"/>
<wire x1="-20.955" y1="-2.54" x2="-20.32" y2="-1.905" width="0.1524" layer="21"/>
<wire x1="-20.32" y1="-1.905" x2="-19.685" y2="-2.54" width="0.1524" layer="21"/>
<wire x1="-19.685" y1="-2.54" x2="-18.415" y2="-2.54" width="0.1524" layer="21"/>
<wire x1="-18.415" y1="-2.54" x2="-17.78" y2="-1.905" width="0.1524" layer="21"/>
<wire x1="-17.78" y1="-1.905" x2="-17.145" y2="-2.54" width="0.1524" layer="21"/>
<wire x1="-17.145" y1="-2.54" x2="-15.875" y2="-2.54" width="0.1524" layer="21"/>
<wire x1="-15.875" y1="-2.54" x2="-15.24" y2="-1.905" width="0.1524" layer="21"/>
<wire x1="-15.24" y1="-1.905" x2="-14.605" y2="-2.54" width="0.1524" layer="21"/>
<wire x1="-14.605" y1="-2.54" x2="-13.335" y2="-2.54" width="0.1524" layer="21"/>
<wire x1="-13.335" y1="-2.54" x2="-12.7" y2="-1.905" width="0.1524" layer="21"/>
<wire x1="-12.7" y1="-1.905" x2="-12.065" y2="-2.54" width="0.1524" layer="21"/>
<wire x1="-12.065" y1="-2.54" x2="-10.795" y2="-2.54" width="0.1524" layer="21"/>
<wire x1="-10.795" y1="-2.54" x2="-10.16" y2="-1.905" width="0.1524" layer="21"/>
<wire x1="-25.4" y1="-1.905" x2="-25.4" y2="1.905" width="0.1524" layer="21"/>
<wire x1="-25.4" y1="1.905" x2="-24.765" y2="2.54" width="0.1524" layer="21"/>
<wire x1="-24.765" y1="2.54" x2="-23.495" y2="2.54" width="0.1524" layer="21"/>
<wire x1="-23.495" y1="2.54" x2="-22.86" y2="1.905" width="0.1524" layer="21"/>
<wire x1="-22.86" y1="1.905" x2="-22.225" y2="2.54" width="0.1524" layer="21"/>
<wire x1="-22.225" y1="2.54" x2="-20.955" y2="2.54" width="0.1524" layer="21"/>
<wire x1="-20.955" y1="2.54" x2="-20.32" y2="1.905" width="0.1524" layer="21"/>
<wire x1="-20.32" y1="1.905" x2="-19.685" y2="2.54" width="0.1524" layer="21"/>
<wire x1="-19.685" y1="2.54" x2="-18.415" y2="2.54" width="0.1524" layer="21"/>
<wire x1="-18.415" y1="2.54" x2="-17.78" y2="1.905" width="0.1524" layer="21"/>
<wire x1="-17.78" y1="1.905" x2="-17.145" y2="2.54" width="0.1524" layer="21"/>
<wire x1="-17.145" y1="2.54" x2="-15.875" y2="2.54" width="0.1524" layer="21"/>
<wire x1="-15.875" y1="2.54" x2="-15.24" y2="1.905" width="0.1524" layer="21"/>
<wire x1="-15.24" y1="1.905" x2="-14.605" y2="2.54" width="0.1524" layer="21"/>
<wire x1="-14.605" y1="2.54" x2="-13.335" y2="2.54" width="0.1524" layer="21"/>
<wire x1="-13.335" y1="2.54" x2="-12.7" y2="1.905" width="0.1524" layer="21"/>
<wire x1="-12.7" y1="1.905" x2="-12.065" y2="2.54" width="0.1524" layer="21"/>
<wire x1="-12.065" y1="2.54" x2="-10.795" y2="2.54" width="0.1524" layer="21"/>
<wire x1="-10.795" y1="2.54" x2="-10.16" y2="1.905" width="0.1524" layer="21"/>
<wire x1="-10.16" y1="1.905" x2="-9.525" y2="2.54" width="0.1524" layer="21"/>
<wire x1="-9.525" y1="2.54" x2="-8.255" y2="2.54" width="0.1524" layer="21"/>
<wire x1="-8.255" y1="2.54" x2="-7.62" y2="1.905" width="0.1524" layer="21"/>
<wire x1="-7.62" y1="1.905" x2="-6.985" y2="2.54" width="0.1524" layer="21"/>
<wire x1="-6.985" y1="2.54" x2="-5.715" y2="2.54" width="0.1524" layer="21"/>
<wire x1="-5.715" y1="2.54" x2="-5.08" y2="1.905" width="0.1524" layer="21"/>
<wire x1="-5.08" y1="1.905" x2="-4.445" y2="2.54" width="0.1524" layer="21"/>
<wire x1="-4.445" y1="2.54" x2="-3.175" y2="2.54" width="0.1524" layer="21"/>
<wire x1="-3.175" y1="2.54" x2="-2.54" y2="1.905" width="0.1524" layer="21"/>
<wire x1="-2.54" y1="1.905" x2="-1.905" y2="2.54" width="0.1524" layer="21"/>
<wire x1="-1.905" y1="2.54" x2="-0.635" y2="2.54" width="0.1524" layer="21"/>
<wire x1="-0.635" y1="2.54" x2="0" y2="1.905" width="0.1524" layer="21"/>
<wire x1="0" y1="1.905" x2="0.635" y2="2.54" width="0.1524" layer="21"/>
<wire x1="0.635" y1="2.54" x2="1.905" y2="2.54" width="0.1524" layer="21"/>
<wire x1="1.905" y1="2.54" x2="2.54" y2="1.905" width="0.1524" layer="21"/>
<wire x1="2.54" y1="1.905" x2="3.175" y2="2.54" width="0.1524" layer="21"/>
<wire x1="3.175" y1="2.54" x2="4.445" y2="2.54" width="0.1524" layer="21"/>
<wire x1="5.08" y1="1.905" x2="4.445" y2="2.54" width="0.1524" layer="21"/>
<wire x1="5.08" y1="1.905" x2="5.715" y2="2.54" width="0.1524" layer="21"/>
<wire x1="6.985" y1="2.54" x2="5.715" y2="2.54" width="0.1524" layer="21"/>
<wire x1="6.985" y1="2.54" x2="7.62" y2="1.905" width="0.1524" layer="21"/>
<wire x1="7.62" y1="1.905" x2="8.255" y2="2.54" width="0.1524" layer="21"/>
<wire x1="9.525" y1="2.54" x2="8.255" y2="2.54" width="0.1524" layer="21"/>
<wire x1="9.525" y1="2.54" x2="10.16" y2="1.905" width="0.1524" layer="21"/>
<wire x1="10.16" y1="1.905" x2="10.795" y2="2.54" width="0.1524" layer="21"/>
<wire x1="12.065" y1="2.54" x2="10.795" y2="2.54" width="0.1524" layer="21"/>
<wire x1="12.065" y1="2.54" x2="12.7" y2="1.905" width="0.1524" layer="21"/>
<wire x1="12.7" y1="1.905" x2="13.335" y2="2.54" width="0.1524" layer="21"/>
<wire x1="14.605" y1="2.54" x2="13.335" y2="2.54" width="0.1524" layer="21"/>
<wire x1="14.605" y1="2.54" x2="15.24" y2="1.905" width="0.1524" layer="21"/>
<wire x1="15.24" y1="1.905" x2="15.875" y2="2.54" width="0.1524" layer="21"/>
<wire x1="17.145" y1="2.54" x2="15.875" y2="2.54" width="0.1524" layer="21"/>
<wire x1="17.145" y1="2.54" x2="17.78" y2="1.905" width="0.1524" layer="21"/>
<wire x1="17.78" y1="1.905" x2="18.415" y2="2.54" width="0.1524" layer="21"/>
<wire x1="19.685" y1="2.54" x2="18.415" y2="2.54" width="0.1524" layer="21"/>
<wire x1="19.685" y1="2.54" x2="20.32" y2="1.905" width="0.1524" layer="21"/>
<wire x1="20.32" y1="1.905" x2="20.955" y2="2.54" width="0.1524" layer="21"/>
<wire x1="22.225" y1="2.54" x2="20.955" y2="2.54" width="0.1524" layer="21"/>
<wire x1="22.225" y1="2.54" x2="22.86" y2="1.905" width="0.1524" layer="21"/>
<wire x1="22.86" y1="-1.905" x2="22.225" y2="-2.54" width="0.1524" layer="21"/>
<wire x1="22.225" y1="-2.54" x2="20.955" y2="-2.54" width="0.1524" layer="21"/>
<wire x1="20.32" y1="-1.905" x2="20.955" y2="-2.54" width="0.1524" layer="21"/>
<wire x1="20.32" y1="-1.905" x2="19.685" y2="-2.54" width="0.1524" layer="21"/>
<wire x1="19.685" y1="-2.54" x2="18.415" y2="-2.54" width="0.1524" layer="21"/>
<wire x1="17.78" y1="-1.905" x2="18.415" y2="-2.54" width="0.1524" layer="21"/>
<wire x1="17.78" y1="-1.905" x2="17.145" y2="-2.54" width="0.1524" layer="21"/>
<wire x1="17.145" y1="-2.54" x2="15.875" y2="-2.54" width="0.1524" layer="21"/>
<wire x1="15.24" y1="-1.905" x2="15.875" y2="-2.54" width="0.1524" layer="21"/>
<wire x1="15.24" y1="-1.905" x2="14.605" y2="-2.54" width="0.1524" layer="21"/>
<wire x1="13.335" y1="-2.54" x2="14.605" y2="-2.54" width="0.1524" layer="21"/>
<wire x1="13.335" y1="-2.54" x2="12.7" y2="-1.905" width="0.1524" layer="21"/>
<wire x1="12.7" y1="-1.905" x2="12.065" y2="-2.54" width="0.1524" layer="21"/>
<wire x1="10.795" y1="-2.54" x2="12.065" y2="-2.54" width="0.1524" layer="21"/>
<wire x1="10.795" y1="-2.54" x2="10.16" y2="-1.905" width="0.1524" layer="21"/>
<wire x1="10.16" y1="-1.905" x2="9.525" y2="-2.54" width="0.1524" layer="21"/>
<wire x1="9.525" y1="-2.54" x2="8.255" y2="-2.54" width="0.1524" layer="21"/>
<wire x1="7.62" y1="-1.905" x2="8.255" y2="-2.54" width="0.1524" layer="21"/>
<wire x1="7.62" y1="-1.905" x2="6.985" y2="-2.54" width="0.1524" layer="21"/>
<wire x1="6.985" y1="-2.54" x2="5.715" y2="-2.54" width="0.1524" layer="21"/>
<wire x1="5.08" y1="-1.905" x2="5.715" y2="-2.54" width="0.1524" layer="21"/>
<wire x1="5.08" y1="-1.905" x2="4.445" y2="-2.54" width="0.1524" layer="21"/>
<wire x1="4.445" y1="-2.54" x2="3.175" y2="-2.54" width="0.1524" layer="21"/>
<wire x1="2.54" y1="-1.905" x2="3.175" y2="-2.54" width="0.1524" layer="21"/>
<wire x1="2.54" y1="-1.905" x2="1.905" y2="-2.54" width="0.1524" layer="21"/>
<wire x1="1.905" y1="-2.54" x2="0.635" y2="-2.54" width="0.1524" layer="21"/>
<wire x1="0" y1="-1.905" x2="0.635" y2="-2.54" width="0.1524" layer="21"/>
<wire x1="0" y1="-1.905" x2="-0.635" y2="-2.54" width="0.1524" layer="21"/>
<wire x1="-0.635" y1="-2.54" x2="-1.905" y2="-2.54" width="0.1524" layer="21"/>
<wire x1="-2.54" y1="-1.905" x2="-1.905" y2="-2.54" width="0.1524" layer="21"/>
<wire x1="-2.54" y1="-1.905" x2="-3.175" y2="-2.54" width="0.1524" layer="21"/>
<wire x1="-3.175" y1="-2.54" x2="-4.445" y2="-2.54" width="0.1524" layer="21"/>
<wire x1="-5.08" y1="-1.905" x2="-4.445" y2="-2.54" width="0.1524" layer="21"/>
<wire x1="-5.08" y1="-1.905" x2="-5.715" y2="-2.54" width="0.1524" layer="21"/>
<wire x1="-5.715" y1="-2.54" x2="-6.985" y2="-2.54" width="0.1524" layer="21"/>
<wire x1="-7.62" y1="-1.905" x2="-6.985" y2="-2.54" width="0.1524" layer="21"/>
<wire x1="-7.62" y1="-1.905" x2="-8.255" y2="-2.54" width="0.1524" layer="21"/>
<wire x1="-8.255" y1="-2.54" x2="-9.525" y2="-2.54" width="0.1524" layer="21"/>
<wire x1="-10.16" y1="-1.905" x2="-9.525" y2="-2.54" width="0.1524" layer="21"/>
<wire x1="-22.86" y1="1.905" x2="-22.86" y2="-1.905" width="0.1524" layer="21"/>
<wire x1="-20.32" y1="1.905" x2="-20.32" y2="-1.905" width="0.1524" layer="21"/>
<wire x1="-17.78" y1="1.905" x2="-17.78" y2="-1.905" width="0.1524" layer="21"/>
<wire x1="-15.24" y1="1.905" x2="-15.24" y2="-1.905" width="0.1524" layer="21"/>
<wire x1="-12.7" y1="1.905" x2="-12.7" y2="-1.905" width="0.1524" layer="21"/>
<wire x1="-10.16" y1="1.905" x2="-10.16" y2="-1.905" width="0.1524" layer="21"/>
<wire x1="-7.62" y1="1.905" x2="-7.62" y2="-1.905" width="0.1524" layer="21"/>
<wire x1="-5.08" y1="1.905" x2="-5.08" y2="-1.905" width="0.1524" layer="21"/>
<wire x1="-2.54" y1="1.905" x2="-2.54" y2="-1.905" width="0.1524" layer="21"/>
<wire x1="0" y1="1.905" x2="0" y2="-1.905" width="0.1524" layer="21"/>
<wire x1="2.54" y1="1.905" x2="2.54" y2="-1.905" width="0.1524" layer="21"/>
<wire x1="5.08" y1="1.905" x2="5.08" y2="-1.905" width="0.1524" layer="21"/>
<wire x1="7.62" y1="1.905" x2="7.62" y2="-1.905" width="0.1524" layer="21"/>
<wire x1="10.16" y1="1.905" x2="10.16" y2="-1.905" width="0.1524" layer="21"/>
<wire x1="12.7" y1="1.905" x2="12.7" y2="-1.905" width="0.1524" layer="21"/>
<wire x1="15.24" y1="1.905" x2="15.24" y2="-1.905" width="0.1524" layer="21"/>
<wire x1="17.78" y1="1.905" x2="17.78" y2="-1.905" width="0.1524" layer="21"/>
<wire x1="20.32" y1="1.905" x2="20.32" y2="-1.905" width="0.1524" layer="21"/>
<wire x1="22.86" y1="1.905" x2="22.86" y2="-1.905" width="0.1524" layer="21"/>
<wire x1="22.86" y1="1.905" x2="23.495" y2="2.54" width="0.1524" layer="21"/>
<wire x1="24.765" y1="2.54" x2="23.495" y2="2.54" width="0.1524" layer="21"/>
<wire x1="24.765" y1="2.54" x2="25.4" y2="1.905" width="0.1524" layer="21"/>
<wire x1="25.4" y1="-1.905" x2="24.765" y2="-2.54" width="0.1524" layer="21"/>
<wire x1="24.765" y1="-2.54" x2="23.495" y2="-2.54" width="0.1524" layer="21"/>
<wire x1="22.86" y1="-1.905" x2="23.495" y2="-2.54" width="0.1524" layer="21"/>
<wire x1="25.4" y1="1.905" x2="25.4" y2="-1.905" width="0.1524" layer="21"/>
<pad name="1" x="-24.13" y="-1.27" drill="1.016" diameter="1.778" shape="octagon"/>
<pad name="2" x="-24.13" y="1.27" drill="1.016" diameter="1.778" shape="octagon"/>
<pad name="3" x="-21.59" y="-1.27" drill="1.016" diameter="1.778" shape="octagon"/>
<pad name="4" x="-21.59" y="1.27" drill="1.016" diameter="1.778" shape="octagon"/>
<pad name="5" x="-19.05" y="-1.27" drill="1.016" diameter="1.778" shape="octagon"/>
<pad name="6" x="-19.05" y="1.27" drill="1.016" diameter="1.778" shape="octagon"/>
<pad name="7" x="-16.51" y="-1.27" drill="1.016" diameter="1.778" shape="octagon"/>
<pad name="8" x="-16.51" y="1.27" drill="1.016" diameter="1.778" shape="octagon"/>
<pad name="9" x="-13.97" y="-1.27" drill="1.016" diameter="1.778" shape="octagon"/>
<pad name="10" x="-13.97" y="1.27" drill="1.016" diameter="1.778" shape="octagon"/>
<pad name="11" x="-11.43" y="-1.27" drill="1.016" diameter="1.778" shape="octagon"/>
<pad name="12" x="-11.43" y="1.27" drill="1.016" diameter="1.778" shape="octagon"/>
<pad name="13" x="-8.89" y="-1.27" drill="1.016" diameter="1.778" shape="octagon"/>
<pad name="14" x="-8.89" y="1.27" drill="1.016" diameter="1.778" shape="octagon"/>
<pad name="15" x="-6.35" y="-1.27" drill="1.016" diameter="1.778" shape="octagon"/>
<pad name="16" x="-6.35" y="1.27" drill="1.016" diameter="1.778" shape="octagon"/>
<pad name="17" x="-3.81" y="-1.27" drill="1.016" diameter="1.778" shape="octagon"/>
<pad name="18" x="-3.81" y="1.27" drill="1.016" diameter="1.778" shape="octagon"/>
<pad name="19" x="-1.27" y="-1.27" drill="1.016" diameter="1.778" shape="octagon"/>
<pad name="20" x="-1.27" y="1.27" drill="1.016" diameter="1.778" shape="octagon"/>
<pad name="21" x="1.27" y="-1.27" drill="1.016" diameter="1.778" shape="octagon"/>
<pad name="22" x="1.27" y="1.27" drill="1.016" diameter="1.778" shape="octagon"/>
<pad name="23" x="3.81" y="-1.27" drill="1.016" diameter="1.778" shape="octagon"/>
<pad name="24" x="3.81" y="1.27" drill="1.016" diameter="1.778" shape="octagon"/>
<pad name="25" x="6.35" y="-1.27" drill="1.016" diameter="1.778" shape="octagon"/>
<pad name="26" x="6.35" y="1.27" drill="1.016" diameter="1.778" shape="octagon"/>
<pad name="27" x="8.89" y="-1.27" drill="1.016" diameter="1.778" shape="octagon"/>
<pad name="28" x="8.89" y="1.27" drill="1.016" diameter="1.778" shape="octagon"/>
<pad name="29" x="11.43" y="-1.27" drill="1.016" diameter="1.778" shape="octagon"/>
<pad name="30" x="11.43" y="1.27" drill="1.016" diameter="1.778" shape="octagon"/>
<pad name="31" x="13.97" y="-1.27" drill="1.016" diameter="1.778" shape="octagon"/>
<pad name="32" x="13.97" y="1.27" drill="1.016" diameter="1.778" shape="octagon"/>
<pad name="33" x="16.51" y="-1.27" drill="1.016" diameter="1.778" shape="octagon"/>
<pad name="34" x="16.51" y="1.27" drill="1.016" diameter="1.778" shape="octagon"/>
<pad name="35" x="19.05" y="-1.27" drill="1.016" diameter="1.778" shape="octagon"/>
<pad name="36" x="19.05" y="1.27" drill="1.016" diameter="1.778" shape="octagon"/>
<pad name="37" x="21.59" y="-1.27" drill="1.016" diameter="1.778" shape="octagon"/>
<pad name="38" x="21.59" y="1.27" drill="1.016" diameter="1.778" shape="octagon"/>
<pad name="39" x="24.13" y="-1.27" drill="1.016" diameter="1.778" shape="octagon"/>
<pad name="40" x="24.13" y="1.27" drill="1.016" diameter="1.778" shape="octagon"/>
<text x="-25.4" y="3.175" size="1.27" layer="25" ratio="10">&gt;NAME</text>
<text x="-25.4" y="-4.445" size="1.27" layer="27">&gt;VALUE</text>
<rectangle x1="-24.384" y1="-1.524" x2="-23.876" y2="-1.016" layer="51"/>
<rectangle x1="-24.384" y1="1.016" x2="-23.876" y2="1.524" layer="51"/>
<rectangle x1="-21.844" y1="1.016" x2="-21.336" y2="1.524" layer="51"/>
<rectangle x1="-21.844" y1="-1.524" x2="-21.336" y2="-1.016" layer="51"/>
<rectangle x1="-19.304" y1="1.016" x2="-18.796" y2="1.524" layer="51"/>
<rectangle x1="-19.304" y1="-1.524" x2="-18.796" y2="-1.016" layer="51"/>
<rectangle x1="-16.764" y1="1.016" x2="-16.256" y2="1.524" layer="51"/>
<rectangle x1="-14.224" y1="1.016" x2="-13.716" y2="1.524" layer="51"/>
<rectangle x1="-11.684" y1="1.016" x2="-11.176" y2="1.524" layer="51"/>
<rectangle x1="-16.764" y1="-1.524" x2="-16.256" y2="-1.016" layer="51"/>
<rectangle x1="-14.224" y1="-1.524" x2="-13.716" y2="-1.016" layer="51"/>
<rectangle x1="-11.684" y1="-1.524" x2="-11.176" y2="-1.016" layer="51"/>
<rectangle x1="-9.144" y1="1.016" x2="-8.636" y2="1.524" layer="51"/>
<rectangle x1="-9.144" y1="-1.524" x2="-8.636" y2="-1.016" layer="51"/>
<rectangle x1="-6.604" y1="1.016" x2="-6.096" y2="1.524" layer="51"/>
<rectangle x1="-6.604" y1="-1.524" x2="-6.096" y2="-1.016" layer="51"/>
<rectangle x1="-4.064" y1="1.016" x2="-3.556" y2="1.524" layer="51"/>
<rectangle x1="-4.064" y1="-1.524" x2="-3.556" y2="-1.016" layer="51"/>
<rectangle x1="-1.524" y1="1.016" x2="-1.016" y2="1.524" layer="51"/>
<rectangle x1="-1.524" y1="-1.524" x2="-1.016" y2="-1.016" layer="51"/>
<rectangle x1="1.016" y1="1.016" x2="1.524" y2="1.524" layer="51"/>
<rectangle x1="1.016" y1="-1.524" x2="1.524" y2="-1.016" layer="51"/>
<rectangle x1="3.556" y1="1.016" x2="4.064" y2="1.524" layer="51"/>
<rectangle x1="3.556" y1="-1.524" x2="4.064" y2="-1.016" layer="51"/>
<rectangle x1="6.096" y1="1.016" x2="6.604" y2="1.524" layer="51"/>
<rectangle x1="6.096" y1="-1.524" x2="6.604" y2="-1.016" layer="51"/>
<rectangle x1="8.636" y1="1.016" x2="9.144" y2="1.524" layer="51"/>
<rectangle x1="8.636" y1="-1.524" x2="9.144" y2="-1.016" layer="51"/>
<rectangle x1="11.176" y1="1.016" x2="11.684" y2="1.524" layer="51"/>
<rectangle x1="11.176" y1="-1.524" x2="11.684" y2="-1.016" layer="51"/>
<rectangle x1="13.716" y1="1.016" x2="14.224" y2="1.524" layer="51"/>
<rectangle x1="13.716" y1="-1.524" x2="14.224" y2="-1.016" layer="51"/>
<rectangle x1="16.256" y1="1.016" x2="16.764" y2="1.524" layer="51"/>
<rectangle x1="16.256" y1="-1.524" x2="16.764" y2="-1.016" layer="51"/>
<rectangle x1="18.796" y1="1.016" x2="19.304" y2="1.524" layer="51"/>
<rectangle x1="18.796" y1="-1.524" x2="19.304" y2="-1.016" layer="51"/>
<rectangle x1="21.336" y1="1.016" x2="21.844" y2="1.524" layer="51"/>
<rectangle x1="21.336" y1="-1.524" x2="21.844" y2="-1.016" layer="51"/>
<rectangle x1="23.876" y1="1.016" x2="24.384" y2="1.524" layer="51"/>
<rectangle x1="23.876" y1="-1.524" x2="24.384" y2="-1.016" layer="51"/>
</package>
</packages>
<packages3d>
<package3d name="2X20" urn="urn:adsk.eagle:package:6240778/1" type="box" library_version="2">
<description>&lt;b&gt;PIN HEADER&lt;/b&gt;</description>
<packageinstances>
<packageinstance name="2X20"/>
</packageinstances>
</package3d>
<package3d name="2X20-BIG" urn="urn:adsk.eagle:package:6240780/1" type="box" library_version="2">
<packageinstances>
<packageinstance name="2X20-BIG"/>
</packageinstances>
</package3d>
</packages3d>
<symbols>
<symbol name="PINH2X20" urn="urn:adsk.eagle:symbol:6239577/1" library_version="2">
<wire x1="-6.35" y1="-27.94" x2="8.89" y2="-27.94" width="0.4064" layer="94"/>
<wire x1="8.89" y1="-27.94" x2="8.89" y2="25.4" width="0.4064" layer="94"/>
<wire x1="8.89" y1="25.4" x2="-6.35" y2="25.4" width="0.4064" layer="94"/>
<wire x1="-6.35" y1="25.4" x2="-6.35" y2="-27.94" width="0.4064" layer="94"/>
<text x="-6.35" y="26.035" size="1.778" layer="95">&gt;NAME</text>
<text x="-6.35" y="-30.48" size="1.778" layer="96">&gt;VALUE</text>
<pin name="1" x="-2.54" y="22.86" visible="pad" length="short" direction="pas" function="dot"/>
<pin name="2" x="5.08" y="22.86" visible="pad" length="short" direction="pas" function="dot" rot="R180"/>
<pin name="3" x="-2.54" y="20.32" visible="pad" length="short" direction="pas" function="dot"/>
<pin name="4" x="5.08" y="20.32" visible="pad" length="short" direction="pas" function="dot" rot="R180"/>
<pin name="5" x="-2.54" y="17.78" visible="pad" length="short" direction="pas" function="dot"/>
<pin name="6" x="5.08" y="17.78" visible="pad" length="short" direction="pas" function="dot" rot="R180"/>
<pin name="7" x="-2.54" y="15.24" visible="pad" length="short" direction="pas" function="dot"/>
<pin name="8" x="5.08" y="15.24" visible="pad" length="short" direction="pas" function="dot" rot="R180"/>
<pin name="9" x="-2.54" y="12.7" visible="pad" length="short" direction="pas" function="dot"/>
<pin name="10" x="5.08" y="12.7" visible="pad" length="short" direction="pas" function="dot" rot="R180"/>
<pin name="11" x="-2.54" y="10.16" visible="pad" length="short" direction="pas" function="dot"/>
<pin name="12" x="5.08" y="10.16" visible="pad" length="short" direction="pas" function="dot" rot="R180"/>
<pin name="13" x="-2.54" y="7.62" visible="pad" length="short" direction="pas" function="dot"/>
<pin name="14" x="5.08" y="7.62" visible="pad" length="short" direction="pas" function="dot" rot="R180"/>
<pin name="15" x="-2.54" y="5.08" visible="pad" length="short" direction="pas" function="dot"/>
<pin name="16" x="5.08" y="5.08" visible="pad" length="short" direction="pas" function="dot" rot="R180"/>
<pin name="17" x="-2.54" y="2.54" visible="pad" length="short" direction="pas" function="dot"/>
<pin name="18" x="5.08" y="2.54" visible="pad" length="short" direction="pas" function="dot" rot="R180"/>
<pin name="19" x="-2.54" y="0" visible="pad" length="short" direction="pas" function="dot"/>
<pin name="20" x="5.08" y="0" visible="pad" length="short" direction="pas" function="dot" rot="R180"/>
<pin name="21" x="-2.54" y="-2.54" visible="pad" length="short" direction="pas" function="dot"/>
<pin name="22" x="5.08" y="-2.54" visible="pad" length="short" direction="pas" function="dot" rot="R180"/>
<pin name="23" x="-2.54" y="-5.08" visible="pad" length="short" direction="pas" function="dot"/>
<pin name="24" x="5.08" y="-5.08" visible="pad" length="short" direction="pas" function="dot" rot="R180"/>
<pin name="25" x="-2.54" y="-7.62" visible="pad" length="short" direction="pas" function="dot"/>
<pin name="26" x="5.08" y="-7.62" visible="pad" length="short" direction="pas" function="dot" rot="R180"/>
<pin name="27" x="-2.54" y="-10.16" visible="pad" length="short" direction="pas" function="dot"/>
<pin name="28" x="5.08" y="-10.16" visible="pad" length="short" direction="pas" function="dot" rot="R180"/>
<pin name="29" x="-2.54" y="-12.7" visible="pad" length="short" direction="pas" function="dot"/>
<pin name="30" x="5.08" y="-12.7" visible="pad" length="short" direction="pas" function="dot" rot="R180"/>
<pin name="31" x="-2.54" y="-15.24" visible="pad" length="short" direction="pas" function="dot"/>
<pin name="32" x="5.08" y="-15.24" visible="pad" length="short" direction="pas" function="dot" rot="R180"/>
<pin name="33" x="-2.54" y="-17.78" visible="pad" length="short" direction="pas" function="dot"/>
<pin name="34" x="5.08" y="-17.78" visible="pad" length="short" direction="pas" function="dot" rot="R180"/>
<pin name="35" x="-2.54" y="-20.32" visible="pad" length="short" direction="pas" function="dot"/>
<pin name="36" x="5.08" y="-20.32" visible="pad" length="short" direction="pas" function="dot" rot="R180"/>
<pin name="37" x="-2.54" y="-22.86" visible="pad" length="short" direction="pas" function="dot"/>
<pin name="38" x="5.08" y="-22.86" visible="pad" length="short" direction="pas" function="dot" rot="R180"/>
<pin name="39" x="-2.54" y="-25.4" visible="pad" length="short" direction="pas" function="dot"/>
<pin name="40" x="5.08" y="-25.4" visible="pad" length="short" direction="pas" function="dot" rot="R180"/>
</symbol>
</symbols>
<devicesets>
<deviceset name="PINHD-2X20" urn="urn:adsk.eagle:component:6241069/1" prefix="JP" uservalue="yes" library_version="2">
<description>&lt;b&gt;PIN HEADER&lt;/b&gt;</description>
<gates>
<gate name="A" symbol="PINH2X20" x="0" y="0"/>
</gates>
<devices>
<device name="" package="2X20">
<connects>
<connect gate="A" pin="1" pad="1"/>
<connect gate="A" pin="10" pad="10"/>
<connect gate="A" pin="11" pad="11"/>
<connect gate="A" pin="12" pad="12"/>
<connect gate="A" pin="13" pad="13"/>
<connect gate="A" pin="14" pad="14"/>
<connect gate="A" pin="15" pad="15"/>
<connect gate="A" pin="16" pad="16"/>
<connect gate="A" pin="17" pad="17"/>
<connect gate="A" pin="18" pad="18"/>
<connect gate="A" pin="19" pad="19"/>
<connect gate="A" pin="2" pad="2"/>
<connect gate="A" pin="20" pad="20"/>
<connect gate="A" pin="21" pad="21"/>
<connect gate="A" pin="22" pad="22"/>
<connect gate="A" pin="23" pad="23"/>
<connect gate="A" pin="24" pad="24"/>
<connect gate="A" pin="25" pad="25"/>
<connect gate="A" pin="26" pad="26"/>
<connect gate="A" pin="27" pad="27"/>
<connect gate="A" pin="28" pad="28"/>
<connect gate="A" pin="29" pad="29"/>
<connect gate="A" pin="3" pad="3"/>
<connect gate="A" pin="30" pad="30"/>
<connect gate="A" pin="31" pad="31"/>
<connect gate="A" pin="32" pad="32"/>
<connect gate="A" pin="33" pad="33"/>
<connect gate="A" pin="34" pad="34"/>
<connect gate="A" pin="35" pad="35"/>
<connect gate="A" pin="36" pad="36"/>
<connect gate="A" pin="37" pad="37"/>
<connect gate="A" pin="38" pad="38"/>
<connect gate="A" pin="39" pad="39"/>
<connect gate="A" pin="4" pad="4"/>
<connect gate="A" pin="40" pad="40"/>
<connect gate="A" pin="5" pad="5"/>
<connect gate="A" pin="6" pad="6"/>
<connect gate="A" pin="7" pad="7"/>
<connect gate="A" pin="8" pad="8"/>
<connect gate="A" pin="9" pad="9"/>
</connects>
<package3dinstances>
<package3dinstance package3d_urn="urn:adsk.eagle:package:6240778/1"/>
</package3dinstances>
<technologies>
<technology name=""/>
</technologies>
</device>
<device name="-BIG" package="2X20-BIG">
<connects>
<connect gate="A" pin="1" pad="1"/>
<connect gate="A" pin="10" pad="10"/>
<connect gate="A" pin="11" pad="11"/>
<connect gate="A" pin="12" pad="12"/>
<connect gate="A" pin="13" pad="13"/>
<connect gate="A" pin="14" pad="14"/>
<connect gate="A" pin="15" pad="15"/>
<connect gate="A" pin="16" pad="16"/>
<connect gate="A" pin="17" pad="17"/>
<connect gate="A" pin="18" pad="18"/>
<connect gate="A" pin="19" pad="19"/>
<connect gate="A" pin="2" pad="2"/>
<connect gate="A" pin="20" pad="20"/>
<connect gate="A" pin="21" pad="21"/>
<connect gate="A" pin="22" pad="22"/>
<connect gate="A" pin="23" pad="23"/>
<connect gate="A" pin="24" pad="24"/>
<connect gate="A" pin="25" pad="25"/>
<connect gate="A" pin="26" pad="26"/>
<connect gate="A" pin="27" pad="27"/>
<connect gate="A" pin="28" pad="28"/>
<connect gate="A" pin="29" pad="29"/>
<connect gate="A" pin="3" pad="3"/>
<connect gate="A" pin="30" pad="30"/>
<connect gate="A" pin="31" pad="31"/>
<connect gate="A" pin="32" pad="32"/>
<connect gate="A" pin="33" pad="33"/>
<connect gate="A" pin="34" pad="34"/>
<connect gate="A" pin="35" pad="35"/>
<connect gate="A" pin="36" pad="36"/>
<connect gate="A" pin="37" pad="37"/>
<connect gate="A" pin="38" pad="38"/>
<connect gate="A" pin="39" pad="39"/>
<connect gate="A" pin="4" pad="4"/>
<connect gate="A" pin="40" pad="40"/>
<connect gate="A" pin="5" pad="5"/>
<connect gate="A" pin="6" pad="6"/>
<connect gate="A" pin="7" pad="7"/>
<connect gate="A" pin="8" pad="8"/>
<connect gate="A" pin="9" pad="9"/>
</connects>
<package3dinstances>
<package3dinstance package3d_urn="urn:adsk.eagle:package:6240780/1"/>
</package3dinstances>
<technologies>
<technology name=""/>
</technologies>
</device>
</devices>
</deviceset>
</devicesets>
</library>
</libraries>
<attributes>
</attributes>
<variantdefs>
</variantdefs>
<classes>
<class number="0" name="default" width="0" drill="0">
</class>
</classes>
<parts>
<part name="FRAME1" library="frames" library_urn="urn:adsk.eagle:library:229" deviceset="FRAME_A_L" device=""/>
<part name="DO" library="adafruit" library_urn="urn:adsk.eagle:library:420" deviceset="PINHD-2X20" device="" package3d_urn="urn:adsk.eagle:package:6240778/1"/>
<part name="-&gt;ECU" library="adafruit" library_urn="urn:adsk.eagle:library:420" deviceset="PINHD-2X20" device="" package3d_urn="urn:adsk.eagle:package:6240778/1"/>
<part name="DI" library="adafruit" library_urn="urn:adsk.eagle:library:420" deviceset="PINHD-2X20" device="" package3d_urn="urn:adsk.eagle:package:6240778/1"/>
</parts>
<sheets>
<sheet>
<plain>
</plain>
<instances>
<instance part="FRAME1" gate="G$1" x="0" y="0" smashed="yes"/>
<instance part="FRAME1" gate="G$2" x="172.72" y="0" smashed="yes">
<attribute name="LAST_DATE_TIME" x="185.42" y="1.27" size="2.54" layer="94"/>
<attribute name="SHEET" x="259.08" y="1.27" size="2.54" layer="94"/>
<attribute name="DRAWING_NAME" x="190.5" y="19.05" size="2.54" layer="94"/>
</instance>
<instance part="DO" gate="A" x="213.36" y="129.54" smashed="yes" rot="MR0">
<attribute name="NAME" x="219.71" y="155.575" size="1.778" layer="95" rot="MR0"/>
<attribute name="VALUE" x="219.71" y="99.06" size="1.778" layer="96" rot="MR0"/>
</instance>
<instance part="-&gt;ECU" gate="A" x="147.32" y="129.54" smashed="yes">
<attribute name="NAME" x="140.97" y="155.575" size="1.778" layer="95"/>
<attribute name="VALUE" x="140.97" y="99.06" size="1.778" layer="96"/>
</instance>
<instance part="DI" gate="A" x="86.36" y="129.54" smashed="yes" rot="MR0">
<attribute name="NAME" x="92.71" y="155.575" size="1.778" layer="95" rot="MR0"/>
<attribute name="VALUE" x="92.71" y="99.06" size="1.778" layer="96" rot="MR0"/>
</instance>
</instances>
<busses>
</busses>
<nets>
<net name="DO_5V" class="0">
<segment>
<pinref part="-&gt;ECU" gate="A" pin="39"/>
<wire x1="144.78" y1="104.14" x2="96.52" y2="104.14" width="0.1524" layer="91"/>
<wire x1="96.52" y1="104.14" x2="96.52" y2="208.28" width="0.1524" layer="91"/>
<wire x1="96.52" y1="208.28" x2="271.78" y2="208.28" width="0.1524" layer="91"/>
<wire x1="271.78" y1="208.28" x2="271.78" y2="152.4" width="0.1524" layer="91"/>
<pinref part="DO" gate="A" pin="1"/>
<wire x1="271.78" y1="152.4" x2="215.9" y2="152.4" width="0.1524" layer="91"/>
</segment>
</net>
<net name="DI_1" class="0">
<segment>
<pinref part="-&gt;ECU" gate="A" pin="36"/>
<pinref part="DI" gate="A" pin="6"/>
<wire x1="81.28" y1="147.32" x2="68.58" y2="147.32" width="0.1524" layer="91"/>
<wire x1="68.58" y1="147.32" x2="68.58" y2="93.98" width="0.1524" layer="91"/>
<wire x1="68.58" y1="93.98" x2="157.48" y2="93.98" width="0.1524" layer="91"/>
<wire x1="157.48" y1="93.98" x2="157.48" y2="109.22" width="0.1524" layer="91"/>
<wire x1="157.48" y1="109.22" x2="152.4" y2="109.22" width="0.1524" layer="91"/>
</segment>
</net>
<net name="DO_16" class="0">
<segment>
<pinref part="-&gt;ECU" gate="A" pin="3"/>
<wire x1="144.78" y1="149.86" x2="142.24" y2="149.86" width="0.1524" layer="91"/>
<wire x1="142.24" y1="149.86" x2="142.24" y2="162.56" width="0.1524" layer="91"/>
<wire x1="142.24" y1="162.56" x2="226.06" y2="162.56" width="0.1524" layer="91"/>
<wire x1="226.06" y1="162.56" x2="226.06" y2="106.68" width="0.1524" layer="91"/>
<pinref part="DO" gate="A" pin="37"/>
<wire x1="226.06" y1="106.68" x2="215.9" y2="106.68" width="0.1524" layer="91"/>
</segment>
</net>
<net name="D0_15" class="0">
<segment>
<pinref part="-&gt;ECU" gate="A" pin="5"/>
<wire x1="144.78" y1="147.32" x2="139.7" y2="147.32" width="0.1524" layer="91"/>
<wire x1="139.7" y1="147.32" x2="139.7" y2="165.1" width="0.1524" layer="91"/>
<wire x1="139.7" y1="165.1" x2="228.6" y2="165.1" width="0.1524" layer="91"/>
<wire x1="228.6" y1="165.1" x2="228.6" y2="109.22" width="0.1524" layer="91"/>
<wire x1="228.6" y1="109.22" x2="215.9" y2="109.22" width="0.1524" layer="91"/>
<pinref part="DO" gate="A" pin="35"/>
</segment>
</net>
<net name="DO_14" class="0">
<segment>
<pinref part="-&gt;ECU" gate="A" pin="7"/>
<wire x1="144.78" y1="144.78" x2="137.16" y2="144.78" width="0.1524" layer="91"/>
<wire x1="137.16" y1="144.78" x2="137.16" y2="167.64" width="0.1524" layer="91"/>
<wire x1="137.16" y1="167.64" x2="231.14" y2="167.64" width="0.1524" layer="91"/>
<pinref part="DO" gate="A" pin="33"/>
<wire x1="231.14" y1="167.64" x2="231.14" y2="111.76" width="0.1524" layer="91"/>
<wire x1="231.14" y1="111.76" x2="215.9" y2="111.76" width="0.1524" layer="91"/>
</segment>
</net>
<net name="DO_12" class="0">
<segment>
<pinref part="-&gt;ECU" gate="A" pin="11"/>
<wire x1="144.78" y1="139.7" x2="132.08" y2="139.7" width="0.1524" layer="91"/>
<wire x1="132.08" y1="139.7" x2="132.08" y2="172.72" width="0.1524" layer="91"/>
<wire x1="132.08" y1="172.72" x2="236.22" y2="172.72" width="0.1524" layer="91"/>
<wire x1="236.22" y1="172.72" x2="236.22" y2="116.84" width="0.1524" layer="91"/>
<pinref part="DO" gate="A" pin="29"/>
<wire x1="236.22" y1="116.84" x2="215.9" y2="116.84" width="0.1524" layer="91"/>
</segment>
</net>
<net name="DO_11" class="0">
<segment>
<pinref part="-&gt;ECU" gate="A" pin="13"/>
<wire x1="144.78" y1="137.16" x2="129.54" y2="137.16" width="0.1524" layer="91"/>
<wire x1="129.54" y1="137.16" x2="129.54" y2="175.26" width="0.1524" layer="91"/>
<wire x1="129.54" y1="175.26" x2="238.76" y2="175.26" width="0.1524" layer="91"/>
<pinref part="DO" gate="A" pin="27"/>
<wire x1="238.76" y1="175.26" x2="238.76" y2="119.38" width="0.1524" layer="91"/>
<wire x1="238.76" y1="119.38" x2="215.9" y2="119.38" width="0.1524" layer="91"/>
</segment>
</net>
<net name="DO_13" class="0">
<segment>
<pinref part="-&gt;ECU" gate="A" pin="9"/>
<wire x1="144.78" y1="142.24" x2="134.62" y2="142.24" width="0.1524" layer="91"/>
<wire x1="134.62" y1="142.24" x2="134.62" y2="170.18" width="0.1524" layer="91"/>
<wire x1="134.62" y1="170.18" x2="233.68" y2="170.18" width="0.1524" layer="91"/>
<wire x1="233.68" y1="170.18" x2="233.68" y2="114.3" width="0.1524" layer="91"/>
<wire x1="233.68" y1="114.3" x2="215.9" y2="114.3" width="0.1524" layer="91"/>
<pinref part="DO" gate="A" pin="31"/>
</segment>
</net>
<net name="DO_10" class="0">
<segment>
<pinref part="-&gt;ECU" gate="A" pin="15"/>
<wire x1="144.78" y1="134.62" x2="127" y2="134.62" width="0.1524" layer="91"/>
<wire x1="127" y1="134.62" x2="127" y2="177.8" width="0.1524" layer="91"/>
<wire x1="127" y1="177.8" x2="241.3" y2="177.8" width="0.1524" layer="91"/>
<pinref part="DO" gate="A" pin="25"/>
<wire x1="241.3" y1="177.8" x2="241.3" y2="121.92" width="0.1524" layer="91"/>
<wire x1="241.3" y1="121.92" x2="215.9" y2="121.92" width="0.1524" layer="91"/>
</segment>
</net>
<net name="DO_9" class="0">
<segment>
<pinref part="-&gt;ECU" gate="A" pin="17"/>
<wire x1="144.78" y1="132.08" x2="124.46" y2="132.08" width="0.1524" layer="91"/>
<wire x1="124.46" y1="132.08" x2="124.46" y2="180.34" width="0.1524" layer="91"/>
<wire x1="124.46" y1="180.34" x2="243.84" y2="180.34" width="0.1524" layer="91"/>
<pinref part="DO" gate="A" pin="23"/>
<wire x1="243.84" y1="180.34" x2="243.84" y2="124.46" width="0.1524" layer="91"/>
<wire x1="243.84" y1="124.46" x2="215.9" y2="124.46" width="0.1524" layer="91"/>
</segment>
</net>
<net name="DO_GND2" class="0">
<segment>
<pinref part="-&gt;ECU" gate="A" pin="19"/>
<wire x1="144.78" y1="129.54" x2="121.92" y2="129.54" width="0.1524" layer="91"/>
<wire x1="121.92" y1="129.54" x2="121.92" y2="182.88" width="0.1524" layer="91"/>
<wire x1="121.92" y1="182.88" x2="246.38" y2="182.88" width="0.1524" layer="91"/>
<wire x1="246.38" y1="182.88" x2="246.38" y2="127" width="0.1524" layer="91"/>
<pinref part="DO" gate="A" pin="21"/>
<wire x1="246.38" y1="127" x2="215.9" y2="127" width="0.1524" layer="91"/>
</segment>
</net>
<net name="DO_8" class="0">
<segment>
<pinref part="DO" gate="A" pin="19"/>
<wire x1="215.9" y1="129.54" x2="248.92" y2="129.54" width="0.1524" layer="91"/>
<wire x1="248.92" y1="129.54" x2="248.92" y2="185.42" width="0.1524" layer="91"/>
<wire x1="248.92" y1="185.42" x2="119.38" y2="185.42" width="0.1524" layer="91"/>
<pinref part="-&gt;ECU" gate="A" pin="21"/>
<wire x1="119.38" y1="185.42" x2="119.38" y2="127" width="0.1524" layer="91"/>
<wire x1="119.38" y1="127" x2="144.78" y2="127" width="0.1524" layer="91"/>
</segment>
</net>
<net name="DO_7" class="0">
<segment>
<pinref part="-&gt;ECU" gate="A" pin="23"/>
<wire x1="144.78" y1="124.46" x2="116.84" y2="124.46" width="0.1524" layer="91"/>
<wire x1="116.84" y1="124.46" x2="116.84" y2="187.96" width="0.1524" layer="91"/>
<wire x1="116.84" y1="187.96" x2="251.46" y2="187.96" width="0.1524" layer="91"/>
<pinref part="DO" gate="A" pin="17"/>
<wire x1="251.46" y1="187.96" x2="251.46" y2="132.08" width="0.1524" layer="91"/>
<wire x1="251.46" y1="132.08" x2="215.9" y2="132.08" width="0.1524" layer="91"/>
</segment>
</net>
<net name="DI_GND3" class="0">
<segment>
<pinref part="-&gt;ECU" gate="A" pin="2"/>
<wire x1="25.4" y1="104.14" x2="25.4" y2="50.8" width="0.1524" layer="91"/>
<wire x1="25.4" y1="50.8" x2="200.66" y2="50.8" width="0.1524" layer="91"/>
<wire x1="200.66" y1="50.8" x2="200.66" y2="152.4" width="0.1524" layer="91"/>
<wire x1="200.66" y1="152.4" x2="152.4" y2="152.4" width="0.1524" layer="91"/>
<pinref part="DI" gate="A" pin="40"/>
<wire x1="25.4" y1="104.14" x2="81.28" y2="104.14" width="0.1524" layer="91"/>
</segment>
</net>
<net name="DO_5" class="0">
<segment>
<pinref part="DO" gate="A" pin="13"/>
<wire x1="215.9" y1="137.16" x2="256.54" y2="137.16" width="0.1524" layer="91"/>
<wire x1="256.54" y1="137.16" x2="256.54" y2="193.04" width="0.1524" layer="91"/>
<wire x1="256.54" y1="193.04" x2="111.76" y2="193.04" width="0.1524" layer="91"/>
<wire x1="111.76" y1="193.04" x2="111.76" y2="119.38" width="0.1524" layer="91"/>
<pinref part="-&gt;ECU" gate="A" pin="27"/>
<wire x1="111.76" y1="119.38" x2="144.78" y2="119.38" width="0.1524" layer="91"/>
</segment>
</net>
<net name="DO_4" class="0">
<segment>
<pinref part="-&gt;ECU" gate="A" pin="29"/>
<wire x1="144.78" y1="116.84" x2="109.22" y2="116.84" width="0.1524" layer="91"/>
<wire x1="109.22" y1="116.84" x2="109.22" y2="195.58" width="0.1524" layer="91"/>
<wire x1="109.22" y1="195.58" x2="259.08" y2="195.58" width="0.1524" layer="91"/>
<wire x1="259.08" y1="195.58" x2="259.08" y2="139.7" width="0.1524" layer="91"/>
<pinref part="DO" gate="A" pin="11"/>
<wire x1="259.08" y1="139.7" x2="215.9" y2="139.7" width="0.1524" layer="91"/>
</segment>
</net>
<net name="DO_3" class="0">
<segment>
<pinref part="DO" gate="A" pin="9"/>
<wire x1="215.9" y1="142.24" x2="261.62" y2="142.24" width="0.1524" layer="91"/>
<wire x1="261.62" y1="142.24" x2="261.62" y2="198.12" width="0.1524" layer="91"/>
<wire x1="261.62" y1="198.12" x2="106.68" y2="198.12" width="0.1524" layer="91"/>
<pinref part="-&gt;ECU" gate="A" pin="31"/>
<wire x1="106.68" y1="198.12" x2="106.68" y2="114.3" width="0.1524" layer="91"/>
<wire x1="106.68" y1="114.3" x2="144.78" y2="114.3" width="0.1524" layer="91"/>
</segment>
</net>
<net name="DO_2" class="0">
<segment>
<pinref part="-&gt;ECU" gate="A" pin="33"/>
<wire x1="144.78" y1="111.76" x2="104.14" y2="111.76" width="0.1524" layer="91"/>
<wire x1="104.14" y1="111.76" x2="104.14" y2="200.66" width="0.1524" layer="91"/>
<wire x1="104.14" y1="200.66" x2="264.16" y2="200.66" width="0.1524" layer="91"/>
<pinref part="DO" gate="A" pin="7"/>
<wire x1="264.16" y1="200.66" x2="264.16" y2="144.78" width="0.1524" layer="91"/>
<wire x1="264.16" y1="144.78" x2="215.9" y2="144.78" width="0.1524" layer="91"/>
</segment>
</net>
<net name="DO_1" class="0">
<segment>
<pinref part="DO" gate="A" pin="5"/>
<wire x1="215.9" y1="147.32" x2="266.7" y2="147.32" width="0.1524" layer="91"/>
<wire x1="266.7" y1="147.32" x2="266.7" y2="203.2" width="0.1524" layer="91"/>
<wire x1="266.7" y1="203.2" x2="101.6" y2="203.2" width="0.1524" layer="91"/>
<wire x1="101.6" y1="203.2" x2="101.6" y2="109.22" width="0.1524" layer="91"/>
<pinref part="-&gt;ECU" gate="A" pin="35"/>
<wire x1="101.6" y1="109.22" x2="144.78" y2="109.22" width="0.1524" layer="91"/>
</segment>
</net>
<net name="DO_GND1" class="0">
<segment>
<pinref part="-&gt;ECU" gate="A" pin="37"/>
<wire x1="144.78" y1="106.68" x2="99.06" y2="106.68" width="0.1524" layer="91"/>
<wire x1="99.06" y1="106.68" x2="99.06" y2="205.74" width="0.1524" layer="91"/>
<wire x1="99.06" y1="205.74" x2="269.24" y2="205.74" width="0.1524" layer="91"/>
<wire x1="269.24" y1="205.74" x2="269.24" y2="149.86" width="0.1524" layer="91"/>
<pinref part="DO" gate="A" pin="3"/>
<wire x1="269.24" y1="149.86" x2="215.9" y2="149.86" width="0.1524" layer="91"/>
</segment>
</net>
<net name="DI_5V" class="0">
<segment>
<pinref part="-&gt;ECU" gate="A" pin="40"/>
<wire x1="152.4" y1="104.14" x2="152.4" y2="99.06" width="0.1524" layer="91"/>
<wire x1="152.4" y1="99.06" x2="73.66" y2="99.06" width="0.1524" layer="91"/>
<pinref part="DI" gate="A" pin="2"/>
<wire x1="73.66" y1="99.06" x2="73.66" y2="152.4" width="0.1524" layer="91"/>
<wire x1="73.66" y1="152.4" x2="81.28" y2="152.4" width="0.1524" layer="91"/>
</segment>
</net>
<net name="DI_GND1" class="0">
<segment>
<pinref part="-&gt;ECU" gate="A" pin="38"/>
<wire x1="152.4" y1="106.68" x2="154.94" y2="106.68" width="0.1524" layer="91"/>
<wire x1="154.94" y1="106.68" x2="154.94" y2="96.52" width="0.1524" layer="91"/>
<wire x1="154.94" y1="96.52" x2="71.12" y2="96.52" width="0.1524" layer="91"/>
<pinref part="DI" gate="A" pin="4"/>
<wire x1="71.12" y1="96.52" x2="71.12" y2="149.86" width="0.1524" layer="91"/>
<wire x1="71.12" y1="149.86" x2="81.28" y2="149.86" width="0.1524" layer="91"/>
</segment>
</net>
<net name="DI_2" class="0">
<segment>
<pinref part="-&gt;ECU" gate="A" pin="34"/>
<wire x1="152.4" y1="111.76" x2="160.02" y2="111.76" width="0.1524" layer="91"/>
<wire x1="160.02" y1="111.76" x2="160.02" y2="91.44" width="0.1524" layer="91"/>
<wire x1="160.02" y1="91.44" x2="66.04" y2="91.44" width="0.1524" layer="91"/>
<pinref part="DI" gate="A" pin="8"/>
<wire x1="66.04" y1="91.44" x2="66.04" y2="144.78" width="0.1524" layer="91"/>
<wire x1="66.04" y1="144.78" x2="81.28" y2="144.78" width="0.1524" layer="91"/>
</segment>
</net>
<net name="DI_3" class="0">
<segment>
<pinref part="DI" gate="A" pin="10"/>
<wire x1="81.28" y1="142.24" x2="63.5" y2="142.24" width="0.1524" layer="91"/>
<wire x1="63.5" y1="142.24" x2="63.5" y2="88.9" width="0.1524" layer="91"/>
<wire x1="63.5" y1="88.9" x2="162.56" y2="88.9" width="0.1524" layer="91"/>
<pinref part="-&gt;ECU" gate="A" pin="32"/>
<wire x1="162.56" y1="88.9" x2="162.56" y2="114.3" width="0.1524" layer="91"/>
<wire x1="162.56" y1="114.3" x2="152.4" y2="114.3" width="0.1524" layer="91"/>
</segment>
</net>
<net name="DI_4" class="0">
<segment>
<pinref part="-&gt;ECU" gate="A" pin="30"/>
<wire x1="152.4" y1="116.84" x2="165.1" y2="116.84" width="0.1524" layer="91"/>
<wire x1="165.1" y1="116.84" x2="165.1" y2="86.36" width="0.1524" layer="91"/>
<wire x1="165.1" y1="86.36" x2="60.96" y2="86.36" width="0.1524" layer="91"/>
<wire x1="60.96" y1="86.36" x2="60.96" y2="139.7" width="0.1524" layer="91"/>
<pinref part="DI" gate="A" pin="12"/>
<wire x1="60.96" y1="139.7" x2="81.28" y2="139.7" width="0.1524" layer="91"/>
</segment>
</net>
<net name="DI_5" class="0">
<segment>
<pinref part="DI" gate="A" pin="14"/>
<wire x1="81.28" y1="137.16" x2="58.42" y2="137.16" width="0.1524" layer="91"/>
<wire x1="58.42" y1="137.16" x2="58.42" y2="83.82" width="0.1524" layer="91"/>
<wire x1="58.42" y1="83.82" x2="167.64" y2="83.82" width="0.1524" layer="91"/>
<pinref part="-&gt;ECU" gate="A" pin="28"/>
<wire x1="167.64" y1="83.82" x2="167.64" y2="119.38" width="0.1524" layer="91"/>
<wire x1="167.64" y1="119.38" x2="152.4" y2="119.38" width="0.1524" layer="91"/>
</segment>
</net>
<net name="DI_6" class="0">
<segment>
<pinref part="-&gt;ECU" gate="A" pin="26"/>
<wire x1="152.4" y1="121.92" x2="170.18" y2="121.92" width="0.1524" layer="91"/>
<wire x1="170.18" y1="121.92" x2="170.18" y2="81.28" width="0.1524" layer="91"/>
<wire x1="170.18" y1="81.28" x2="55.88" y2="81.28" width="0.1524" layer="91"/>
<pinref part="DI" gate="A" pin="16"/>
<wire x1="55.88" y1="81.28" x2="55.88" y2="134.62" width="0.1524" layer="91"/>
<wire x1="55.88" y1="134.62" x2="81.28" y2="134.62" width="0.1524" layer="91"/>
</segment>
</net>
<net name="DI_8" class="0">
<segment>
<pinref part="-&gt;ECU" gate="A" pin="22"/>
<wire x1="152.4" y1="127" x2="175.26" y2="127" width="0.1524" layer="91"/>
<wire x1="175.26" y1="127" x2="175.26" y2="76.2" width="0.1524" layer="91"/>
<wire x1="175.26" y1="76.2" x2="50.8" y2="76.2" width="0.1524" layer="91"/>
<wire x1="50.8" y1="76.2" x2="50.8" y2="129.54" width="0.1524" layer="91"/>
<pinref part="DI" gate="A" pin="20"/>
<wire x1="50.8" y1="129.54" x2="81.28" y2="129.54" width="0.1524" layer="91"/>
</segment>
</net>
<net name="DI_9" class="0">
<segment>
<pinref part="-&gt;ECU" gate="A" pin="18"/>
<wire x1="152.4" y1="132.08" x2="180.34" y2="132.08" width="0.1524" layer="91"/>
<wire x1="180.34" y1="132.08" x2="180.34" y2="71.12" width="0.1524" layer="91"/>
<wire x1="180.34" y1="71.12" x2="45.72" y2="71.12" width="0.1524" layer="91"/>
<pinref part="DI" gate="A" pin="24"/>
<wire x1="45.72" y1="71.12" x2="45.72" y2="124.46" width="0.1524" layer="91"/>
<wire x1="45.72" y1="124.46" x2="81.28" y2="124.46" width="0.1524" layer="91"/>
</segment>
</net>
<net name="DI_10" class="0">
<segment>
<pinref part="-&gt;ECU" gate="A" pin="16"/>
<wire x1="152.4" y1="134.62" x2="182.88" y2="134.62" width="0.1524" layer="91"/>
<wire x1="182.88" y1="134.62" x2="182.88" y2="68.58" width="0.1524" layer="91"/>
<wire x1="182.88" y1="68.58" x2="43.18" y2="68.58" width="0.1524" layer="91"/>
<pinref part="DI" gate="A" pin="26"/>
<wire x1="43.18" y1="68.58" x2="43.18" y2="121.92" width="0.1524" layer="91"/>
<wire x1="43.18" y1="121.92" x2="81.28" y2="121.92" width="0.1524" layer="91"/>
</segment>
</net>
<net name="DI_11" class="0">
<segment>
<pinref part="DI" gate="A" pin="28"/>
<wire x1="81.28" y1="119.38" x2="40.64" y2="119.38" width="0.1524" layer="91"/>
<wire x1="40.64" y1="119.38" x2="40.64" y2="66.04" width="0.1524" layer="91"/>
<wire x1="40.64" y1="66.04" x2="185.42" y2="66.04" width="0.1524" layer="91"/>
<pinref part="-&gt;ECU" gate="A" pin="14"/>
<wire x1="185.42" y1="66.04" x2="185.42" y2="137.16" width="0.1524" layer="91"/>
<wire x1="185.42" y1="137.16" x2="152.4" y2="137.16" width="0.1524" layer="91"/>
</segment>
</net>
<net name="DI_12" class="0">
<segment>
<pinref part="-&gt;ECU" gate="A" pin="12"/>
<wire x1="152.4" y1="139.7" x2="187.96" y2="139.7" width="0.1524" layer="91"/>
<wire x1="187.96" y1="139.7" x2="187.96" y2="63.5" width="0.1524" layer="91"/>
<wire x1="187.96" y1="63.5" x2="38.1" y2="63.5" width="0.1524" layer="91"/>
<pinref part="DI" gate="A" pin="30"/>
<wire x1="38.1" y1="63.5" x2="38.1" y2="116.84" width="0.1524" layer="91"/>
<wire x1="38.1" y1="116.84" x2="81.28" y2="116.84" width="0.1524" layer="91"/>
</segment>
</net>
<net name="DI_13" class="0">
<segment>
<pinref part="DI" gate="A" pin="32"/>
<wire x1="81.28" y1="114.3" x2="35.56" y2="114.3" width="0.1524" layer="91"/>
<wire x1="35.56" y1="114.3" x2="35.56" y2="60.96" width="0.1524" layer="91"/>
<wire x1="35.56" y1="60.96" x2="190.5" y2="60.96" width="0.1524" layer="91"/>
<pinref part="-&gt;ECU" gate="A" pin="10"/>
<wire x1="190.5" y1="60.96" x2="190.5" y2="142.24" width="0.1524" layer="91"/>
<wire x1="190.5" y1="142.24" x2="152.4" y2="142.24" width="0.1524" layer="91"/>
</segment>
</net>
<net name="DI_14" class="0">
<segment>
<pinref part="-&gt;ECU" gate="A" pin="8"/>
<wire x1="152.4" y1="144.78" x2="193.04" y2="144.78" width="0.1524" layer="91"/>
<wire x1="193.04" y1="144.78" x2="193.04" y2="58.42" width="0.1524" layer="91"/>
<wire x1="193.04" y1="58.42" x2="33.02" y2="58.42" width="0.1524" layer="91"/>
<wire x1="33.02" y1="58.42" x2="33.02" y2="111.76" width="0.1524" layer="91"/>
<pinref part="DI" gate="A" pin="34"/>
<wire x1="33.02" y1="111.76" x2="81.28" y2="111.76" width="0.1524" layer="91"/>
</segment>
</net>
<net name="DI_15" class="0">
<segment>
<pinref part="DI" gate="A" pin="36"/>
<wire x1="81.28" y1="109.22" x2="30.48" y2="109.22" width="0.1524" layer="91"/>
<wire x1="30.48" y1="109.22" x2="30.48" y2="55.88" width="0.1524" layer="91"/>
<wire x1="30.48" y1="55.88" x2="195.58" y2="55.88" width="0.1524" layer="91"/>
<pinref part="-&gt;ECU" gate="A" pin="6"/>
<wire x1="195.58" y1="55.88" x2="195.58" y2="147.32" width="0.1524" layer="91"/>
<wire x1="195.58" y1="147.32" x2="152.4" y2="147.32" width="0.1524" layer="91"/>
</segment>
</net>
<net name="DI_16" class="0">
<segment>
<pinref part="-&gt;ECU" gate="A" pin="4"/>
<wire x1="152.4" y1="149.86" x2="198.12" y2="149.86" width="0.1524" layer="91"/>
<wire x1="198.12" y1="149.86" x2="198.12" y2="53.34" width="0.1524" layer="91"/>
<wire x1="198.12" y1="53.34" x2="27.94" y2="53.34" width="0.1524" layer="91"/>
<wire x1="27.94" y1="53.34" x2="27.94" y2="106.68" width="0.1524" layer="91"/>
<pinref part="DI" gate="A" pin="38"/>
<wire x1="27.94" y1="106.68" x2="81.28" y2="106.68" width="0.1524" layer="91"/>
</segment>
</net>
<net name="N$1" class="0">
<segment>
<pinref part="DO" gate="A" pin="39"/>
<wire x1="223.52" y1="104.14" x2="215.9" y2="104.14" width="0.1524" layer="91"/>
<wire x1="223.52" y1="160.02" x2="223.52" y2="104.14" width="0.1524" layer="91"/>
<wire x1="144.78" y1="160.02" x2="223.52" y2="160.02" width="0.1524" layer="91"/>
<label x="223.52" y="101.6" size="1.778" layer="95"/>
<pinref part="-&gt;ECU" gate="A" pin="1"/>
<wire x1="144.78" y1="160.02" x2="144.78" y2="152.4" width="0.1524" layer="91"/>
</segment>
</net>
<net name="DI_GND2" class="0">
<segment>
<pinref part="-&gt;ECU" gate="A" pin="20"/>
<wire x1="48.26" y1="127" x2="48.26" y2="73.66" width="0.1524" layer="91"/>
<wire x1="48.26" y1="73.66" x2="177.8" y2="73.66" width="0.1524" layer="91"/>
<wire x1="177.8" y1="73.66" x2="177.8" y2="129.54" width="0.1524" layer="91"/>
<wire x1="177.8" y1="129.54" x2="152.4" y2="129.54" width="0.1524" layer="91"/>
<pinref part="DI" gate="A" pin="22"/>
<wire x1="81.28" y1="127" x2="48.26" y2="127" width="0.1524" layer="91"/>
</segment>
</net>
<net name="DI_7" class="0">
<segment>
<pinref part="DI" gate="A" pin="18"/>
<wire x1="81.28" y1="132.08" x2="53.34" y2="132.08" width="0.1524" layer="91"/>
<wire x1="53.34" y1="78.74" x2="172.72" y2="78.74" width="0.1524" layer="91"/>
<pinref part="-&gt;ECU" gate="A" pin="24"/>
<wire x1="172.72" y1="78.74" x2="172.72" y2="124.46" width="0.1524" layer="91"/>
<wire x1="172.72" y1="124.46" x2="152.4" y2="124.46" width="0.1524" layer="91"/>
<wire x1="53.34" y1="132.08" x2="53.34" y2="78.74" width="0.1524" layer="91"/>
</segment>
</net>
<net name="N$4" class="0">
<segment>
<pinref part="DO" gate="A" pin="15"/>
<wire x1="254" y1="134.62" x2="215.9" y2="134.62" width="0.1524" layer="91"/>
<wire x1="254" y1="190.5" x2="254" y2="134.62" width="0.1524" layer="91"/>
<wire x1="114.3" y1="190.5" x2="254" y2="190.5" width="0.1524" layer="91"/>
<wire x1="114.3" y1="121.92" x2="114.3" y2="190.5" width="0.1524" layer="91"/>
<pinref part="-&gt;ECU" gate="A" pin="25"/>
<wire x1="144.78" y1="121.92" x2="114.3" y2="121.92" width="0.1524" layer="91"/>
</segment>
</net>
</nets>
</sheet>
</sheets>
</schematic>
</drawing>
<compatibility>
<note version="8.2" severity="warning">
Since Version 8.2, EAGLE supports online libraries. The ids
of those online libraries will not be understood (or retained)
with this version.
</note>
<note version="8.3" severity="warning">
Since Version 8.3, EAGLE supports URNs for individual library
assets (packages, symbols, and devices). The URNs of those assets
will not be understood (or retained) with this version.
</note>
<note version="8.3" severity="warning">
Since Version 8.3, EAGLE supports the association of 3D packages
with devices in libraries, schematics, and board files. Those 3D
packages will not be understood (or retained) with this version.
</note>
</compatibility>
</eagle>
