(footprint "PJ-102A" (version 20221018) (generator pcbnew)
  (layer "F.Cu")
  (fp_text reference "REF**" (at 0 0) (layer "F.SilkS")
      (effects (font (size 1.27 1.27) (thickness 0.15)))
    (tstamp efaafc9c-ca66-42d5-b4ac-8c58c8fe2927)
  )
  (fp_text value "" (at 0 0) (layer "F.Fab")
      (effects (font (size 1.27 1.27) (thickness 0.15)))
    (tstamp d9d45c53-1b06-46e1-9d1a-b2803e2f8dc1)
  )
  (fp_line (start -4.6 -4.4) (end 4.4 -4.4)
    (stroke (width 0.127) (type solid)) (layer "F.SilkS") (tstamp 1fec57b5-7fa9-4c6f-9ddc-d7c7956b1ca1))
  (fp_line (start -4.6 10.2) (end -4.6 -4.4)
    (stroke (width 0.127) (type solid)) (layer "F.SilkS") (tstamp 3a447d07-0278-4166-87b3-b06c99eccab6))
  (fp_line (start 4.4 -4.4) (end 4.4 10.2)
    (stroke (width 0.127) (type solid)) (layer "F.SilkS") (tstamp be03ea46-3858-402a-88bc-9267508989e5))
  (fp_line (start 4.4 10.2) (end -4.6 10.2)
    (stroke (width 0.127) (type solid)) (layer "F.SilkS") (tstamp 72a89d69-ccfd-41a5-a5f7-c1248622945b))
  (pad "RING" thru_hole circle (at 0.1 3.39 180) (size 4.8 4.8) (drill 3) (layers "*.Cu" "*.Mask")
    (solder_mask_margin 0.1016) (tstamp ed9041d7-75cd-46cd-85d9-88e00ba19181))
  (pad "RING_SW" thru_hole circle (at -4.6 6.29 180) (size 4.8 4.8) (drill 3) (layers "*.Cu" "*.Mask")
    (solder_mask_margin 0.1016) (tstamp 290b71f8-9f8f-453b-b8fe-427dc104ac58))
  (pad "TIP" thru_hole circle (at 0.1 9.29 180) (size 4.8 4.8) (drill 3) (layers "*.Cu" "*.Mask")
    (solder_mask_margin 0.1016) (tstamp 73fbbdc0-a055-4c90-bed7-1f794f9e7222))
)
