(kicad_sch (version 20230121) (generator eeschema)

  (uuid 3ae13534-bd1a-45eb-b33e-41366b66755c)

  (paper "User" 317.5 257.81)

  (lib_symbols
    (symbol "Reward_Pump_MasterBoard_AdaptaMaze_v0pt2-eagle-import:2.1MMJACKTHM" (in_bom yes) (on_board yes)
      (property "Reference" "" (at -2.54 5.08 0)
        (effects (font (size 1.27 1.0795)) (justify left bottom) hide)
      )
      (property "Value" "" (at 0 0 0)
        (effects (font (size 1.27 1.27)) hide)
      )
      (property "Footprint" "Reward_Pump_MasterBoard_AdaptaMaze_v0pt2:PJ-102A" (at 0 0 0)
        (effects (font (size 1.27 1.27)) hide)
      )
      (property "Datasheet" "" (at 0 0 0)
        (effects (font (size 1.27 1.27)) hide)
      )
      (property "ki_locked" "" (at 0 0 0)
        (effects (font (size 1.27 1.27)))
      )
      (symbol "2.1MMJACKTHM_1_0"
        (polyline
          (pts
            (xy -1.27 2.54)
            (xy 0 1.905)
          )
          (stroke (width 0.254) (type solid))
          (fill (type none))
        )
        (polyline
          (pts
            (xy 0 -1.27)
            (xy -1.27 -2.54)
          )
          (stroke (width 0.254) (type solid))
          (fill (type none))
        )
        (polyline
          (pts
            (xy 0 1.905)
            (xy 2.54 1.905)
          )
          (stroke (width 0.254) (type solid))
          (fill (type none))
        )
        (polyline
          (pts
            (xy 0 3.175)
            (xy -1.27 2.54)
          )
          (stroke (width 0.254) (type solid))
          (fill (type none))
        )
        (polyline
          (pts
            (xy 1.27 -2.54)
            (xy 0 -1.27)
          )
          (stroke (width 0.254) (type solid))
          (fill (type none))
        )
        (polyline
          (pts
            (xy 2.54 -2.54)
            (xy 1.27 -2.54)
          )
          (stroke (width 0.254) (type solid))
          (fill (type none))
        )
        (polyline
          (pts
            (xy 2.54 0)
            (xy 2.54 -1.27)
          )
          (stroke (width 0.254) (type solid))
          (fill (type none))
        )
        (polyline
          (pts
            (xy 2.54 1.905)
            (xy 2.54 3.175)
          )
          (stroke (width 0.254) (type solid))
          (fill (type none))
        )
        (polyline
          (pts
            (xy 2.54 3.175)
            (xy 0 3.175)
          )
          (stroke (width 0.254) (type solid))
          (fill (type none))
        )
        (pin bidirectional line (at 5.08 -2.54 180) (length 2.54)
          (name "RING" (effects (font (size 0 0))))
          (number "RING" (effects (font (size 0 0))))
        )
        (pin bidirectional line (at 5.08 0 180) (length 2.54)
          (name "RING_SW" (effects (font (size 0 0))))
          (number "RING_SW" (effects (font (size 0 0))))
        )
        (pin bidirectional line (at 5.08 2.54 180) (length 2.54)
          (name "TIP" (effects (font (size 0 0))))
          (number "TIP" (effects (font (size 0 0))))
        )
      )
    )
    (symbol "Reward_Pump_MasterBoard_AdaptaMaze_v0pt2-eagle-import:5745781-4" (in_bom yes) (on_board yes)
      (property "Reference" "J" (at -5.08 8.382 0)
        (effects (font (size 1.778 1.5113)) (justify left bottom))
      )
      (property "Value" "" (at -5.08 -10.16 0)
        (effects (font (size 1.778 1.5113)) (justify left bottom))
      )
      (property "Footprint" "Reward_Pump_MasterBoard_AdaptaMaze_v0pt2:TE_5745781-4" (at 0 0 0)
        (effects (font (size 1.27 1.27)) hide)
      )
      (property "Datasheet" "" (at 0 0 0)
        (effects (font (size 1.27 1.27)) hide)
      )
      (property "ki_locked" "" (at 0 0 0)
        (effects (font (size 1.27 1.27)))
      )
      (symbol "5745781-4_1_0"
        (polyline
          (pts
            (xy -5.08 -7.62)
            (xy -5.08 7.62)
          )
          (stroke (width 0.1524) (type solid))
          (fill (type none))
        )
        (polyline
          (pts
            (xy -5.08 7.62)
            (xy 5.08 7.62)
          )
          (stroke (width 0.1524) (type solid))
          (fill (type none))
        )
        (polyline
          (pts
            (xy 5.08 -7.62)
            (xy -5.08 -7.62)
          )
          (stroke (width 0.1524) (type solid))
          (fill (type none))
        )
        (polyline
          (pts
            (xy 5.08 7.62)
            (xy 5.08 -7.62)
          )
          (stroke (width 0.1524) (type solid))
          (fill (type none))
        )
        (pin passive line (at -10.16 5.08 0) (length 5.08)
          (name "1" (effects (font (size 1.27 1.27))))
          (number "1" (effects (font (size 1.27 1.27))))
        )
        (pin passive line (at -10.16 2.54 0) (length 5.08)
          (name "2" (effects (font (size 1.27 1.27))))
          (number "2" (effects (font (size 1.27 1.27))))
        )
        (pin passive line (at -10.16 0 0) (length 5.08)
          (name "3" (effects (font (size 1.27 1.27))))
          (number "3" (effects (font (size 1.27 1.27))))
        )
        (pin passive line (at -10.16 -2.54 0) (length 5.08)
          (name "4" (effects (font (size 1.27 1.27))))
          (number "4" (effects (font (size 1.27 1.27))))
        )
        (pin passive line (at -10.16 -5.08 0) (length 5.08)
          (name "5" (effects (font (size 1.27 1.27))))
          (number "5" (effects (font (size 1.27 1.27))))
        )
        (pin passive line (at 10.16 5.08 180) (length 5.08)
          (name "6" (effects (font (size 1.27 1.27))))
          (number "6" (effects (font (size 1.27 1.27))))
        )
        (pin passive line (at 10.16 2.54 180) (length 5.08)
          (name "7" (effects (font (size 1.27 1.27))))
          (number "7" (effects (font (size 1.27 1.27))))
        )
        (pin passive line (at 10.16 0 180) (length 5.08)
          (name "8" (effects (font (size 1.27 1.27))))
          (number "8" (effects (font (size 1.27 1.27))))
        )
        (pin passive line (at 10.16 -2.54 180) (length 5.08)
          (name "9" (effects (font (size 1.27 1.27))))
          (number "9" (effects (font (size 1.27 1.27))))
        )
      )
    )
    (symbol "Reward_Pump_MasterBoard_AdaptaMaze_v0pt2-eagle-import:691137710002" (in_bom yes) (on_board yes)
      (property "Reference" "J" (at -1.27 3.81 0)
        (effects (font (size 1.778 1.5113)) (justify left bottom))
      )
      (property "Value" "" (at -1.27 -3.81 0)
        (effects (font (size 1.778 1.5113)) (justify left bottom))
      )
      (property "Footprint" "Reward_Pump_MasterBoard_AdaptaMaze_v0pt2:691137710002" (at 0 0 0)
        (effects (font (size 1.27 1.27)) hide)
      )
      (property "Datasheet" "" (at 0 0 0)
        (effects (font (size 1.27 1.27)) hide)
      )
      (property "ki_locked" "" (at 0 0 0)
        (effects (font (size 1.27 1.27)))
      )
      (symbol "691137710002_1_0"
        (arc (start -1.651 0.889) (mid -2.5362 0) (end -1.651 -0.889)
          (stroke (width 0.254) (type solid))
          (fill (type none))
        )
        (arc (start -1.651 3.429) (mid -2.5362 2.54) (end -1.651 1.651)
          (stroke (width 0.254) (type solid))
          (fill (type none))
        )
        (pin passive line (at -5.08 2.54 0) (length 2.54)
          (name "1" (effects (font (size 0 0))))
          (number "1" (effects (font (size 1.27 1.27))))
        )
        (pin passive line (at -5.08 0 0) (length 2.54)
          (name "2" (effects (font (size 0 0))))
          (number "2" (effects (font (size 1.27 1.27))))
        )
      )
    )
    (symbol "Reward_Pump_MasterBoard_AdaptaMaze_v0pt2-eagle-import:FRAME_A_L" (in_bom yes) (on_board yes)
      (property "Reference" "#FRAME" (at 0 0 0)
        (effects (font (size 1.27 1.27)) hide)
      )
      (property "Value" "" (at 0 0 0)
        (effects (font (size 1.27 1.27)) hide)
      )
      (property "Footprint" "" (at 0 0 0)
        (effects (font (size 1.27 1.27)) hide)
      )
      (property "Datasheet" "" (at 0 0 0)
        (effects (font (size 1.27 1.27)) hide)
      )
      (property "ki_locked" "" (at 0 0 0)
        (effects (font (size 1.27 1.27)))
      )
      (symbol "FRAME_A_L_1_0"
        (polyline
          (pts
            (xy 0 43.18)
            (xy 3.81 43.18)
          )
          (stroke (width 0) (type default))
          (fill (type none))
        )
        (polyline
          (pts
            (xy 0 86.36)
            (xy 3.81 86.36)
          )
          (stroke (width 0) (type default))
          (fill (type none))
        )
        (polyline
          (pts
            (xy 0 129.54)
            (xy 3.81 129.54)
          )
          (stroke (width 0) (type default))
          (fill (type none))
        )
        (polyline
          (pts
            (xy 0 172.72)
            (xy 3.81 172.72)
          )
          (stroke (width 0) (type default))
          (fill (type none))
        )
        (polyline
          (pts
            (xy 3.81 3.81)
            (xy 3.81 212.09)
          )
          (stroke (width 0) (type default))
          (fill (type none))
        )
        (polyline
          (pts
            (xy 46.5667 0)
            (xy 46.5667 3.81)
          )
          (stroke (width 0) (type default))
          (fill (type none))
        )
        (polyline
          (pts
            (xy 93.1333 0)
            (xy 93.1333 3.81)
          )
          (stroke (width 0) (type default))
          (fill (type none))
        )
        (polyline
          (pts
            (xy 139.7 0)
            (xy 139.7 3.81)
          )
          (stroke (width 0) (type default))
          (fill (type none))
        )
        (polyline
          (pts
            (xy 186.2667 0)
            (xy 186.2667 3.81)
          )
          (stroke (width 0) (type default))
          (fill (type none))
        )
        (polyline
          (pts
            (xy 232.8333 0)
            (xy 232.8333 3.81)
          )
          (stroke (width 0) (type default))
          (fill (type none))
        )
        (polyline
          (pts
            (xy 275.59 3.81)
            (xy 275.59 212.09)
          )
          (stroke (width 0) (type default))
          (fill (type none))
        )
        (polyline
          (pts
            (xy 275.59 43.18)
            (xy 279.4 43.18)
          )
          (stroke (width 0) (type default))
          (fill (type none))
        )
        (polyline
          (pts
            (xy 275.59 86.36)
            (xy 279.4 86.36)
          )
          (stroke (width 0) (type default))
          (fill (type none))
        )
        (polyline
          (pts
            (xy 275.59 129.54)
            (xy 279.4 129.54)
          )
          (stroke (width 0) (type default))
          (fill (type none))
        )
        (polyline
          (pts
            (xy 275.59 172.72)
            (xy 279.4 172.72)
          )
          (stroke (width 0) (type default))
          (fill (type none))
        )
        (polyline
          (pts
            (xy 275.59 212.09)
            (xy 3.81 212.09)
          )
          (stroke (width 0) (type default))
          (fill (type none))
        )
        (polyline
          (pts
            (xy 0 0)
            (xy 279.4 0)
            (xy 279.4 215.9)
            (xy 0 215.9)
            (xy 0 0)
          )
          (stroke (width 0) (type default))
          (fill (type none))
        )
        (text "1" (at 23.2833 213.995 0)
          (effects (font (size 2.54 2.286)))
        )
        (text "2" (at 69.85 213.995 0)
          (effects (font (size 2.54 2.286)))
        )
        (text "3" (at 116.4167 213.995 0)
          (effects (font (size 2.54 2.286)))
        )
        (text "4" (at 162.9833 213.995 0)
          (effects (font (size 2.54 2.286)))
        )
        (text "5" (at 209.55 213.995 0)
          (effects (font (size 2.54 2.286)))
        )
        (text "6" (at 256.1167 213.995 0)
          (effects (font (size 2.54 2.286)))
        )
        (text "A" (at 1.905 194.31 0)
          (effects (font (size 2.54 2.286)))
        )
        (text "A" (at 277.495 194.31 0)
          (effects (font (size 2.54 2.286)))
        )
        (text "B" (at 1.905 151.13 0)
          (effects (font (size 2.54 2.286)))
        )
        (text "B" (at 277.495 151.13 0)
          (effects (font (size 2.54 2.286)))
        )
        (text "C" (at 1.905 107.95 0)
          (effects (font (size 2.54 2.286)))
        )
        (text "C" (at 277.495 107.95 0)
          (effects (font (size 2.54 2.286)))
        )
        (text "D" (at 1.905 64.77 0)
          (effects (font (size 2.54 2.286)))
        )
        (text "D" (at 277.495 64.77 0)
          (effects (font (size 2.54 2.286)))
        )
        (text "E" (at 1.905 21.59 0)
          (effects (font (size 2.54 2.286)))
        )
        (text "E" (at 277.495 21.59 0)
          (effects (font (size 2.54 2.286)))
        )
      )
      (symbol "FRAME_A_L_2_0"
        (polyline
          (pts
            (xy 0 0)
            (xy 0 5.08)
          )
          (stroke (width 0.1016) (type solid))
          (fill (type none))
        )
        (polyline
          (pts
            (xy 0 0)
            (xy 71.12 0)
          )
          (stroke (width 0.1016) (type solid))
          (fill (type none))
        )
        (polyline
          (pts
            (xy 0 5.08)
            (xy 0 15.24)
          )
          (stroke (width 0.1016) (type solid))
          (fill (type none))
        )
        (polyline
          (pts
            (xy 0 5.08)
            (xy 71.12 5.08)
          )
          (stroke (width 0.1016) (type solid))
          (fill (type none))
        )
        (polyline
          (pts
            (xy 0 15.24)
            (xy 0 22.86)
          )
          (stroke (width 0.1016) (type solid))
          (fill (type none))
        )
        (polyline
          (pts
            (xy 0 22.86)
            (xy 0 35.56)
          )
          (stroke (width 0.1016) (type solid))
          (fill (type none))
        )
        (polyline
          (pts
            (xy 0 22.86)
            (xy 101.6 22.86)
          )
          (stroke (width 0.1016) (type solid))
          (fill (type none))
        )
        (polyline
          (pts
            (xy 71.12 0)
            (xy 101.6 0)
          )
          (stroke (width 0.1016) (type solid))
          (fill (type none))
        )
        (polyline
          (pts
            (xy 71.12 5.08)
            (xy 71.12 0)
          )
          (stroke (width 0.1016) (type solid))
          (fill (type none))
        )
        (polyline
          (pts
            (xy 71.12 5.08)
            (xy 87.63 5.08)
          )
          (stroke (width 0.1016) (type solid))
          (fill (type none))
        )
        (polyline
          (pts
            (xy 87.63 5.08)
            (xy 101.6 5.08)
          )
          (stroke (width 0.1016) (type solid))
          (fill (type none))
        )
        (polyline
          (pts
            (xy 87.63 15.24)
            (xy 0 15.24)
          )
          (stroke (width 0.1016) (type solid))
          (fill (type none))
        )
        (polyline
          (pts
            (xy 87.63 15.24)
            (xy 87.63 5.08)
          )
          (stroke (width 0.1016) (type solid))
          (fill (type none))
        )
        (polyline
          (pts
            (xy 101.6 5.08)
            (xy 101.6 0)
          )
          (stroke (width 0.1016) (type solid))
          (fill (type none))
        )
        (polyline
          (pts
            (xy 101.6 15.24)
            (xy 87.63 15.24)
          )
          (stroke (width 0.1016) (type solid))
          (fill (type none))
        )
        (polyline
          (pts
            (xy 101.6 15.24)
            (xy 101.6 5.08)
          )
          (stroke (width 0.1016) (type solid))
          (fill (type none))
        )
        (polyline
          (pts
            (xy 101.6 22.86)
            (xy 101.6 15.24)
          )
          (stroke (width 0.1016) (type solid))
          (fill (type none))
        )
        (polyline
          (pts
            (xy 101.6 35.56)
            (xy 0 35.56)
          )
          (stroke (width 0.1016) (type solid))
          (fill (type none))
        )
        (polyline
          (pts
            (xy 101.6 35.56)
            (xy 101.6 22.86)
          )
          (stroke (width 0.1016) (type solid))
          (fill (type none))
        )
        (text "${#}/${##}" (at 86.36 1.27 0)
          (effects (font (size 2.54 2.159)) (justify left bottom))
        )
        (text "${CURRENT_DATE}" (at 12.7 1.27 0)
          (effects (font (size 2.54 2.159)) (justify left bottom))
        )
        (text "${PROJECTNAME}" (at 17.78 19.05 0)
          (effects (font (size 2.54 2.159)) (justify left bottom))
        )
        (text "Date:" (at 1.27 1.27 0)
          (effects (font (size 2.54 2.159)) (justify left bottom))
        )
        (text "Document Number:" (at 1.27 11.43 0)
          (effects (font (size 2.54 2.159)) (justify left bottom))
        )
        (text "REV:" (at 88.9 11.43 0)
          (effects (font (size 2.54 2.159)) (justify left bottom))
        )
        (text "Sheet:" (at 72.39 1.27 0)
          (effects (font (size 2.54 2.159)) (justify left bottom))
        )
        (text "TITLE:" (at 1.27 19.05 0)
          (effects (font (size 2.54 2.159)) (justify left bottom))
        )
      )
    )
    (symbol "Reward_Pump_MasterBoard_AdaptaMaze_v0pt2-eagle-import:PINHD-2X20" (in_bom yes) (on_board yes)
      (property "Reference" "JP" (at -6.35 26.035 0)
        (effects (font (size 1.778 1.5113)) (justify left bottom))
      )
      (property "Value" "" (at -6.35 -30.48 0)
        (effects (font (size 1.778 1.5113)) (justify left bottom))
      )
      (property "Footprint" "Reward_Pump_MasterBoard_AdaptaMaze_v0pt2:2X20" (at 0 0 0)
        (effects (font (size 1.27 1.27)) hide)
      )
      (property "Datasheet" "" (at 0 0 0)
        (effects (font (size 1.27 1.27)) hide)
      )
      (property "ki_locked" "" (at 0 0 0)
        (effects (font (size 1.27 1.27)))
      )
      (symbol "PINHD-2X20_1_0"
        (polyline
          (pts
            (xy -6.35 -27.94)
            (xy 8.89 -27.94)
          )
          (stroke (width 0.4064) (type solid))
          (fill (type none))
        )
        (polyline
          (pts
            (xy -6.35 25.4)
            (xy -6.35 -27.94)
          )
          (stroke (width 0.4064) (type solid))
          (fill (type none))
        )
        (polyline
          (pts
            (xy 8.89 -27.94)
            (xy 8.89 25.4)
          )
          (stroke (width 0.4064) (type solid))
          (fill (type none))
        )
        (polyline
          (pts
            (xy 8.89 25.4)
            (xy -6.35 25.4)
          )
          (stroke (width 0.4064) (type solid))
          (fill (type none))
        )
        (pin passive inverted (at -2.54 22.86 0) (length 2.54)
          (name "1" (effects (font (size 0 0))))
          (number "1" (effects (font (size 1.27 1.27))))
        )
        (pin passive inverted (at 5.08 12.7 180) (length 2.54)
          (name "10" (effects (font (size 0 0))))
          (number "10" (effects (font (size 1.27 1.27))))
        )
        (pin passive inverted (at -2.54 10.16 0) (length 2.54)
          (name "11" (effects (font (size 0 0))))
          (number "11" (effects (font (size 1.27 1.27))))
        )
        (pin passive inverted (at 5.08 10.16 180) (length 2.54)
          (name "12" (effects (font (size 0 0))))
          (number "12" (effects (font (size 1.27 1.27))))
        )
        (pin passive inverted (at -2.54 7.62 0) (length 2.54)
          (name "13" (effects (font (size 0 0))))
          (number "13" (effects (font (size 1.27 1.27))))
        )
        (pin passive inverted (at 5.08 7.62 180) (length 2.54)
          (name "14" (effects (font (size 0 0))))
          (number "14" (effects (font (size 1.27 1.27))))
        )
        (pin passive inverted (at -2.54 5.08 0) (length 2.54)
          (name "15" (effects (font (size 0 0))))
          (number "15" (effects (font (size 1.27 1.27))))
        )
        (pin passive inverted (at 5.08 5.08 180) (length 2.54)
          (name "16" (effects (font (size 0 0))))
          (number "16" (effects (font (size 1.27 1.27))))
        )
        (pin passive inverted (at -2.54 2.54 0) (length 2.54)
          (name "17" (effects (font (size 0 0))))
          (number "17" (effects (font (size 1.27 1.27))))
        )
        (pin passive inverted (at 5.08 2.54 180) (length 2.54)
          (name "18" (effects (font (size 0 0))))
          (number "18" (effects (font (size 1.27 1.27))))
        )
        (pin passive inverted (at -2.54 0 0) (length 2.54)
          (name "19" (effects (font (size 0 0))))
          (number "19" (effects (font (size 1.27 1.27))))
        )
        (pin passive inverted (at 5.08 22.86 180) (length 2.54)
          (name "2" (effects (font (size 0 0))))
          (number "2" (effects (font (size 1.27 1.27))))
        )
        (pin passive inverted (at 5.08 0 180) (length 2.54)
          (name "20" (effects (font (size 0 0))))
          (number "20" (effects (font (size 1.27 1.27))))
        )
        (pin passive inverted (at -2.54 -2.54 0) (length 2.54)
          (name "21" (effects (font (size 0 0))))
          (number "21" (effects (font (size 1.27 1.27))))
        )
        (pin passive inverted (at 5.08 -2.54 180) (length 2.54)
          (name "22" (effects (font (size 0 0))))
          (number "22" (effects (font (size 1.27 1.27))))
        )
        (pin passive inverted (at -2.54 -5.08 0) (length 2.54)
          (name "23" (effects (font (size 0 0))))
          (number "23" (effects (font (size 1.27 1.27))))
        )
        (pin passive inverted (at 5.08 -5.08 180) (length 2.54)
          (name "24" (effects (font (size 0 0))))
          (number "24" (effects (font (size 1.27 1.27))))
        )
        (pin passive inverted (at -2.54 -7.62 0) (length 2.54)
          (name "25" (effects (font (size 0 0))))
          (number "25" (effects (font (size 1.27 1.27))))
        )
        (pin passive inverted (at 5.08 -7.62 180) (length 2.54)
          (name "26" (effects (font (size 0 0))))
          (number "26" (effects (font (size 1.27 1.27))))
        )
        (pin passive inverted (at -2.54 -10.16 0) (length 2.54)
          (name "27" (effects (font (size 0 0))))
          (number "27" (effects (font (size 1.27 1.27))))
        )
        (pin passive inverted (at 5.08 -10.16 180) (length 2.54)
          (name "28" (effects (font (size 0 0))))
          (number "28" (effects (font (size 1.27 1.27))))
        )
        (pin passive inverted (at -2.54 -12.7 0) (length 2.54)
          (name "29" (effects (font (size 0 0))))
          (number "29" (effects (font (size 1.27 1.27))))
        )
        (pin passive inverted (at -2.54 20.32 0) (length 2.54)
          (name "3" (effects (font (size 0 0))))
          (number "3" (effects (font (size 1.27 1.27))))
        )
        (pin passive inverted (at 5.08 -12.7 180) (length 2.54)
          (name "30" (effects (font (size 0 0))))
          (number "30" (effects (font (size 1.27 1.27))))
        )
        (pin passive inverted (at -2.54 -15.24 0) (length 2.54)
          (name "31" (effects (font (size 0 0))))
          (number "31" (effects (font (size 1.27 1.27))))
        )
        (pin passive inverted (at 5.08 -15.24 180) (length 2.54)
          (name "32" (effects (font (size 0 0))))
          (number "32" (effects (font (size 1.27 1.27))))
        )
        (pin passive inverted (at -2.54 -17.78 0) (length 2.54)
          (name "33" (effects (font (size 0 0))))
          (number "33" (effects (font (size 1.27 1.27))))
        )
        (pin passive inverted (at 5.08 -17.78 180) (length 2.54)
          (name "34" (effects (font (size 0 0))))
          (number "34" (effects (font (size 1.27 1.27))))
        )
        (pin passive inverted (at -2.54 -20.32 0) (length 2.54)
          (name "35" (effects (font (size 0 0))))
          (number "35" (effects (font (size 1.27 1.27))))
        )
        (pin passive inverted (at 5.08 -20.32 180) (length 2.54)
          (name "36" (effects (font (size 0 0))))
          (number "36" (effects (font (size 1.27 1.27))))
        )
        (pin passive inverted (at -2.54 -22.86 0) (length 2.54)
          (name "37" (effects (font (size 0 0))))
          (number "37" (effects (font (size 1.27 1.27))))
        )
        (pin passive inverted (at 5.08 -22.86 180) (length 2.54)
          (name "38" (effects (font (size 0 0))))
          (number "38" (effects (font (size 1.27 1.27))))
        )
        (pin passive inverted (at -2.54 -25.4 0) (length 2.54)
          (name "39" (effects (font (size 0 0))))
          (number "39" (effects (font (size 1.27 1.27))))
        )
        (pin passive inverted (at 5.08 20.32 180) (length 2.54)
          (name "4" (effects (font (size 0 0))))
          (number "4" (effects (font (size 1.27 1.27))))
        )
        (pin passive inverted (at 5.08 -25.4 180) (length 2.54)
          (name "40" (effects (font (size 0 0))))
          (number "40" (effects (font (size 1.27 1.27))))
        )
        (pin passive inverted (at -2.54 17.78 0) (length 2.54)
          (name "5" (effects (font (size 0 0))))
          (number "5" (effects (font (size 1.27 1.27))))
        )
        (pin passive inverted (at 5.08 17.78 180) (length 2.54)
          (name "6" (effects (font (size 0 0))))
          (number "6" (effects (font (size 1.27 1.27))))
        )
        (pin passive inverted (at -2.54 15.24 0) (length 2.54)
          (name "7" (effects (font (size 0 0))))
          (number "7" (effects (font (size 1.27 1.27))))
        )
        (pin passive inverted (at 5.08 15.24 180) (length 2.54)
          (name "8" (effects (font (size 0 0))))
          (number "8" (effects (font (size 1.27 1.27))))
        )
        (pin passive inverted (at -2.54 12.7 0) (length 2.54)
          (name "9" (effects (font (size 0 0))))
          (number "9" (effects (font (size 1.27 1.27))))
        )
      )
    )
  )

  (junction (at 193.04 66.04) (diameter 0) (color 0 0 0 0)
    (uuid 0b20a5a1-e6aa-4c7f-855d-725be24dfdde)
  )
  (junction (at 187.96 63.5) (diameter 0) (color 0 0 0 0)
    (uuid 1313ad67-40e3-4640-935f-159e8fd4ad50)
  )
  (junction (at 182.88 66.04) (diameter 0) (color 0 0 0 0)
    (uuid 3846d369-1a8e-4246-9455-6059e0a5ec83)
  )
  (junction (at 175.26 63.5) (diameter 0) (color 0 0 0 0)
    (uuid 4fe149fd-542f-4568-ab1b-835c61df2a5c)
  )
  (junction (at 180.34 66.04) (diameter 0) (color 0 0 0 0)
    (uuid 8882b951-2bcb-470c-a8a6-cc62ba492c49)
  )
  (junction (at 180.34 63.5) (diameter 0) (color 0 0 0 0)
    (uuid 9b90caaf-f1e1-48c6-9bdd-ab108f867476)
  )

  (wire (pts (xy 205.74 86.36) (xy 205.74 66.04))
    (stroke (width 0.1524) (type solid))
    (uuid 02ff17fe-12c5-46a3-99dd-80c0eaac7a47)
  )
  (wire (pts (xy 60.96 190.5) (xy 73.66 190.5))
    (stroke (width 0.1524) (type solid))
    (uuid 038b391e-b86a-4cb8-985f-ceb2753e5083)
  )
  (wire (pts (xy 71.12 139.7) (xy 83.82 139.7))
    (stroke (width 0.1524) (type solid))
    (uuid 08f14d4d-82ad-4c04-a702-6689d1530151)
  )
  (wire (pts (xy 187.96 63.5) (xy 180.34 63.5))
    (stroke (width 0.1524) (type solid))
    (uuid 0a22dfa0-3d9e-44e5-9111-11631926034f)
  )
  (wire (pts (xy 71.12 93.98) (xy 83.82 93.98))
    (stroke (width 0.1524) (type solid))
    (uuid 13ef36e3-4361-4a09-b95c-cb7a73ad3fd8)
  )
  (wire (pts (xy 175.26 86.36) (xy 175.26 63.5))
    (stroke (width 0.1524) (type solid))
    (uuid 1807c7cc-7c7b-4a70-99e2-1ac1a43b9308)
  )
  (wire (pts (xy 246.38 119.38) (xy 226.06 119.38))
    (stroke (width 0.1524) (type solid))
    (uuid 1e508e47-a517-4edf-9a75-5581c9118826)
  )
  (wire (pts (xy 246.38 106.68) (xy 226.06 106.68))
    (stroke (width 0.1524) (type solid))
    (uuid 28e0c1ad-77a2-4a8b-a5fe-7a5ba2b36b00)
  )
  (wire (pts (xy 83.82 48.26) (xy 68.58 48.26))
    (stroke (width 0.1524) (type solid))
    (uuid 32130f5f-c6f7-4037-ae1c-2bd8b6e90630)
  )
  (wire (pts (xy 27.94 162.56) (xy 40.64 162.56))
    (stroke (width 0.1524) (type solid))
    (uuid 355011a8-df3a-4e53-bf87-421b9d3175ef)
  )
  (wire (pts (xy 233.68 109.22) (xy 246.38 109.22))
    (stroke (width 0.1524) (type solid))
    (uuid 36f50faa-d19c-498f-a5b6-e92cfe463da2)
  )
  (wire (pts (xy 60.96 144.78) (xy 73.66 144.78))
    (stroke (width 0.1524) (type solid))
    (uuid 3931c32b-5979-421b-90c6-4f6dea02cef9)
  )
  (wire (pts (xy 104.14 121.92) (xy 116.84 121.92))
    (stroke (width 0.1524) (type solid))
    (uuid 393af9f8-ae36-49f0-9644-cba5666c0522)
  )
  (wire (pts (xy 27.94 93.98) (xy 40.64 93.98))
    (stroke (width 0.1524) (type solid))
    (uuid 3bf377de-7350-471c-99bd-a75262cd5ffc)
  )
  (wire (pts (xy 246.38 99.06) (xy 226.06 99.06))
    (stroke (width 0.1524) (type solid))
    (uuid 3c68fdce-d10f-49d7-b103-f466426a9a69)
  )
  (wire (pts (xy 182.88 55.88) (xy 182.88 66.04))
    (stroke (width 0.1524) (type solid))
    (uuid 3e4e90c4-6265-440d-a2ee-9ec6d3873943)
  )
  (wire (pts (xy 246.38 101.6) (xy 226.06 101.6))
    (stroke (width 0.1524) (type solid))
    (uuid 425f5c06-2e6b-4de4-818f-5b08d84e0f87)
  )
  (wire (pts (xy 104.14 76.2) (xy 116.84 76.2))
    (stroke (width 0.1524) (type solid))
    (uuid 4602b8cf-bb02-4c71-9663-f5f072dec934)
  )
  (wire (pts (xy 246.38 124.46) (xy 226.06 124.46))
    (stroke (width 0.1524) (type solid))
    (uuid 4c491914-17f7-4783-ad87-9ddffdaabb36)
  )
  (wire (pts (xy 27.94 71.12) (xy 40.64 71.12))
    (stroke (width 0.1524) (type solid))
    (uuid 53e07f2d-d4c7-4ef8-b6a5-1eba5c465e69)
  )
  (wire (pts (xy 27.94 139.7) (xy 40.64 139.7))
    (stroke (width 0.1524) (type solid))
    (uuid 540804ea-3223-4ce0-8cce-59fe22ea95e8)
  )
  (wire (pts (xy 246.38 96.52) (xy 226.06 96.52))
    (stroke (width 0.1524) (type solid))
    (uuid 5537519e-44c1-43b0-8726-ed2e94a202f9)
  )
  (wire (pts (xy 104.14 99.06) (xy 116.84 99.06))
    (stroke (width 0.1524) (type solid))
    (uuid 59e19b66-8949-43de-9bdd-b21e01c3d6b7)
  )
  (wire (pts (xy 167.64 66.04) (xy 167.64 86.36))
    (stroke (width 0.1524) (type solid))
    (uuid 6387cc75-882b-4c26-b90b-69f72a22c981)
  )
  (wire (pts (xy 71.12 185.42) (xy 83.82 185.42))
    (stroke (width 0.1524) (type solid))
    (uuid 671beb66-3c09-45d7-8c97-43feefb11d10)
  )
  (wire (pts (xy 60.96 76.2) (xy 73.66 76.2))
    (stroke (width 0.1524) (type solid))
    (uuid 7166e732-9cfb-47c7-a8de-8058f59bd5c1)
  )
  (wire (pts (xy 27.94 116.84) (xy 40.64 116.84))
    (stroke (width 0.1524) (type solid))
    (uuid 760be0dd-95a6-42cf-99ff-19527aa765f1)
  )
  (wire (pts (xy 246.38 114.3) (xy 226.06 114.3))
    (stroke (width 0.1524) (type solid))
    (uuid 784d6546-e31c-47c1-a4df-f8f1abc4574d)
  )
  (wire (pts (xy 200.66 86.36) (xy 200.66 63.5))
    (stroke (width 0.1524) (type solid))
    (uuid 78c63d20-2717-47d8-8490-81f80705329a)
  )
  (wire (pts (xy 187.96 86.36) (xy 187.96 63.5))
    (stroke (width 0.1524) (type solid))
    (uuid 80be7f6b-554d-4c44-b436-f1baff32bf6c)
  )
  (wire (pts (xy 180.34 55.88) (xy 180.34 63.5))
    (stroke (width 0.1524) (type solid))
    (uuid 867515d9-6f5a-4555-8271-d0d361e8faf7)
  )
  (wire (pts (xy 246.38 129.54) (xy 226.06 129.54))
    (stroke (width 0.1524) (type solid))
    (uuid 871d0c68-e873-4a04-9c87-7a530ae99717)
  )
  (wire (pts (xy 246.38 116.84) (xy 226.06 116.84))
    (stroke (width 0.1524) (type solid))
    (uuid 8fac444c-92f5-4bce-abc0-e6749b4b8cbd)
  )
  (wire (pts (xy 60.96 121.92) (xy 73.66 121.92))
    (stroke (width 0.1524) (type solid))
    (uuid 8fdc074d-76c0-4534-982f-061fc4494812)
  )
  (wire (pts (xy 246.38 111.76) (xy 226.06 111.76))
    (stroke (width 0.1524) (type solid))
    (uuid 90cc9ae5-6dc6-4a17-ba73-1c6222e8f789)
  )
  (wire (pts (xy 246.38 88.9) (xy 226.06 88.9))
    (stroke (width 0.1524) (type solid))
    (uuid 9102a854-a419-4045-8a73-84cb53fc2c1e)
  )
  (wire (pts (xy 246.38 121.92) (xy 226.06 121.92))
    (stroke (width 0.1524) (type solid))
    (uuid 97589c8f-865f-4d12-b85b-6c8133767635)
  )
  (wire (pts (xy 60.96 99.06) (xy 73.66 99.06))
    (stroke (width 0.1524) (type solid))
    (uuid 9ebd5ae5-6625-4a5a-8104-3f25b9807465)
  )
  (wire (pts (xy 180.34 66.04) (xy 167.64 66.04))
    (stroke (width 0.1524) (type solid))
    (uuid a40e44c1-4bf8-421e-93b5-5b87c7874930)
  )
  (wire (pts (xy 60.96 167.64) (xy 73.66 167.64))
    (stroke (width 0.1524) (type solid))
    (uuid a809eeda-7498-48df-8c1d-ba56c6d2e8ed)
  )
  (wire (pts (xy 71.12 162.56) (xy 83.82 162.56))
    (stroke (width 0.1524) (type solid))
    (uuid ad248b65-1137-47e7-bf96-5645e060ffc0)
  )
  (wire (pts (xy 104.14 53.34) (xy 116.84 53.34))
    (stroke (width 0.1524) (type solid))
    (uuid af8032b3-69c1-4368-8787-c7750dd042f7)
  )
  (wire (pts (xy 175.26 63.5) (xy 162.56 63.5))
    (stroke (width 0.1524) (type solid))
    (uuid b05ad4c7-560d-4158-a966-a2e915d56914)
  )
  (wire (pts (xy 193.04 66.04) (xy 193.04 86.36))
    (stroke (width 0.1524) (type solid))
    (uuid b5ea4a07-acdb-40e8-9d8b-13add8de3c6e)
  )
  (wire (pts (xy 71.12 116.84) (xy 83.82 116.84))
    (stroke (width 0.1524) (type solid))
    (uuid b63a6a55-7bc3-4b9e-8a7b-6a4285618e30)
  )
  (wire (pts (xy 246.38 127) (xy 226.06 127))
    (stroke (width 0.1524) (type solid))
    (uuid bafd9577-ca9b-4aee-8cdc-294f038da5b3)
  )
  (wire (pts (xy 180.34 63.5) (xy 175.26 63.5))
    (stroke (width 0.1524) (type solid))
    (uuid bbda241e-4531-49f3-8e48-7504082f304b)
  )
  (wire (pts (xy 182.88 66.04) (xy 180.34 66.04))
    (stroke (width 0.1524) (type solid))
    (uuid bd7ac8a1-6b17-4163-9da3-5bd458be7fb7)
  )
  (wire (pts (xy 182.88 66.04) (xy 193.04 66.04))
    (stroke (width 0.1524) (type solid))
    (uuid bf2995f2-7f8b-4d8d-9b53-cff7d198f342)
  )
  (wire (pts (xy 60.96 213.36) (xy 73.66 213.36))
    (stroke (width 0.1524) (type solid))
    (uuid bf842159-380f-44f3-a01c-576230301ebf)
  )
  (wire (pts (xy 246.38 104.14) (xy 226.06 104.14))
    (stroke (width 0.1524) (type solid))
    (uuid c0d0a6b2-7fa8-432d-bb4f-8d27a4a73151)
  )
  (wire (pts (xy 162.56 63.5) (xy 162.56 86.36))
    (stroke (width 0.1524) (type solid))
    (uuid c28dadb0-1cc2-46ed-92af-02d6ac063d21)
  )
  (wire (pts (xy 27.94 48.26) (xy 40.64 48.26))
    (stroke (width 0.1524) (type solid))
    (uuid c2fd9789-cf16-4a53-aa3e-8306b721ec0a)
  )
  (wire (pts (xy 104.14 144.78) (xy 116.84 144.78))
    (stroke (width 0.1524) (type solid))
    (uuid ccd35a72-724b-4836-b07a-b71d49038cfe)
  )
  (wire (pts (xy 104.14 213.36) (xy 116.84 213.36))
    (stroke (width 0.1524) (type solid))
    (uuid ceb316fb-6000-4bef-aebe-f11d7dc9b251)
  )
  (wire (pts (xy 71.12 208.28) (xy 83.82 208.28))
    (stroke (width 0.1524) (type solid))
    (uuid d2702426-b38c-4c9f-86e5-a1d6962a2283)
  )
  (wire (pts (xy 200.66 63.5) (xy 187.96 63.5))
    (stroke (width 0.1524) (type solid))
    (uuid d5095541-1679-4dbc-84eb-5ba1ecd3d616)
  )
  (wire (pts (xy 71.12 71.12) (xy 83.82 71.12))
    (stroke (width 0.1524) (type solid))
    (uuid d6a97b80-3c04-43e1-bf33-dbc9e5ee548d)
  )
  (wire (pts (xy 60.96 53.34) (xy 73.66 53.34))
    (stroke (width 0.1524) (type solid))
    (uuid d74711e2-c8b1-46be-b44f-67c9e6c0a31e)
  )
  (wire (pts (xy 104.14 190.5) (xy 116.84 190.5))
    (stroke (width 0.1524) (type solid))
    (uuid dc2c7d3f-41ab-4acd-9432-735fdf7bd270)
  )
  (wire (pts (xy 233.68 132.08) (xy 246.38 132.08))
    (stroke (width 0.1524) (type solid))
    (uuid e65d9571-37a5-4cfa-9e96-fcaf90bf2e33)
  )
  (wire (pts (xy 233.68 86.36) (xy 246.38 86.36))
    (stroke (width 0.1524) (type solid))
    (uuid ea50b2ce-2bdb-4376-910c-1a5b9ad6a050)
  )
  (wire (pts (xy 246.38 93.98) (xy 226.06 93.98))
    (stroke (width 0.1524) (type solid))
    (uuid eb19f49a-de6f-4b6b-b993-a1c888bebe0f)
  )
  (wire (pts (xy 27.94 208.28) (xy 40.64 208.28))
    (stroke (width 0.1524) (type solid))
    (uuid eeab8d70-13b2-4727-ac12-d22bc92331b9)
  )
  (wire (pts (xy 205.74 66.04) (xy 193.04 66.04))
    (stroke (width 0.1524) (type solid))
    (uuid f10c0269-a1b4-498d-ba13-864091c26593)
  )
  (wire (pts (xy 104.14 167.64) (xy 116.84 167.64))
    (stroke (width 0.1524) (type solid))
    (uuid f3e1301f-d095-4f80-8bb1-ff3f9c6ab0da)
  )
  (wire (pts (xy 180.34 86.36) (xy 180.34 66.04))
    (stroke (width 0.1524) (type solid))
    (uuid fb055620-761c-4aaf-9b17-a490cb7d7493)
  )
  (wire (pts (xy 246.38 91.44) (xy 226.06 91.44))
    (stroke (width 0.1524) (type solid))
    (uuid fd32d4c4-ec89-426c-beb7-6377d11df9f6)
  )
  (wire (pts (xy 27.94 185.42) (xy 40.64 185.42))
    (stroke (width 0.1524) (type solid))
    (uuid ff73ec77-4cbb-41a1-8540-5eec85a4a50f)
  )

  (label "GND" (at 111.76 190.5 0) (fields_autoplaced)
    (effects (font (size 1.2446 1.2446)) (justify left bottom))
    (uuid 0076ac97-932a-492e-b959-938c79aab25f)
  )
  (label "PUMP_SIG$2" (at 27.94 71.12 0) (fields_autoplaced)
    (effects (font (size 1.2446 1.2446)) (justify left bottom))
    (uuid 0582bf02-1d96-4d09-8da7-49beb7f9c9dc)
  )
  (label "PUMP_SIG$9" (at 226.06 111.76 0) (fields_autoplaced)
    (effects (font (size 1.2446 1.2446)) (justify left bottom))
    (uuid 06470a92-7a6d-4dbe-941f-2b7e4ceead91)
  )
  (label "PUMP_SIG$13" (at 226.06 121.92 0) (fields_autoplaced)
    (effects (font (size 1.2446 1.2446)) (justify left bottom))
    (uuid 07ae8d4d-29f1-48da-9107-999f73a8735c)
  )
  (label "PUMP_SIG$2" (at 226.06 91.44 0) (fields_autoplaced)
    (effects (font (size 1.2446 1.2446)) (justify left bottom))
    (uuid 0bc21f6b-5c16-44ca-b96c-b934877ec771)
  )
  (label "PUMP_SIG$11" (at 226.06 116.84 0) (fields_autoplaced)
    (effects (font (size 1.2446 1.2446)) (justify left bottom))
    (uuid 15731fc8-4acc-4092-8503-30e22874eb83)
  )
  (label "GND" (at 182.88 58.42 0) (fields_autoplaced)
    (effects (font (size 1.2446 1.2446)) (justify left bottom))
    (uuid 16c80e8e-75c4-462f-b527-a5f5f953d80c)
  )
  (label "PUMP_SIG$10" (at 226.06 114.3 0) (fields_autoplaced)
    (effects (font (size 1.2446 1.2446)) (justify left bottom))
    (uuid 1838a087-fb2d-4e97-aa75-6cab744ab521)
  )
  (label "PUMP_SIG$3" (at 226.06 93.98 0) (fields_autoplaced)
    (effects (font (size 1.2446 1.2446)) (justify left bottom))
    (uuid 18b52d82-cfe8-4030-9317-14b39de56d47)
  )
  (label "PUMP_SIG$8" (at 226.06 106.68 0) (fields_autoplaced)
    (effects (font (size 1.2446 1.2446)) (justify left bottom))
    (uuid 1a4a6281-9a0f-44b9-8a8d-ae9598b89aa1)
  )
  (label "GND" (at 111.76 53.34 0) (fields_autoplaced)
    (effects (font (size 1.2446 1.2446)) (justify left bottom))
    (uuid 27afb631-a0e2-47a0-b63a-4e8a7f81fd27)
  )
  (label "PUMP_SIG$14" (at 71.12 162.56 0) (fields_autoplaced)
    (effects (font (size 1.2446 1.2446)) (justify left bottom))
    (uuid 33f2f7db-22fe-4840-ab7c-7a4d3d82933a)
  )
  (label "GND" (at 111.76 144.78 0) (fields_autoplaced)
    (effects (font (size 1.2446 1.2446)) (justify left bottom))
    (uuid 33fd6b83-1b01-4026-83da-e37c6ba2eaf2)
  )
  (label "PUMP_SIG$7" (at 226.06 104.14 0) (fields_autoplaced)
    (effects (font (size 1.2446 1.2446)) (justify left bottom))
    (uuid 4552a42b-c139-4c3d-bf01-40c3ccaae098)
  )
  (label "GND" (at 68.58 144.78 0) (fields_autoplaced)
    (effects (font (size 1.2446 1.2446)) (justify left bottom))
    (uuid 4e9e23e6-9d99-48ec-aced-66a07d8d4a5c)
  )
  (label "GND" (at 68.58 167.64 0) (fields_autoplaced)
    (effects (font (size 1.2446 1.2446)) (justify left bottom))
    (uuid 52759cc7-bbee-43aa-98fd-9ff81c874f63)
  )
  (label "PUMP_SIG$3" (at 27.94 93.98 0) (fields_autoplaced)
    (effects (font (size 1.2446 1.2446)) (justify left bottom))
    (uuid 58deaff1-a901-4937-8433-8eee4fd01732)
  )
  (label "PUMP_SIG$4" (at 226.06 96.52 0) (fields_autoplaced)
    (effects (font (size 1.2446 1.2446)) (justify left bottom))
    (uuid 5e382bd9-99d6-465d-8057-60c23e13d782)
  )
  (label "PUMP_SIG$1" (at 226.06 88.9 0) (fields_autoplaced)
    (effects (font (size 1.2446 1.2446)) (justify left bottom))
    (uuid 6926307f-6c55-4651-a833-c427f6926fd7)
  )
  (label "GND" (at 111.76 213.36 0) (fields_autoplaced)
    (effects (font (size 1.2446 1.2446)) (justify left bottom))
    (uuid 6f18362e-31d5-4909-8085-211adc9b17a0)
  )
  (label "PUMP_SIG$15" (at 71.12 185.42 0) (fields_autoplaced)
    (effects (font (size 1.2446 1.2446)) (justify left bottom))
    (uuid 6f834b11-1e2a-49f4-a1e4-acf101bfb5e4)
  )
  (label "PUMP_SIG$10" (at 71.12 71.12 0) (fields_autoplaced)
    (effects (font (size 1.2446 1.2446)) (justify left bottom))
    (uuid 72c7a029-9f26-4e1c-8741-b5959b12f2c6)
  )
  (label "PUMP_SIG$13" (at 71.12 139.7 0) (fields_autoplaced)
    (effects (font (size 1.2446 1.2446)) (justify left bottom))
    (uuid 746f7826-e7de-4ab4-a5ab-2c997e7a15b7)
  )
  (label "GND" (at 233.68 86.36 0) (fields_autoplaced)
    (effects (font (size 1.2446 1.2446)) (justify left bottom))
    (uuid 7e669523-6ad7-4a0e-83c8-76e893280530)
  )
  (label "PUMP_SIG$6" (at 226.06 101.6 0) (fields_autoplaced)
    (effects (font (size 1.2446 1.2446)) (justify left bottom))
    (uuid 812dbc6c-9422-47b7-903b-3ebdbe834c1a)
  )
  (label "GND" (at 111.76 76.2 0) (fields_autoplaced)
    (effects (font (size 1.2446 1.2446)) (justify left bottom))
    (uuid 869f87ef-0908-4369-a4fa-7816fc26d0a4)
  )
  (label "GND" (at 68.58 99.06 0) (fields_autoplaced)
    (effects (font (size 1.2446 1.2446)) (justify left bottom))
    (uuid 98ab4c7f-9d4d-420d-a8e1-45f47eb6f943)
  )
  (label "GND" (at 233.68 132.08 0) (fields_autoplaced)
    (effects (font (size 1.2446 1.2446)) (justify left bottom))
    (uuid 98d85f36-b094-4ca4-9b70-3acb935dcad0)
  )
  (label "PUMP_SIG$16" (at 71.12 208.28 0) (fields_autoplaced)
    (effects (font (size 1.2446 1.2446)) (justify left bottom))
    (uuid 9ba9e0c9-d112-48b7-9dbe-b3c026971c3b)
  )
  (label "GND" (at 68.58 121.92 0) (fields_autoplaced)
    (effects (font (size 1.2446 1.2446)) (justify left bottom))
    (uuid 9c016b13-9fc2-4f9e-92bf-564bcb071521)
  )
  (label "PUMP_SIG$8" (at 27.94 208.28 0) (fields_autoplaced)
    (effects (font (size 1.2446 1.2446)) (justify left bottom))
    (uuid a5f68c21-22be-4f36-8017-3778540a5a1d)
  )
  (label "PUMP_SIG$16" (at 226.06 129.54 0) (fields_autoplaced)
    (effects (font (size 1.2446 1.2446)) (justify left bottom))
    (uuid a72d19fe-b00b-4e7d-9b74-e7ef13f58a53)
  )
  (label "GND" (at 68.58 190.5 0) (fields_autoplaced)
    (effects (font (size 1.2446 1.2446)) (justify left bottom))
    (uuid a7734ee3-58c2-455c-906d-78321dcccc22)
  )
  (label "PUMP_SIG$4" (at 27.94 116.84 0) (fields_autoplaced)
    (effects (font (size 1.2446 1.2446)) (justify left bottom))
    (uuid ac371fe8-e300-49b8-877b-43b2dd592875)
  )
  (label "PUMP_SIG$14" (at 226.06 124.46 0) (fields_autoplaced)
    (effects (font (size 1.2446 1.2446)) (justify left bottom))
    (uuid b283ca6b-8ec5-4e64-bc46-e176f7e4b338)
  )
  (label "PUMP_SIG$5" (at 27.94 139.7 0) (fields_autoplaced)
    (effects (font (size 1.2446 1.2446)) (justify left bottom))
    (uuid b50fecaa-38c2-45cb-ad44-f81299a9ae24)
  )
  (label "GND" (at 233.68 109.22 0) (fields_autoplaced)
    (effects (font (size 1.2446 1.2446)) (justify left bottom))
    (uuid b83a2531-ce32-444c-afaa-6be8a0c406a7)
  )
  (label "GND" (at 111.76 167.64 0) (fields_autoplaced)
    (effects (font (size 1.2446 1.2446)) (justify left bottom))
    (uuid b9b5be0c-6033-420c-bdda-20546b8deff4)
  )
  (label "PUMP_SIG$15" (at 226.06 127 0) (fields_autoplaced)
    (effects (font (size 1.2446 1.2446)) (justify left bottom))
    (uuid ba80bccd-1f1d-49be-998c-b19ef46c71e2)
  )
  (label "PUMP_SIG$6" (at 27.94 162.56 0) (fields_autoplaced)
    (effects (font (size 1.2446 1.2446)) (justify left bottom))
    (uuid bfa914d8-b742-4b02-a32c-65fceab3e9ae)
  )
  (label "GND" (at 63.5 53.34 0) (fields_autoplaced)
    (effects (font (size 1.2446 1.2446)) (justify left bottom))
    (uuid c10fd03b-fcd8-44e9-b825-88ebbd095d10)
  )
  (label "PUMP_SIG$1" (at 27.94 48.26 0) (fields_autoplaced)
    (effects (font (size 1.2446 1.2446)) (justify left bottom))
    (uuid c5f7301a-ba22-479b-a68d-9b7fc5a1d326)
  )
  (label "GND" (at 68.58 213.36 0) (fields_autoplaced)
    (effects (font (size 1.2446 1.2446)) (justify left bottom))
    (uuid cdc4cc46-3967-4a0e-9fb1-cbfa75bba74e)
  )
  (label "PUMP_SIG$12" (at 71.12 116.84 0) (fields_autoplaced)
    (effects (font (size 1.2446 1.2446)) (justify left bottom))
    (uuid d11a443e-ac8e-4daa-9ae0-667e2aa60eae)
  )
  (label "PUMP_SIG$12" (at 226.06 119.38 0) (fields_autoplaced)
    (effects (font (size 1.2446 1.2446)) (justify left bottom))
    (uuid de03c317-954f-43c4-833a-c1c67ad08ba0)
  )
  (label "GND" (at 111.76 99.06 0) (fields_autoplaced)
    (effects (font (size 1.2446 1.2446)) (justify left bottom))
    (uuid eca58e94-22ca-4c72-9cce-30ec1ca0b484)
  )
  (label "PUMP_SIG$5" (at 226.06 99.06 0) (fields_autoplaced)
    (effects (font (size 1.2446 1.2446)) (justify left bottom))
    (uuid f05af025-6125-4365-b4e2-baf6832a028f)
  )
  (label "GND" (at 68.58 76.2 0) (fields_autoplaced)
    (effects (font (size 1.2446 1.2446)) (justify left bottom))
    (uuid f0df3392-4f4c-4b8c-9e07-58ecdc58a06a)
  )
  (label "PUMP_SIG$7" (at 27.94 185.42 0) (fields_autoplaced)
    (effects (font (size 1.2446 1.2446)) (justify left bottom))
    (uuid f88b03a3-127a-4b26-8782-349c31625f29)
  )
  (label "PUMP_SIG$9" (at 68.58 48.26 0) (fields_autoplaced)
    (effects (font (size 1.2446 1.2446)) (justify left bottom))
    (uuid fb838fff-305e-4de1-9034-a592b5e86453)
  )
  (label "PUMP_SIG$11" (at 71.12 93.98 0) (fields_autoplaced)
    (effects (font (size 1.2446 1.2446)) (justify left bottom))
    (uuid fc31e02c-2651-465f-bbe5-852a7523691c)
  )
  (label "GND" (at 111.76 121.92 0) (fields_autoplaced)
    (effects (font (size 1.2446 1.2446)) (justify left bottom))
    (uuid fc4e21fd-e8dd-4675-bbe9-9ca46269a345)
  )

  (symbol (lib_id "Reward_Pump_MasterBoard_AdaptaMaze_v0pt2-eagle-import:FRAME_A_L") (at 17.78 236.22 0) (unit 1)
    (in_bom yes) (on_board yes) (dnp no)
    (uuid 0a21a15d-46b1-4440-9732-b7b38a2a4511)
    (property "Reference" "#FRAME1" (at 17.78 236.22 0)
      (effects (font (size 1.27 1.27)) hide)
    )
    (property "Value" "FRAME_A_L" (at 17.78 236.22 0)
      (effects (font (size 1.27 1.27)) hide)
    )
    (property "Footprint" "" (at 17.78 236.22 0)
      (effects (font (size 1.27 1.27)) hide)
    )
    (property "Datasheet" "" (at 17.78 236.22 0)
      (effects (font (size 1.27 1.27)) hide)
    )
    (instances
      (project "Reward_Pump_MasterBoard_AdaptaMaze_v0pt2"
        (path "/3ae13534-bd1a-45eb-b33e-41366b66755c"
          (reference "#FRAME1") (unit 1)
        )
      )
    )
  )

  (symbol (lib_id "Reward_Pump_MasterBoard_AdaptaMaze_v0pt2-eagle-import:5745781-4") (at 50.8 165.1 0) (unit 1)
    (in_bom yes) (on_board yes) (dnp no)
    (uuid 0eb9eef5-1d09-4944-a4c2-1698e3c2780a)
    (property "Reference" "REW_PUMP@6" (at 45.72 156.718 0)
      (effects (font (size 1.778 1.5113)) (justify left bottom))
    )
    (property "Value" "5745781-4" (at 45.72 175.26 0)
      (effects (font (size 1.778 1.5113)) (justify left bottom))
    )
    (property "Footprint" "Reward_Pump_MasterBoard_AdaptaMaze_v0pt2:TE_5745781-4" (at 50.8 165.1 0)
      (effects (font (size 1.27 1.27)) hide)
    )
    (property "Datasheet" "" (at 50.8 165.1 0)
      (effects (font (size 1.27 1.27)) hide)
    )
    (pin "1" (uuid ca0f89bc-0bcf-450b-9601-ab8412c2077b))
    (pin "2" (uuid e285e459-8491-45f8-a50a-4442c77d105e))
    (pin "3" (uuid a1092d63-fa69-458c-b20b-c9cd399fff38))
    (pin "4" (uuid 1befffed-f453-4ec6-a0f6-240720e2140e))
    (pin "5" (uuid a17c89aa-b78d-45f7-b264-8957d680d695))
    (pin "6" (uuid 2999a476-cf8c-4966-b4b3-a19da507fddd))
    (pin "7" (uuid 38302cba-e3d7-47fe-9a4d-36e55f0560cc))
    (pin "8" (uuid a55980b2-4255-4cb7-8447-11cc89274e28))
    (pin "9" (uuid 03c55b55-b930-4cd8-add6-41bd51e31be9))
    (instances
      (project "Reward_Pump_MasterBoard_AdaptaMaze_v0pt2"
        (path "/3ae13534-bd1a-45eb-b33e-41366b66755c"
          (reference "REW_PUMP@6") (unit 1)
        )
      )
    )
  )

  (symbol (lib_id "Reward_Pump_MasterBoard_AdaptaMaze_v0pt2-eagle-import:5745781-4") (at 93.98 119.38 0) (unit 1)
    (in_bom yes) (on_board yes) (dnp no)
    (uuid 2307483c-f788-4f43-8993-cfc602a31b79)
    (property "Reference" "REW_PUMP@12" (at 88.9 110.998 0)
      (effects (font (size 1.778 1.5113)) (justify left bottom))
    )
    (property "Value" "5745781-4" (at 88.9 129.54 0)
      (effects (font (size 1.778 1.5113)) (justify left bottom))
    )
    (property "Footprint" "Reward_Pump_MasterBoard_AdaptaMaze_v0pt2:TE_5745781-4" (at 93.98 119.38 0)
      (effects (font (size 1.27 1.27)) hide)
    )
    (property "Datasheet" "" (at 93.98 119.38 0)
      (effects (font (size 1.27 1.27)) hide)
    )
    (pin "1" (uuid ba7c87e6-2f79-44ae-a2cd-48d1b705c337))
    (pin "2" (uuid 04a38108-0fd5-498f-9678-ed618b429804))
    (pin "3" (uuid 5a6c7afb-2b97-460c-8fa9-28ece747a9ab))
    (pin "4" (uuid 7b748f3c-8207-4009-b81a-287823f64b51))
    (pin "5" (uuid 5d1f1b2d-fe44-4356-87c9-b6724ddffea8))
    (pin "6" (uuid 1942e8ea-b615-4127-ad86-4309a5023a4c))
    (pin "7" (uuid bdb0ca48-bef0-4137-a3f9-d1a1f64b4e34))
    (pin "8" (uuid 3ef565c1-4e65-4a34-99eb-7204e96206c4))
    (pin "9" (uuid 0ee75984-418a-4f6e-a0c8-8b3c3670dbd3))
    (instances
      (project "Reward_Pump_MasterBoard_AdaptaMaze_v0pt2"
        (path "/3ae13534-bd1a-45eb-b33e-41366b66755c"
          (reference "REW_PUMP@12") (unit 1)
        )
      )
    )
  )

  (symbol (lib_id "Reward_Pump_MasterBoard_AdaptaMaze_v0pt2-eagle-import:2.1MMJACKTHM") (at 165.1 91.44 90) (unit 1)
    (in_bom yes) (on_board yes) (dnp no)
    (uuid 266e97db-e14a-4447-8ca2-7451fca20129)
    (property "Reference" "PUMPPOWER_FOR_4$1" (at 160.02 93.98 0)
      (effects (font (size 1.27 1.0795)) (justify left bottom) hide)
    )
    (property "Value" "2.1MMJACKTHM" (at 165.1 91.44 0)
      (effects (font (size 1.27 1.27)) hide)
    )
    (property "Footprint" "Reward_Pump_MasterBoard_AdaptaMaze_v0pt2:PJ-102A" (at 165.1 91.44 0)
      (effects (font (size 1.27 1.27)) hide)
    )
    (property "Datasheet" "" (at 165.1 91.44 0)
      (effects (font (size 1.27 1.27)) hide)
    )
    (pin "RING" (uuid 57e85c5c-d428-4cc6-94f6-c1b7c2804966))
    (pin "RING_SW" (uuid 2d878437-fae0-4dc3-b93b-bd2bcbb91c94))
    (pin "TIP" (uuid c9ac6d57-4915-4082-b8cd-64c8fcefbd22))
    (instances
      (project "Reward_Pump_MasterBoard_AdaptaMaze_v0pt2"
        (path "/3ae13534-bd1a-45eb-b33e-41366b66755c"
          (reference "PUMPPOWER_FOR_4$1") (unit 1)
        )
      )
    )
  )

  (symbol (lib_id "Reward_Pump_MasterBoard_AdaptaMaze_v0pt2-eagle-import:5745781-4") (at 93.98 96.52 0) (unit 1)
    (in_bom yes) (on_board yes) (dnp no)
    (uuid 34db768d-5d15-4d72-b59f-cdafbe137374)
    (property "Reference" "REW_PUMP@11" (at 88.9 88.138 0)
      (effects (font (size 1.778 1.5113)) (justify left bottom))
    )
    (property "Value" "5745781-4" (at 88.9 106.68 0)
      (effects (font (size 1.778 1.5113)) (justify left bottom))
    )
    (property "Footprint" "Reward_Pump_MasterBoard_AdaptaMaze_v0pt2:TE_5745781-4" (at 93.98 96.52 0)
      (effects (font (size 1.27 1.27)) hide)
    )
    (property "Datasheet" "" (at 93.98 96.52 0)
      (effects (font (size 1.27 1.27)) hide)
    )
    (pin "1" (uuid 42d5e0af-7d32-4dd1-a369-cae902677159))
    (pin "2" (uuid d08c39b5-ed0c-4422-b3b7-c6811a45968e))
    (pin "3" (uuid b48abb66-82cd-4255-a477-ad740927c924))
    (pin "4" (uuid abd56fe6-32fa-4365-bf01-b323d21f30ba))
    (pin "5" (uuid 52329206-b6c6-4aa3-89b9-7dd992bac994))
    (pin "6" (uuid 14ab4354-6c1d-4fa5-ba3b-e07ea4debf48))
    (pin "7" (uuid 736d5caa-b527-4bd7-8e03-92c700bedf1d))
    (pin "8" (uuid fc7388ce-af1d-40dc-bf79-97bab1ca1922))
    (pin "9" (uuid fc5a9d38-d5c3-4c24-b5e1-0d650e58eeea))
    (instances
      (project "Reward_Pump_MasterBoard_AdaptaMaze_v0pt2"
        (path "/3ae13534-bd1a-45eb-b33e-41366b66755c"
          (reference "REW_PUMP@11") (unit 1)
        )
      )
    )
  )

  (symbol (lib_id "Reward_Pump_MasterBoard_AdaptaMaze_v0pt2-eagle-import:FRAME_A_L") (at 190.5 236.22 0) (unit 2)
    (in_bom yes) (on_board yes) (dnp no)
    (uuid 3799c756-30f7-47c3-a0e1-fdc1d16ffbe0)
    (property "Reference" "#FRAME1" (at 190.5 236.22 0)
      (effects (font (size 1.27 1.27)) hide)
    )
    (property "Value" "FRAME_A_L" (at 190.5 236.22 0)
      (effects (font (size 1.27 1.27)) hide)
    )
    (property "Footprint" "" (at 190.5 236.22 0)
      (effects (font (size 1.27 1.27)) hide)
    )
    (property "Datasheet" "" (at 190.5 236.22 0)
      (effects (font (size 1.27 1.27)) hide)
    )
    (instances
      (project "Reward_Pump_MasterBoard_AdaptaMaze_v0pt2"
        (path "/3ae13534-bd1a-45eb-b33e-41366b66755c"
          (reference "#FRAME1") (unit 2)
        )
      )
    )
  )

  (symbol (lib_id "Reward_Pump_MasterBoard_AdaptaMaze_v0pt2-eagle-import:691137710002") (at 182.88 50.8 90) (unit 1)
    (in_bom yes) (on_board yes) (dnp no)
    (uuid 3b4dda33-b105-4e5f-81f7-9f44a6f0b023)
    (property "Reference" "TERMINALBLOCK_POWER_1POS0" (at 179.07 52.07 0)
      (effects (font (size 1.778 1.5113)) (justify left bottom))
    )
    (property "Value" "691137710002" (at 186.69 52.07 0)
      (effects (font (size 1.778 1.5113)) (justify left bottom))
    )
    (property "Footprint" "Reward_Pump_MasterBoard_AdaptaMaze_v0pt2:691137710002" (at 182.88 50.8 0)
      (effects (font (size 1.27 1.27)) hide)
    )
    (property "Datasheet" "" (at 182.88 50.8 0)
      (effects (font (size 1.27 1.27)) hide)
    )
    (pin "1" (uuid c79ab4c1-c777-497e-8404-91e6ecbbe540))
    (pin "2" (uuid 2aaa148f-d9a2-497e-919b-7cc8fbb00ef9))
    (instances
      (project "Reward_Pump_MasterBoard_AdaptaMaze_v0pt2"
        (path "/3ae13534-bd1a-45eb-b33e-41366b66755c"
          (reference "TERMINALBLOCK_POWER_1POS0") (unit 1)
        )
      )
    )
  )

  (symbol (lib_id "Reward_Pump_MasterBoard_AdaptaMaze_v0pt2-eagle-import:5745781-4") (at 50.8 119.38 0) (unit 1)
    (in_bom yes) (on_board yes) (dnp no)
    (uuid 4c5fe332-c2cb-4712-9d19-7a355576c935)
    (property "Reference" "REW_PUMP@4" (at 45.72 110.998 0)
      (effects (font (size 1.778 1.5113)) (justify left bottom))
    )
    (property "Value" "5745781-4" (at 45.72 129.54 0)
      (effects (font (size 1.778 1.5113)) (justify left bottom))
    )
    (property "Footprint" "Reward_Pump_MasterBoard_AdaptaMaze_v0pt2:TE_5745781-4" (at 50.8 119.38 0)
      (effects (font (size 1.27 1.27)) hide)
    )
    (property "Datasheet" "" (at 50.8 119.38 0)
      (effects (font (size 1.27 1.27)) hide)
    )
    (pin "1" (uuid 5430bac7-ab5c-4eed-b100-394dc028d310))
    (pin "2" (uuid 1f4f4722-83e8-4ebe-996b-e3136576c629))
    (pin "3" (uuid aacc4fca-c97a-46df-9235-0ad8cadf1b10))
    (pin "4" (uuid f7b0030e-b7b7-4d9e-8e97-ba1fb7a25ddf))
    (pin "5" (uuid 1733a74b-2048-467f-bdaf-01ccc5feaf3c))
    (pin "6" (uuid 4b5fcff1-48d7-4804-8142-d5129960140a))
    (pin "7" (uuid da5a6ba2-8a06-46c0-94dd-3888f6242581))
    (pin "8" (uuid bad14fd5-96d6-4b4b-9ae4-1517f1e29988))
    (pin "9" (uuid 5d5cf489-2ddc-4333-bb5c-23f9dff2e7a5))
    (instances
      (project "Reward_Pump_MasterBoard_AdaptaMaze_v0pt2"
        (path "/3ae13534-bd1a-45eb-b33e-41366b66755c"
          (reference "REW_PUMP@4") (unit 1)
        )
      )
    )
  )

  (symbol (lib_id "Reward_Pump_MasterBoard_AdaptaMaze_v0pt2-eagle-import:5745781-4") (at 93.98 187.96 0) (unit 1)
    (in_bom yes) (on_board yes) (dnp no)
    (uuid 4db3bf3b-3a9c-4ee1-8dd0-6f5cd87d415c)
    (property "Reference" "REW_PUMP@15" (at 88.9 179.578 0)
      (effects (font (size 1.778 1.5113)) (justify left bottom))
    )
    (property "Value" "5745781-4" (at 88.9 198.12 0)
      (effects (font (size 1.778 1.5113)) (justify left bottom))
    )
    (property "Footprint" "Reward_Pump_MasterBoard_AdaptaMaze_v0pt2:TE_5745781-4" (at 93.98 187.96 0)
      (effects (font (size 1.27 1.27)) hide)
    )
    (property "Datasheet" "" (at 93.98 187.96 0)
      (effects (font (size 1.27 1.27)) hide)
    )
    (pin "1" (uuid 7bf10ab9-2fb7-41d6-a825-3b7af2c59681))
    (pin "2" (uuid db08817b-d01f-4714-8902-905118693c0a))
    (pin "3" (uuid bcc64113-592f-479e-9a20-7b5919fee96b))
    (pin "4" (uuid 2847a875-82fb-43ef-a6d4-3e18a39a7f5a))
    (pin "5" (uuid 55f73458-fb34-4e42-a80f-4bbc7c28cb3d))
    (pin "6" (uuid 99c223af-e20f-4d27-8684-a7f64c8d42dc))
    (pin "7" (uuid f9aab110-9c87-4f6b-8a16-a02373020bee))
    (pin "8" (uuid c278910b-2621-497e-b77f-9aeb6236fbdf))
    (pin "9" (uuid bb85dc1a-c2ca-4bcb-826a-a216421c81cf))
    (instances
      (project "Reward_Pump_MasterBoard_AdaptaMaze_v0pt2"
        (path "/3ae13534-bd1a-45eb-b33e-41366b66755c"
          (reference "REW_PUMP@15") (unit 1)
        )
      )
    )
  )

  (symbol (lib_id "Reward_Pump_MasterBoard_AdaptaMaze_v0pt2-eagle-import:5745781-4") (at 50.8 73.66 0) (unit 1)
    (in_bom yes) (on_board yes) (dnp no)
    (uuid 61809ba8-0eb3-4ad1-b102-163e6f48aaa0)
    (property "Reference" "REW_PUMP@2" (at 45.72 65.278 0)
      (effects (font (size 1.778 1.5113)) (justify left bottom))
    )
    (property "Value" "5745781-4" (at 45.72 83.82 0)
      (effects (font (size 1.778 1.5113)) (justify left bottom))
    )
    (property "Footprint" "Reward_Pump_MasterBoard_AdaptaMaze_v0pt2:TE_5745781-4" (at 50.8 73.66 0)
      (effects (font (size 1.27 1.27)) hide)
    )
    (property "Datasheet" "" (at 50.8 73.66 0)
      (effects (font (size 1.27 1.27)) hide)
    )
    (pin "1" (uuid d5eb9113-cd8a-4fac-9f99-c933f0735cae))
    (pin "2" (uuid 9452016a-d1ca-4de1-a5e1-1096905b1f48))
    (pin "3" (uuid 1ca9a2d2-049a-4871-8b56-0c62fd7e458f))
    (pin "4" (uuid bc3ca57b-f8bd-4957-baa3-d7aafe731cf8))
    (pin "5" (uuid e7dd2706-1d3f-4cc3-9f56-20aed97d4b6b))
    (pin "6" (uuid d049fad6-4a14-484e-87cb-31b5cc8b0d3a))
    (pin "7" (uuid 39b46ea7-82f5-4dcb-a685-bd63a41baf2c))
    (pin "8" (uuid 64d08008-534e-43f3-b9e5-eed0c7c620f7))
    (pin "9" (uuid 4dca855c-08b2-4c49-a5f0-920d16023ae0))
    (instances
      (project "Reward_Pump_MasterBoard_AdaptaMaze_v0pt2"
        (path "/3ae13534-bd1a-45eb-b33e-41366b66755c"
          (reference "REW_PUMP@2") (unit 1)
        )
      )
    )
  )

  (symbol (lib_id "Reward_Pump_MasterBoard_AdaptaMaze_v0pt2-eagle-import:5745781-4") (at 50.8 142.24 0) (unit 1)
    (in_bom yes) (on_board yes) (dnp no)
    (uuid 6eea8c22-d0ea-4fda-b222-9e58e7d5d2c7)
    (property "Reference" "REW_PUMP@5" (at 45.72 133.858 0)
      (effects (font (size 1.778 1.5113)) (justify left bottom))
    )
    (property "Value" "5745781-4" (at 45.72 152.4 0)
      (effects (font (size 1.778 1.5113)) (justify left bottom))
    )
    (property "Footprint" "Reward_Pump_MasterBoard_AdaptaMaze_v0pt2:TE_5745781-4" (at 50.8 142.24 0)
      (effects (font (size 1.27 1.27)) hide)
    )
    (property "Datasheet" "" (at 50.8 142.24 0)
      (effects (font (size 1.27 1.27)) hide)
    )
    (pin "1" (uuid 5d102216-9eab-475e-8617-c7afeba23532))
    (pin "2" (uuid 3bef4c78-a567-4306-996c-564680616b85))
    (pin "3" (uuid 1935607c-32c1-4429-bd69-994e9737acad))
    (pin "4" (uuid d838fbe7-587e-4eb9-8df2-24b7150ca7b7))
    (pin "5" (uuid 8b491b0b-2e6d-498d-ab91-88841af207b9))
    (pin "6" (uuid d4f9f0c2-b51f-4df9-bca2-4ea4cbfd991f))
    (pin "7" (uuid b4d40847-dd11-4ed4-bb8a-2654032eda94))
    (pin "8" (uuid 85d47ff8-339e-4c9d-9c29-53bef80d295c))
    (pin "9" (uuid 8953231a-4fbd-4898-8696-7e2a38157e65))
    (instances
      (project "Reward_Pump_MasterBoard_AdaptaMaze_v0pt2"
        (path "/3ae13534-bd1a-45eb-b33e-41366b66755c"
          (reference "REW_PUMP@5") (unit 1)
        )
      )
    )
  )

  (symbol (lib_id "Reward_Pump_MasterBoard_AdaptaMaze_v0pt2-eagle-import:5745781-4") (at 93.98 73.66 0) (unit 1)
    (in_bom yes) (on_board yes) (dnp no)
    (uuid 82250e73-5185-4e16-922c-e846409fb299)
    (property "Reference" "REW_PUMP@10" (at 88.9 65.278 0)
      (effects (font (size 1.778 1.5113)) (justify left bottom))
    )
    (property "Value" "5745781-4" (at 88.9 83.82 0)
      (effects (font (size 1.778 1.5113)) (justify left bottom))
    )
    (property "Footprint" "Reward_Pump_MasterBoard_AdaptaMaze_v0pt2:TE_5745781-4" (at 93.98 73.66 0)
      (effects (font (size 1.27 1.27)) hide)
    )
    (property "Datasheet" "" (at 93.98 73.66 0)
      (effects (font (size 1.27 1.27)) hide)
    )
    (pin "1" (uuid 1a0df530-229e-4dad-bcbd-bc2982fd897c))
    (pin "2" (uuid 9975bfa6-b173-449e-bd34-85dd0f92a5bf))
    (pin "3" (uuid 28c447fd-4ee1-4be5-9611-f8942999f496))
    (pin "4" (uuid f4866810-139d-4573-97e8-596be22f8ff1))
    (pin "5" (uuid b6838c6c-505d-4de8-b54c-d772dd4c83cd))
    (pin "6" (uuid a76a2e4a-3ae5-49a5-b681-063ff6d0da40))
    (pin "7" (uuid 40380b8c-94ba-4121-8493-3c09417ac1ad))
    (pin "8" (uuid 3326bd5e-9fcf-4dec-8598-a6aa3450114b))
    (pin "9" (uuid 0695cc29-4406-405a-94c3-4cd744dc9fae))
    (instances
      (project "Reward_Pump_MasterBoard_AdaptaMaze_v0pt2"
        (path "/3ae13534-bd1a-45eb-b33e-41366b66755c"
          (reference "REW_PUMP@10") (unit 1)
        )
      )
    )
  )

  (symbol (lib_id "Reward_Pump_MasterBoard_AdaptaMaze_v0pt2-eagle-import:2.1MMJACKTHM") (at 177.8 91.44 90) (unit 1)
    (in_bom yes) (on_board yes) (dnp no)
    (uuid 8a5ded2e-3700-46cb-9076-7fe3f7533005)
    (property "Reference" "PUMPPOWER_FOR_4$2" (at 172.72 93.98 0)
      (effects (font (size 1.27 1.0795)) (justify left bottom) hide)
    )
    (property "Value" "2.1MMJACKTHM" (at 177.8 91.44 0)
      (effects (font (size 1.27 1.27)) hide)
    )
    (property "Footprint" "Reward_Pump_MasterBoard_AdaptaMaze_v0pt2:PJ-102A" (at 177.8 91.44 0)
      (effects (font (size 1.27 1.27)) hide)
    )
    (property "Datasheet" "" (at 177.8 91.44 0)
      (effects (font (size 1.27 1.27)) hide)
    )
    (pin "RING" (uuid 154bb764-f944-4aca-8d05-3132d8829526))
    (pin "RING_SW" (uuid 2f103043-fd45-45eb-bbb3-cc684b2c405e))
    (pin "TIP" (uuid d57107cc-f078-4cf1-bbee-8eaf1e7c9528))
    (instances
      (project "Reward_Pump_MasterBoard_AdaptaMaze_v0pt2"
        (path "/3ae13534-bd1a-45eb-b33e-41366b66755c"
          (reference "PUMPPOWER_FOR_4$2") (unit 1)
        )
      )
    )
  )

  (symbol (lib_id "Reward_Pump_MasterBoard_AdaptaMaze_v0pt2-eagle-import:2.1MMJACKTHM") (at 203.2 91.44 90) (unit 1)
    (in_bom yes) (on_board yes) (dnp no)
    (uuid 9245b4a1-5c3b-4d90-94e7-d359ea7f4e04)
    (property "Reference" "PUMPPOWER_FOR_4$4" (at 198.12 93.98 0)
      (effects (font (size 1.27 1.0795)) (justify left bottom) hide)
    )
    (property "Value" "2.1MMJACKTHM" (at 203.2 91.44 0)
      (effects (font (size 1.27 1.27)) hide)
    )
    (property "Footprint" "Reward_Pump_MasterBoard_AdaptaMaze_v0pt2:PJ-102A" (at 203.2 91.44 0)
      (effects (font (size 1.27 1.27)) hide)
    )
    (property "Datasheet" "" (at 203.2 91.44 0)
      (effects (font (size 1.27 1.27)) hide)
    )
    (pin "RING" (uuid 7d98921c-c888-4e4d-88f4-41126f16955f))
    (pin "RING_SW" (uuid d858c35f-52c8-4b68-9984-dc5771aa59d4))
    (pin "TIP" (uuid bfc386de-aad7-4ccb-b166-088723dfaa9a))
    (instances
      (project "Reward_Pump_MasterBoard_AdaptaMaze_v0pt2"
        (path "/3ae13534-bd1a-45eb-b33e-41366b66755c"
          (reference "PUMPPOWER_FOR_4$4") (unit 1)
        )
      )
    )
  )

  (symbol (lib_id "Reward_Pump_MasterBoard_AdaptaMaze_v0pt2-eagle-import:5745781-4") (at 50.8 210.82 0) (unit 1)
    (in_bom yes) (on_board yes) (dnp no)
    (uuid 945250d9-9d24-416f-b5b1-3afeaaf02393)
    (property "Reference" "REW_PUMP@8" (at 45.72 202.438 0)
      (effects (font (size 1.778 1.5113)) (justify left bottom))
    )
    (property "Value" "5745781-4" (at 45.72 220.98 0)
      (effects (font (size 1.778 1.5113)) (justify left bottom))
    )
    (property "Footprint" "Reward_Pump_MasterBoard_AdaptaMaze_v0pt2:TE_5745781-4" (at 50.8 210.82 0)
      (effects (font (size 1.27 1.27)) hide)
    )
    (property "Datasheet" "" (at 50.8 210.82 0)
      (effects (font (size 1.27 1.27)) hide)
    )
    (pin "1" (uuid cbde7ca1-0a4b-4209-927e-4f9b99a73887))
    (pin "2" (uuid c6fdba81-b5da-4447-b806-626d58afe0e1))
    (pin "3" (uuid 5bd760e7-e754-49be-a45b-a14f8a303a9c))
    (pin "4" (uuid 90ecddeb-ec81-4f64-b203-0453b80a443f))
    (pin "5" (uuid 4636e4e6-1521-4bd0-916c-592a061bcd66))
    (pin "6" (uuid 6c03b4a8-b575-44fb-83be-bc4b700130e0))
    (pin "7" (uuid 1b24aa40-3a21-45aa-9925-a4c7aa1b26d7))
    (pin "8" (uuid c16455ec-7cb1-49fe-bec6-a496c5cd5b48))
    (pin "9" (uuid 3c96420d-7b15-465c-a86c-228230c4c153))
    (instances
      (project "Reward_Pump_MasterBoard_AdaptaMaze_v0pt2"
        (path "/3ae13534-bd1a-45eb-b33e-41366b66755c"
          (reference "REW_PUMP@8") (unit 1)
        )
      )
    )
  )

  (symbol (lib_id "Reward_Pump_MasterBoard_AdaptaMaze_v0pt2-eagle-import:5745781-4") (at 93.98 210.82 0) (unit 1)
    (in_bom yes) (on_board yes) (dnp no)
    (uuid 9a00f51c-5ff9-4e1c-8f22-393bf3e1eb60)
    (property "Reference" "REW_PUMP@16" (at 88.9 202.438 0)
      (effects (font (size 1.778 1.5113)) (justify left bottom))
    )
    (property "Value" "5745781-4" (at 88.9 220.98 0)
      (effects (font (size 1.778 1.5113)) (justify left bottom))
    )
    (property "Footprint" "Reward_Pump_MasterBoard_AdaptaMaze_v0pt2:TE_5745781-4" (at 93.98 210.82 0)
      (effects (font (size 1.27 1.27)) hide)
    )
    (property "Datasheet" "" (at 93.98 210.82 0)
      (effects (font (size 1.27 1.27)) hide)
    )
    (pin "1" (uuid fe4b88de-17a4-4c73-bba7-94ca13cda828))
    (pin "2" (uuid 00f6964d-adff-49ac-a26c-d723d6500841))
    (pin "3" (uuid 6dc3e8a6-0f77-49df-91ec-7baada346817))
    (pin "4" (uuid 5d19d90d-4d8c-4004-908d-7df269ee2c05))
    (pin "5" (uuid 4f96186c-2541-45c0-8a05-d31ca4008e41))
    (pin "6" (uuid 3ba0e3b6-00e1-4c46-8ef9-7269aaa3ccb5))
    (pin "7" (uuid 82c55770-25d5-4413-b0e0-86c471c74519))
    (pin "8" (uuid fa6b6ecd-58a5-4d94-a87f-8c37f4099a7e))
    (pin "9" (uuid 33af2756-ba96-400a-a6fa-fd991fbb786c))
    (instances
      (project "Reward_Pump_MasterBoard_AdaptaMaze_v0pt2"
        (path "/3ae13534-bd1a-45eb-b33e-41366b66755c"
          (reference "REW_PUMP@16") (unit 1)
        )
      )
    )
  )

  (symbol (lib_id "Reward_Pump_MasterBoard_AdaptaMaze_v0pt2-eagle-import:5745781-4") (at 50.8 96.52 0) (unit 1)
    (in_bom yes) (on_board yes) (dnp no)
    (uuid a29ef511-777f-4671-a877-3b4ca2d5e4a6)
    (property "Reference" "REW_PUMP@3" (at 45.72 88.138 0)
      (effects (font (size 1.778 1.5113)) (justify left bottom))
    )
    (property "Value" "5745781-4" (at 45.72 106.68 0)
      (effects (font (size 1.778 1.5113)) (justify left bottom))
    )
    (property "Footprint" "Reward_Pump_MasterBoard_AdaptaMaze_v0pt2:TE_5745781-4" (at 50.8 96.52 0)
      (effects (font (size 1.27 1.27)) hide)
    )
    (property "Datasheet" "" (at 50.8 96.52 0)
      (effects (font (size 1.27 1.27)) hide)
    )
    (pin "1" (uuid 6bc660bc-f6df-4625-98e6-5cc6287d2c73))
    (pin "2" (uuid cad1e2b0-a1cf-4e91-9864-e9da6cf3ad1a))
    (pin "3" (uuid 3fa7d4f2-b950-4459-bc33-e1e28a8d69f7))
    (pin "4" (uuid 596a42ab-4de8-438b-a2c7-6b4f71537548))
    (pin "5" (uuid 1b51a697-4bda-4c94-b3db-c5d4b877acb1))
    (pin "6" (uuid 0d263548-6afb-473b-a2f8-8867b34af633))
    (pin "7" (uuid 287a0da7-58a3-4396-90d4-0ba32cc53fbd))
    (pin "8" (uuid 952909ed-149e-4358-8353-dd0a0644d9ae))
    (pin "9" (uuid 68e524db-9b6f-4433-af3b-65aefb0e32ff))
    (instances
      (project "Reward_Pump_MasterBoard_AdaptaMaze_v0pt2"
        (path "/3ae13534-bd1a-45eb-b33e-41366b66755c"
          (reference "REW_PUMP@3") (unit 1)
        )
      )
    )
  )

  (symbol (lib_id "Reward_Pump_MasterBoard_AdaptaMaze_v0pt2-eagle-import:PINHD-2X20") (at 248.92 106.68 0) (unit 1)
    (in_bom yes) (on_board yes) (dnp no)
    (uuid a4676157-6c4b-4b8a-ace4-52b487666137)
    (property "Reference" "TO_ECU_DOUTS0" (at 242.57 80.645 0)
      (effects (font (size 1.778 1.5113)) (justify left bottom))
    )
    (property "Value" "PINHD-2X20" (at 242.57 137.16 0)
      (effects (font (size 1.778 1.5113)) (justify left bottom) hide)
    )
    (property "Footprint" "Reward_Pump_MasterBoard_AdaptaMaze_v0pt2:2X20" (at 248.92 106.68 0)
      (effects (font (size 1.27 1.27)) hide)
    )
    (property "Datasheet" "" (at 248.92 106.68 0)
      (effects (font (size 1.27 1.27)) hide)
    )
    (pin "1" (uuid c19d26e2-8d5f-4b64-aa98-77598167f037))
    (pin "10" (uuid fbaaadb8-11e6-4e59-825a-5130cdf47f6e))
    (pin "11" (uuid bed81493-76a4-440f-a926-2e7ef0b7b409))
    (pin "12" (uuid f3eba014-01d6-4faa-8a28-397c2c0d0493))
    (pin "13" (uuid e6ca17ce-a15e-4008-ac53-6f9eba087f61))
    (pin "14" (uuid 57275903-07e3-41f6-9930-ef55a6dc3be9))
    (pin "15" (uuid feffe20e-5b8a-4b28-bf8d-608bdf520d3b))
    (pin "16" (uuid 72caefdc-3805-498a-b8bc-08a2f0ce829e))
    (pin "17" (uuid 88d063b8-4f8f-42e7-a8bf-4aa5aac7a4e0))
    (pin "18" (uuid efacd55c-65c1-4cd7-9522-3988115cc7e8))
    (pin "19" (uuid 1dfc0d42-3d24-4e38-b6ca-dd02af82ac0b))
    (pin "2" (uuid 2f90ed0f-6a5c-48e3-a799-159d0a0f2708))
    (pin "20" (uuid 33175f3e-e837-4549-bd67-987634ba4260))
    (pin "21" (uuid 05e90939-194b-4add-9cf9-e23ceb587b39))
    (pin "22" (uuid 9a3d94f1-de7f-496c-ad15-81f16000d669))
    (pin "23" (uuid 0dfb5d86-3fb3-45d1-acbb-bd66ba38e0d0))
    (pin "24" (uuid 44ba4c82-5d7b-4009-9c14-9fb38ce02136))
    (pin "25" (uuid 9e16b55c-7fa9-44ea-a61e-ea1d5a700385))
    (pin "26" (uuid 53de6323-f24a-43a9-8388-c1451f246e66))
    (pin "27" (uuid e67dfdfb-ec8d-4d96-b7bc-261ef21f897e))
    (pin "28" (uuid 97e88d31-76f6-4701-9975-31973de2282d))
    (pin "29" (uuid d564ecc2-07ba-4615-a95a-ab6f91ca08a3))
    (pin "3" (uuid 87299667-4bf3-49f3-bef2-1227303c11d5))
    (pin "30" (uuid 9d9f4a19-0183-4c8b-87b3-320aa0408824))
    (pin "31" (uuid 3ea7b153-d1fa-4ff8-9b15-e0172cbf00d7))
    (pin "32" (uuid cf0f75e6-8337-4c85-841f-7adcb63e73ae))
    (pin "33" (uuid c74af102-bb3f-4cbe-a2d7-97d87fd3019b))
    (pin "34" (uuid 6290ee3e-c014-4a41-91d7-92aec5368ab4))
    (pin "35" (uuid 535eb47a-08ac-4844-b845-dc44f83bd7ed))
    (pin "36" (uuid 530d8093-8430-42a7-9050-9444d17a3792))
    (pin "37" (uuid ff4b4d09-8d4e-4c1d-ba92-c6d269f365b0))
    (pin "38" (uuid 3c36cc18-9a34-4390-9f2b-b5230fb85384))
    (pin "39" (uuid 9cbce373-a7c4-48d8-abe0-24eff28db91d))
    (pin "4" (uuid f49cad40-764a-4106-a007-c8d00967b749))
    (pin "40" (uuid d71577fc-8f3f-4a3a-af09-f084402e79e1))
    (pin "5" (uuid ce2468f6-d38a-4a8a-90b1-2a4f5474926b))
    (pin "6" (uuid 85c953ba-115b-4869-af84-18646777c2eb))
    (pin "7" (uuid 7d6f1e5c-f24b-431c-b1ad-116c148e1e6a))
    (pin "8" (uuid 10b70512-1542-4691-ab10-30925ee36ddc))
    (pin "9" (uuid 02402f86-9bcf-44da-a824-d5f29d1d62f3))
    (instances
      (project "Reward_Pump_MasterBoard_AdaptaMaze_v0pt2"
        (path "/3ae13534-bd1a-45eb-b33e-41366b66755c"
          (reference "TO_ECU_DOUTS0") (unit 1)
        )
      )
    )
  )

  (symbol (lib_id "Reward_Pump_MasterBoard_AdaptaMaze_v0pt2-eagle-import:5745781-4") (at 93.98 165.1 0) (unit 1)
    (in_bom yes) (on_board yes) (dnp no)
    (uuid b389da1f-f2df-4a18-b96b-f3b8af117ca3)
    (property "Reference" "REW_PUMP@14" (at 88.9 156.718 0)
      (effects (font (size 1.778 1.5113)) (justify left bottom))
    )
    (property "Value" "5745781-4" (at 88.9 175.26 0)
      (effects (font (size 1.778 1.5113)) (justify left bottom))
    )
    (property "Footprint" "Reward_Pump_MasterBoard_AdaptaMaze_v0pt2:TE_5745781-4" (at 93.98 165.1 0)
      (effects (font (size 1.27 1.27)) hide)
    )
    (property "Datasheet" "" (at 93.98 165.1 0)
      (effects (font (size 1.27 1.27)) hide)
    )
    (pin "1" (uuid d7f663d7-4063-4489-9180-9c285e1dd0a6))
    (pin "2" (uuid c5acb202-665c-48bb-8bf5-51b3f0045cb7))
    (pin "3" (uuid deab3a2f-421e-4f66-9294-61996a92aa4e))
    (pin "4" (uuid c969dc59-d5de-4648-b839-6057d11292a3))
    (pin "5" (uuid 32cfd790-54ce-462d-b99d-0bb4837451e2))
    (pin "6" (uuid 7d0e13fc-0c9d-4f7a-beb6-018fd64dbd7a))
    (pin "7" (uuid c933d0bb-149c-4f85-999d-86fcb47c13ad))
    (pin "8" (uuid 5ed4dffc-28ef-4371-88a7-c6fcc1464610))
    (pin "9" (uuid 19ff02e6-a10b-4cbd-8f64-942db28acc78))
    (instances
      (project "Reward_Pump_MasterBoard_AdaptaMaze_v0pt2"
        (path "/3ae13534-bd1a-45eb-b33e-41366b66755c"
          (reference "REW_PUMP@14") (unit 1)
        )
      )
    )
  )

  (symbol (lib_id "Reward_Pump_MasterBoard_AdaptaMaze_v0pt2-eagle-import:2.1MMJACKTHM") (at 190.5 91.44 90) (unit 1)
    (in_bom yes) (on_board yes) (dnp no)
    (uuid b3fcf534-53e6-4fb7-be95-b3a5208a7e6d)
    (property "Reference" "PUMPPOWER_FOR_4$3" (at 185.42 93.98 0)
      (effects (font (size 1.27 1.0795)) (justify left bottom) hide)
    )
    (property "Value" "2.1MMJACKTHM" (at 190.5 91.44 0)
      (effects (font (size 1.27 1.27)) hide)
    )
    (property "Footprint" "Reward_Pump_MasterBoard_AdaptaMaze_v0pt2:PJ-102A" (at 190.5 91.44 0)
      (effects (font (size 1.27 1.27)) hide)
    )
    (property "Datasheet" "" (at 190.5 91.44 0)
      (effects (font (size 1.27 1.27)) hide)
    )
    (pin "RING" (uuid 4fd6ed87-9bbe-4019-aa2a-57a79124b7aa))
    (pin "RING_SW" (uuid 343d7985-714a-4311-be91-db6c17788b9d))
    (pin "TIP" (uuid 7c50f17e-9c7d-4e35-8dc0-e666630136b1))
    (instances
      (project "Reward_Pump_MasterBoard_AdaptaMaze_v0pt2"
        (path "/3ae13534-bd1a-45eb-b33e-41366b66755c"
          (reference "PUMPPOWER_FOR_4$3") (unit 1)
        )
      )
    )
  )

  (symbol (lib_id "Reward_Pump_MasterBoard_AdaptaMaze_v0pt2-eagle-import:5745781-4") (at 50.8 50.8 0) (unit 1)
    (in_bom yes) (on_board yes) (dnp no)
    (uuid c266ead3-eed5-44b4-b04f-401037e707a8)
    (property "Reference" "REW_PUMP@1" (at 45.72 42.418 0)
      (effects (font (size 1.778 1.5113)) (justify left bottom))
    )
    (property "Value" "5745781-4" (at 45.72 60.96 0)
      (effects (font (size 1.778 1.5113)) (justify left bottom))
    )
    (property "Footprint" "Reward_Pump_MasterBoard_AdaptaMaze_v0pt2:TE_5745781-4" (at 50.8 50.8 0)
      (effects (font (size 1.27 1.27)) hide)
    )
    (property "Datasheet" "" (at 50.8 50.8 0)
      (effects (font (size 1.27 1.27)) hide)
    )
    (pin "1" (uuid ef8c2f5a-3e6d-413b-b476-dffb3840efd6))
    (pin "2" (uuid 75ea2306-d9b2-4f00-aab8-ab93db130bc9))
    (pin "3" (uuid ba735df3-8c00-46bb-8875-52219c285ab0))
    (pin "4" (uuid f4270f00-ee54-46fc-bb7b-a72a60b7e4e2))
    (pin "5" (uuid 6ea3bfdb-444e-4820-a760-0f4d0f86fcad))
    (pin "6" (uuid fe62dcd1-c6df-4228-b15d-538a72ac1c6e))
    (pin "7" (uuid dd3cda8d-79f2-45a8-945f-ee9673927a3e))
    (pin "8" (uuid cd6c402b-1e98-4265-8c76-207a6977e543))
    (pin "9" (uuid 411a66f1-b090-44c3-b48e-956019f7fcaa))
    (instances
      (project "Reward_Pump_MasterBoard_AdaptaMaze_v0pt2"
        (path "/3ae13534-bd1a-45eb-b33e-41366b66755c"
          (reference "REW_PUMP@1") (unit 1)
        )
      )
    )
  )

  (symbol (lib_id "Reward_Pump_MasterBoard_AdaptaMaze_v0pt2-eagle-import:5745781-4") (at 93.98 50.8 0) (unit 1)
    (in_bom yes) (on_board yes) (dnp no)
    (uuid c30c5280-1f6c-4765-8655-823e601cbc37)
    (property "Reference" "REW_PUMP@9" (at 88.9 42.418 0)
      (effects (font (size 1.778 1.5113)) (justify left bottom))
    )
    (property "Value" "5745781-4" (at 88.9 60.96 0)
      (effects (font (size 1.778 1.5113)) (justify left bottom))
    )
    (property "Footprint" "Reward_Pump_MasterBoard_AdaptaMaze_v0pt2:TE_5745781-4" (at 93.98 50.8 0)
      (effects (font (size 1.27 1.27)) hide)
    )
    (property "Datasheet" "" (at 93.98 50.8 0)
      (effects (font (size 1.27 1.27)) hide)
    )
    (pin "1" (uuid e8aa7d4c-4f14-44a0-98f3-4ae52c191073))
    (pin "2" (uuid c302e706-b9d1-46ed-84d4-917198702f7c))
    (pin "3" (uuid ecc578f4-dfa1-4e17-a1d9-36b580b09fbf))
    (pin "4" (uuid 2cb19340-6a43-4134-8f56-6a6b49ed9eff))
    (pin "5" (uuid 5aa81c10-c187-44df-ac9a-b8507aca0a5d))
    (pin "6" (uuid a4fc30cc-890e-4e73-a372-297bc45d3cb5))
    (pin "7" (uuid 70bd1e4f-9c22-4abc-8345-2977ab2927c6))
    (pin "8" (uuid 11a953aa-c7d4-494f-981a-2d3a745f0cdf))
    (pin "9" (uuid ea512b26-fdc3-4cc0-977d-d2c8b8e69221))
    (instances
      (project "Reward_Pump_MasterBoard_AdaptaMaze_v0pt2"
        (path "/3ae13534-bd1a-45eb-b33e-41366b66755c"
          (reference "REW_PUMP@9") (unit 1)
        )
      )
    )
  )

  (symbol (lib_id "Reward_Pump_MasterBoard_AdaptaMaze_v0pt2-eagle-import:5745781-4") (at 93.98 142.24 0) (unit 1)
    (in_bom yes) (on_board yes) (dnp no)
    (uuid d6aa77fe-7a58-4bba-a8bf-ee74cc0d6251)
    (property "Reference" "REW_PUMP@13" (at 88.9 133.858 0)
      (effects (font (size 1.778 1.5113)) (justify left bottom))
    )
    (property "Value" "5745781-4" (at 88.9 152.4 0)
      (effects (font (size 1.778 1.5113)) (justify left bottom))
    )
    (property "Footprint" "Reward_Pump_MasterBoard_AdaptaMaze_v0pt2:TE_5745781-4" (at 93.98 142.24 0)
      (effects (font (size 1.27 1.27)) hide)
    )
    (property "Datasheet" "" (at 93.98 142.24 0)
      (effects (font (size 1.27 1.27)) hide)
    )
    (pin "1" (uuid 9a19e8ab-14c6-46db-88da-f3b1bb5b1463))
    (pin "2" (uuid d274c4f4-e3b0-427f-b190-211739b3da4c))
    (pin "3" (uuid dbc2ccce-2a0b-4ad0-94f9-dbc5eb69aa23))
    (pin "4" (uuid f35105dd-ce8f-4e9e-8880-84d1375ca1d1))
    (pin "5" (uuid 15b662a4-63b7-4688-9b52-83011a13028f))
    (pin "6" (uuid 8e27f55c-f3cd-4a4c-b17e-40dd3d197e5d))
    (pin "7" (uuid 7d4fc51f-b6a1-493b-8022-8579181f158a))
    (pin "8" (uuid d151e622-1343-43b0-8090-47c9e5d750aa))
    (pin "9" (uuid a8d417b8-8c55-4a00-a292-34b6c39b9e12))
    (instances
      (project "Reward_Pump_MasterBoard_AdaptaMaze_v0pt2"
        (path "/3ae13534-bd1a-45eb-b33e-41366b66755c"
          (reference "REW_PUMP@13") (unit 1)
        )
      )
    )
  )

  (symbol (lib_id "Reward_Pump_MasterBoard_AdaptaMaze_v0pt2-eagle-import:5745781-4") (at 50.8 187.96 0) (unit 1)
    (in_bom yes) (on_board yes) (dnp no)
    (uuid e7cf165e-a58f-4ff6-9b83-b8aba0adf5cd)
    (property "Reference" "REW_PUMP@7" (at 45.72 179.578 0)
      (effects (font (size 1.778 1.5113)) (justify left bottom))
    )
    (property "Value" "5745781-4" (at 45.72 198.12 0)
      (effects (font (size 1.778 1.5113)) (justify left bottom))
    )
    (property "Footprint" "Reward_Pump_MasterBoard_AdaptaMaze_v0pt2:TE_5745781-4" (at 50.8 187.96 0)
      (effects (font (size 1.27 1.27)) hide)
    )
    (property "Datasheet" "" (at 50.8 187.96 0)
      (effects (font (size 1.27 1.27)) hide)
    )
    (pin "1" (uuid 25694ac5-b46e-4eba-a620-8ebeac021a93))
    (pin "2" (uuid 28c672f9-7c1a-4609-ba70-745ed2abb675))
    (pin "3" (uuid fdd90656-1886-499e-8165-4a8ed7f13681))
    (pin "4" (uuid 50b11627-d0b1-4efa-b357-acdb83404df9))
    (pin "5" (uuid d94f6291-5a6a-4914-ac2c-2df3cc64bc30))
    (pin "6" (uuid 7bc6ff7a-10f1-4c7b-8daa-58ba7d01fd92))
    (pin "7" (uuid 6c33e280-3bb6-4a19-9f5d-17688d1f6af3))
    (pin "8" (uuid 3e81f788-f474-4af3-aa66-6875f3d2f53e))
    (pin "9" (uuid 9cce52cf-4b3b-4b20-8157-8559831a369b))
    (instances
      (project "Reward_Pump_MasterBoard_AdaptaMaze_v0pt2"
        (path "/3ae13534-bd1a-45eb-b33e-41366b66755c"
          (reference "REW_PUMP@7") (unit 1)
        )
      )
    )
  )

  (sheet_instances
    (path "/" (page "1"))
  )
)
