(footprint "JST_S3B-PH-K-S(LF)(SN)" (version 20221018) (generator pcbnew)
  (layer "F.Cu")
  (fp_text reference "REF**" (at -1.70185 -2.553781) (layer "F.SilkS")
      (effects (font (size 1.168797 1.168797) (thickness 0.101634)) (justify left bottom))
    (tstamp 3b86a6a6-649a-40ec-a348-5e94b653c906)
  )
  (fp_text value "JST_S3B-PH-K-S(LF)(SN)" (at -1.905009 7.833418) (layer "F.Fab")
      (effects (font (size 1.169466 1.169466) (thickness 0.101693)) (justify left bottom))
    (tstamp c06404c8-09d8-4bc9-9499-39cb5b1cd11c)
  )
  (fp_line (start -1.95 -1.35) (end -1.95 6.25)
    (stroke (width 0.127) (type solid)) (layer "F.SilkS") (tstamp 178d9d1d-28c3-47d0-bf78-9af97a6b255c))
  (fp_line (start -1.95 6.25) (end 5.95 6.25)
    (stroke (width 0.127) (type solid)) (layer "F.SilkS") (tstamp 6487f76f-a4b9-49e5-a5cd-1ec156320e8c))
  (fp_line (start 5.95 -1.35) (end -1.95 -1.35)
    (stroke (width 0.127) (type solid)) (layer "F.SilkS") (tstamp ba606c62-1dc5-40c1-ac08-ab93879760d3))
  (fp_line (start 5.95 6.25) (end 5.95 -1.35)
    (stroke (width 0.127) (type solid)) (layer "F.SilkS") (tstamp eef6c59d-17a0-4e01-ac11-7392cd7d78b9))
  (fp_circle (center -0.6 -1.9) (end -0.5 -1.9)
    (stroke (width 0.2) (type solid)) (fill none) (layer "F.SilkS") (tstamp c0b43594-2a28-47fe-a4e5-9056dd5423fe))
  (fp_line (start -2.2 -1.6) (end 6.2 -1.6)
    (stroke (width 0.05) (type solid)) (layer "F.CrtYd") (tstamp 1ec1deae-2de8-47fa-a130-c6e0a127c6b5))
  (fp_line (start -2.2 6.5) (end -2.2 -1.6)
    (stroke (width 0.05) (type solid)) (layer "F.CrtYd") (tstamp d993c268-c7a4-4930-bb7e-07313f73e8aa))
  (fp_line (start 6.2 -1.6) (end 6.2 6.5)
    (stroke (width 0.05) (type solid)) (layer "F.CrtYd") (tstamp df193377-9a6a-4800-bf47-580f8210e1a8))
  (fp_line (start 6.2 6.5) (end -2.2 6.5)
    (stroke (width 0.05) (type solid)) (layer "F.CrtYd") (tstamp 8fc7e240-b000-44f2-bc6f-0e412f7bbb3d))
  (fp_line (start -1.95 -1.35) (end -1.95 6.25)
    (stroke (width 0.127) (type solid)) (layer "F.Fab") (tstamp 967f4cd4-16b8-4cde-94b9-1523db53229e))
  (fp_line (start -1.95 6.25) (end 5.95 6.25)
    (stroke (width 0.127) (type solid)) (layer "F.Fab") (tstamp fe15be37-a3b7-45b0-b625-203fafa0dd48))
  (fp_line (start 5.95 -1.35) (end -1.95 -1.35)
    (stroke (width 0.127) (type solid)) (layer "F.Fab") (tstamp 3d13ad64-d2df-4ed2-86c3-e761505d4bdc))
  (fp_line (start 5.95 6.25) (end 5.95 -1.35)
    (stroke (width 0.127) (type solid)) (layer "F.Fab") (tstamp afe55ef2-9baf-4b42-984e-93b045aab6f9))
  (fp_circle (center -0.6 -1.9) (end -0.5 -1.9)
    (stroke (width 0.2) (type solid)) (fill none) (layer "F.Fab") (tstamp 3267fae4-caab-47ba-896a-9b6c1a990ce3))
  (pad "1" thru_hole rect (at 0 0 180) (size 1.308 1.308) (drill 0.8) (layers "*.Cu" "*.Mask")
    (solder_mask_margin 0.1016) (thermal_bridge_angle 45) (tstamp 8d04ca43-7257-4fab-9b07-59a2a8f1ef5c))
  (pad "2" thru_hole circle (at 2 0 180) (size 1.308 1.308) (drill 0.8) (layers "*.Cu" "*.Mask")
    (solder_mask_margin 0.1016) (tstamp c58d6d5e-eb33-4a91-8257-38009555d3e8))
  (pad "3" thru_hole circle (at 4 0 180) (size 1.308 1.308) (drill 0.8) (layers "*.Cu" "*.Mask")
    (solder_mask_margin 0.1016) (tstamp 0eba887f-1689-409f-b395-d6b802536bcd))
)
