(footprint "JST_S3B-PH-K-S(LF)(SN)" (version 20221018) (generator pcbnew)
  (layer "F.Cu")
  (fp_text reference "REF**" (at -1.70185 -2.553781) (layer "F.SilkS")
      (effects (font (size 1.168797 1.168797) (thickness 0.101634)) (justify left bottom))
    (tstamp 0e627d9c-64bc-41a3-a150-223f7752315a)
  )
  (fp_text value "JST_S3B-PH-K-S(LF)(SN)" (at -1.905009 7.833418) (layer "F.Fab")
      (effects (font (size 1.169466 1.169466) (thickness 0.101693)) (justify left bottom))
    (tstamp 499e906a-08b8-4690-88b5-cf9e8e2704a5)
  )
  (fp_line (start -1.95 -1.35) (end -1.95 6.25)
    (stroke (width 0.127) (type solid)) (layer "F.SilkS") (tstamp 3bee0063-26ca-4da1-bf3c-2cf06060829d))
  (fp_line (start -1.95 6.25) (end 5.95 6.25)
    (stroke (width 0.127) (type solid)) (layer "F.SilkS") (tstamp 2533d240-9be8-45a2-b521-eb847e47b53b))
  (fp_line (start 5.95 -1.35) (end -1.95 -1.35)
    (stroke (width 0.127) (type solid)) (layer "F.SilkS") (tstamp c7606ede-7aff-48fa-af73-219c845ce451))
  (fp_line (start 5.95 6.25) (end 5.95 -1.35)
    (stroke (width 0.127) (type solid)) (layer "F.SilkS") (tstamp 16a156ba-30e0-40c4-93ef-dda629188e91))
  (fp_circle (center -0.6 -1.9) (end -0.5 -1.9)
    (stroke (width 0.2) (type solid)) (fill none) (layer "F.SilkS") (tstamp 31a3e3b6-5733-4c22-a000-723f2d0ff51b))
  (fp_line (start -2.2 -1.6) (end 6.2 -1.6)
    (stroke (width 0.05) (type solid)) (layer "F.CrtYd") (tstamp 01268ecf-f656-404a-a13f-80da1fb3792a))
  (fp_line (start -2.2 6.5) (end -2.2 -1.6)
    (stroke (width 0.05) (type solid)) (layer "F.CrtYd") (tstamp 53c07e4c-2531-45b2-976b-b09b6f424387))
  (fp_line (start 6.2 -1.6) (end 6.2 6.5)
    (stroke (width 0.05) (type solid)) (layer "F.CrtYd") (tstamp 4a2c2256-336c-4bff-8ea2-5a83dd12d071))
  (fp_line (start 6.2 6.5) (end -2.2 6.5)
    (stroke (width 0.05) (type solid)) (layer "F.CrtYd") (tstamp 86f7ae02-9fa9-4096-bc39-215eff165bca))
  (fp_line (start -1.95 -1.35) (end -1.95 6.25)
    (stroke (width 0.127) (type solid)) (layer "F.Fab") (tstamp f67b6198-d38b-4f4c-ac47-9534eb74ec8f))
  (fp_line (start -1.95 6.25) (end 5.95 6.25)
    (stroke (width 0.127) (type solid)) (layer "F.Fab") (tstamp c7a46e91-c5b1-49c0-8b07-dd23b2081613))
  (fp_line (start 5.95 -1.35) (end -1.95 -1.35)
    (stroke (width 0.127) (type solid)) (layer "F.Fab") (tstamp 51a32677-83f1-4b35-814a-1288bbaa1b8a))
  (fp_line (start 5.95 6.25) (end 5.95 -1.35)
    (stroke (width 0.127) (type solid)) (layer "F.Fab") (tstamp 3fbbe9d6-09f1-447b-b423-65918be4f082))
  (fp_circle (center -0.6 -1.9) (end -0.5 -1.9)
    (stroke (width 0.2) (type solid)) (fill none) (layer "F.Fab") (tstamp f54f4776-0227-42af-96ed-43864fd34180))
  (pad "1" thru_hole rect (at 0 0 180) (size 1.308 1.308) (drill 0.8) (layers "*.Cu" "*.Mask")
    (solder_mask_margin 0.1016) (thermal_bridge_angle 45) (tstamp 73b4afea-71dd-4951-9488-a25842948d05))
  (pad "2" thru_hole circle (at 2 0 180) (size 1.308 1.308) (drill 0.8) (layers "*.Cu" "*.Mask")
    (solder_mask_margin 0.1016) (tstamp f9a3992b-3612-4da2-8458-72fee6775a6f))
  (pad "3" thru_hole circle (at 4 0 180) (size 1.308 1.308) (drill 0.8) (layers "*.Cu" "*.Mask")
    (solder_mask_margin 0.1016) (tstamp ba3762d5-edef-4d49-bf43-d592961a6b3f))
)
