(footprint "LTE-302" (version 20221018) (generator pcbnew)
  (layer "F.Cu")
  (fp_text reference "REF**" (at 0 0) (layer "F.SilkS")
      (effects (font (size 1.27 1.27) (thickness 0.15)))
    (tstamp 23fe69a0-b9f7-4082-b166-b351be8bde3f)
  )
  (fp_text value "" (at 0 0) (layer "F.Fab")
      (effects (font (size 1.27 1.27) (thickness 0.15)))
    (tstamp decb9138-bb97-4f10-833c-e662a8782699)
  )
  (fp_line (start -2.159 -0.762) (end -0.381 -0.762)
    (stroke (width 0.127) (type solid)) (layer "F.SilkS") (tstamp 66897089-6304-4217-8da7-2311d4f8c44a))
  (fp_line (start -2.159 0.762) (end -2.159 -0.762)
    (stroke (width 0.127) (type solid)) (layer "F.SilkS") (tstamp 3600a115-304b-48b7-9539-499f337c3374))
  (fp_line (start -0.762 0.762) (end -2.159 0.762)
    (stroke (width 0.127) (type solid)) (layer "F.SilkS") (tstamp ca685a2e-1a13-4a96-98f5-bd8ec19083a6))
  (fp_line (start -0.381 -0.762) (end 0.381 -0.762)
    (stroke (width 0.127) (type solid)) (layer "F.SilkS") (tstamp 5f3247b8-6fdd-4685-a628-c9f5af1138c4))
  (fp_line (start -0.381 0) (end -0.381 -0.762)
    (stroke (width 0.127) (type solid)) (layer "F.SilkS") (tstamp 5d236b54-e3b8-404a-ab97-ddab6692afd5))
  (fp_line (start -0.381 0) (end -0.381 0.762)
    (stroke (width 0.127) (type solid)) (layer "F.SilkS") (tstamp fce330d7-1783-44b9-8da7-4b411f2b93a6))
  (fp_line (start -0.381 0) (end 0.381 -0.762)
    (stroke (width 0.127) (type solid)) (layer "F.SilkS") (tstamp a6e3918d-7e16-4d2a-855f-a5e002e33239))
  (fp_line (start -0.381 0.762) (end -0.762 0.762)
    (stroke (width 0.127) (type solid)) (layer "F.SilkS") (tstamp 3148090f-ba5a-48fb-9808-60b463aa524b))
  (fp_line (start 0.381 -0.762) (end 0.381 0.762)
    (stroke (width 0.127) (type solid)) (layer "F.SilkS") (tstamp 7a29f449-8c63-41a5-87a1-c3024a9ff703))
  (fp_line (start 0.381 -0.762) (end 2.159 -0.762)
    (stroke (width 0.127) (type solid)) (layer "F.SilkS") (tstamp 99a16959-1dd6-4902-a557-53648943c2a5))
  (fp_line (start 0.381 0.762) (end -0.381 0)
    (stroke (width 0.127) (type solid)) (layer "F.SilkS") (tstamp 3a5ce595-0660-4884-a3f9-f6354b0962c9))
  (fp_line (start 0.381 0.762) (end -0.381 0.762)
    (stroke (width 0.127) (type solid)) (layer "F.SilkS") (tstamp 95af541c-4348-4e32-aee1-ffdf87e94d94))
  (fp_line (start 0.762 0.762) (end 0.381 0.762)
    (stroke (width 0.127) (type solid)) (layer "F.SilkS") (tstamp 16a67a39-da17-4901-b41b-1bfd59cd7d51))
  (fp_line (start 2.159 -0.762) (end 2.159 0.762)
    (stroke (width 0.127) (type solid)) (layer "F.SilkS") (tstamp a8809601-9613-4d93-8cc7-d01a1ebb5969))
  (fp_line (start 2.159 0.762) (end 0.762 0.762)
    (stroke (width 0.127) (type solid)) (layer "F.SilkS") (tstamp bb707cf3-6cf1-4959-b8c2-54cbc63aad16))
  (fp_arc (start 0.762 0.762) (mid 0 1.524) (end -0.762 0.762)
    (stroke (width 0.127) (type solid)) (layer "F.SilkS") (tstamp 362273b0-5c0f-4531-a5ca-5119623bda11))
  (pad "A" thru_hole circle (at 1.27 0) (size 1.308 1.308) (drill 0.8) (layers "*.Cu" "*.Mask")
    (solder_mask_margin 0.1016) (tstamp 63e15f5f-836e-4a69-ab4b-75ccf80818df))
  (pad "C" thru_hole circle (at -1.27 0) (size 1.308 1.308) (drill 0.8) (layers "*.Cu" "*.Mask")
    (solder_mask_margin 0.1016) (tstamp 7f27d6b2-35a6-4123-8020-1f0b326f2579))
)
