(kicad_pcb (version 20221018) (generator pcbnew)

  (general
    (thickness 1.6)
  )

  (paper "A4")
  (layers
    (0 "F.Cu" signal)
    (31 "B.Cu" signal)
    (32 "B.Adhes" user "B.Adhesive")
    (33 "F.Adhes" user "F.Adhesive")
    (34 "B.Paste" user)
    (35 "F.Paste" user)
    (36 "B.SilkS" user "B.Silkscreen")
    (37 "F.SilkS" user "F.Silkscreen")
    (38 "B.Mask" user)
    (39 "F.Mask" user)
    (40 "Dwgs.User" user "User.Drawings")
    (41 "Cmts.User" user "User.Comments")
    (42 "Eco1.User" user "User.Eco1")
    (43 "Eco2.User" user "User.Eco2")
    (44 "Edge.Cuts" user)
    (45 "Margin" user)
    (46 "B.CrtYd" user "B.Courtyard")
    (47 "F.CrtYd" user "F.Courtyard")
    (48 "B.Fab" user)
    (49 "F.Fab" user)
    (50 "User.1" user)
    (51 "User.2" user)
    (52 "User.3" user)
    (53 "User.4" user)
    (54 "User.5" user)
    (55 "User.6" user)
    (56 "User.7" user)
    (57 "User.8" user)
    (58 "User.9" user)
  )

  (setup
    (pad_to_mask_clearance 0)
    (pcbplotparams
      (layerselection 0x00010fc_ffffffff)
      (plot_on_all_layers_selection 0x0000000_00000000)
      (disableapertmacros false)
      (usegerberextensions false)
      (usegerberattributes true)
      (usegerberadvancedattributes true)
      (creategerberjobfile true)
      (dashed_line_dash_ratio 12.000000)
      (dashed_line_gap_ratio 3.000000)
      (svgprecision 4)
      (plotframeref false)
      (viasonmask false)
      (mode 1)
      (useauxorigin false)
      (hpglpennumber 1)
      (hpglpenspeed 20)
      (hpglpendiameter 15.000000)
      (dxfpolygonmode true)
      (dxfimperialunits true)
      (dxfusepcbnewfont true)
      (psnegative false)
      (psa4output false)
      (plotreference true)
      (plotvalue true)
      (plotinvisibletext false)
      (sketchpadsonfab false)
      (subtractmaskfromsilk false)
      (outputformat 1)
      (mirror false)
      (drillshape 1)
      (scaleselection 1)
      (outputdirectory "")
    )
  )

  (net 0 "")
  (net 1 "+5V")
  (net 2 "N$1")
  (net 3 "N$2")
  (net 4 "GND")
  (net 5 "LED1_SIG")
  (net 6 "LED2_SIG")
  (net 7 "N$4")
  (net 8 "SENSOR_SIG1")
  (net 9 "SENSOR_SIG2")
  (net 10 "N$3")

  (footprint "Well_PCB:LTE-302" (layer "F.Cu")
    (tstamp 0afa5faa-e39e-441c-87cf-2a15253c1ab1)
    (at 161.5011 105.0036 -90)
    (fp_text reference "LED_IR2" (at 0 0 -90) (layer "F.SilkS") hide
        (effects (font (size 1.27 1.27) (thickness 0.15)))
      (tstamp 38ce3b13-4105-47f0-af35-3563e52441bf)
    )
    (fp_text value "LTE-302" (at 0 0 -90) (layer "F.Fab") hide
        (effects (font (size 1.27 1.27) (thickness 0.15)))
      (tstamp 69e2b842-e9c7-4333-93b1-85c5a393734a)
    )
    (fp_line (start -2.159 -0.762) (end -0.381 -0.762)
      (stroke (width 0.127) (type solid)) (layer "F.SilkS") (tstamp a87da192-16a6-4ea5-ae20-09aef3dccb2d))
    (fp_line (start -2.159 0.762) (end -2.159 -0.762)
      (stroke (width 0.127) (type solid)) (layer "F.SilkS") (tstamp 4d2527a1-1b8f-4ab6-9d37-dd150a674199))
    (fp_line (start -0.762 0.762) (end -2.159 0.762)
      (stroke (width 0.127) (type solid)) (layer "F.SilkS") (tstamp 3195909b-27ff-47fc-9c8d-fffdfcbbf16d))
    (fp_line (start -0.381 -0.762) (end 0.381 -0.762)
      (stroke (width 0.127) (type solid)) (layer "F.SilkS") (tstamp d4752b31-b3fd-4fc6-a50f-047a06f4f2b5))
    (fp_line (start -0.381 0) (end -0.381 -0.762)
      (stroke (width 0.127) (type solid)) (layer "F.SilkS") (tstamp b8b860c0-6b89-4fec-ac94-991dd3854daa))
    (fp_line (start -0.381 0) (end -0.381 0.762)
      (stroke (width 0.127) (type solid)) (layer "F.SilkS") (tstamp ab824370-e478-41a3-a5b8-385329f9c35e))
    (fp_line (start -0.381 0) (end 0.381 -0.762)
      (stroke (width 0.127) (type solid)) (layer "F.SilkS") (tstamp 3852db13-0394-4749-8119-72e37059f8f5))
    (fp_line (start -0.381 0.762) (end -0.762 0.762)
      (stroke (width 0.127) (type solid)) (layer "F.SilkS") (tstamp 5292d686-317d-4cbc-a90d-c06acc19dc9c))
    (fp_line (start 0.381 -0.762) (end 0.381 0.762)
      (stroke (width 0.127) (type solid)) (layer "F.SilkS") (tstamp 99850488-4ef3-4a89-b598-99c3e979d3d4))
    (fp_line (start 0.381 -0.762) (end 2.159 -0.762)
      (stroke (width 0.127) (type solid)) (layer "F.SilkS") (tstamp 8ac2fadd-a800-403a-b177-30476f4d6de9))
    (fp_line (start 0.381 0.762) (end -0.381 0)
      (stroke (width 0.127) (type solid)) (layer "F.SilkS") (tstamp 0f2a6705-29c2-40ae-89cb-13198a620b66))
    (fp_line (start 0.381 0.762) (end -0.381 0.762)
      (stroke (width 0.127) (type solid)) (layer "F.SilkS") (tstamp b70ab365-316a-49c5-8af7-40392b5aa18a))
    (fp_line (start 0.762 0.762) (end 0.381 0.762)
      (stroke (width 0.127) (type solid)) (layer "F.SilkS") (tstamp 5245e2ab-fc87-4248-a1de-98d49372f47d))
    (fp_line (start 2.159 -0.762) (end 2.159 0.762)
      (stroke (width 0.127) (type solid)) (layer "F.SilkS") (tstamp 296d08ec-af68-4feb-949c-d66ede9bc512))
    (fp_line (start 2.159 0.762) (end 0.762 0.762)
      (stroke (width 0.127) (type solid)) (layer "F.SilkS") (tstamp c0888e12-9aa0-48aa-89da-208398547481))
    (fp_arc (start 0.762 0.762) (mid 0 1.524) (end -0.762 0.762)
      (stroke (width 0.127) (type solid)) (layer "F.SilkS") (tstamp caa579f9-1abe-4d6e-ace7-57bf2f8ee49b))
    (pad "A" thru_hole circle (at 1.27 0 270) (size 1.308 1.308) (drill 0.8) (layers "*.Cu" "*.Mask")
      (net 10 "N$3") (solder_mask_margin 0.1016) (tstamp 135faf10-a934-40b5-8c38-454e39835f83))
    (pad "C" thru_hole circle (at -1.27 0 270) (size 1.308 1.308) (drill 0.8) (layers "*.Cu" "*.Mask")
      (net 4 "GND") (solder_mask_margin 0.1016) (tstamp 1de9959a-469c-4ad8-99e8-b637b09615d0))
  )

  (footprint "Well_PCB:LED3MM" (layer "F.Cu")
    (tstamp 28dbb63d-3d28-43d4-a4e8-e365978f38d9)
    (at 143.5011 110.0036)
    (descr "<B>LED</B><p>\n3 mm, round")
    (fp_text reference "LED2" (at -2.095 3.619) (layer "F.SilkS")
        (effects (font (size 1.1557 1.1557) (thickness 0.1143)) (justify left))
      (tstamp 074b583e-711a-4841-90b3-5d9e160dec9e)
    )
    (fp_text value "" (at 1.905 1.651) (layer "F.Fab")
        (effects (font (size 1.1557 1.1557) (thickness 0.1143)) (justify left))
      (tstamp d763570b-7b0e-4649-b2ad-b8bd5da51759)
    )
    (fp_arc (start -1.7929 -0.9562) (mid -1.045438 -1.7424) (end 0 -2.032)
      (stroke (width 0.254) (type solid)) (layer "F.SilkS") (tstamp 668cf8ca-73ab-4d8a-afa8-4c7da20a2e32))
    (fp_arc (start -1.2192 -0.9144) (mid -0.681554 -1.363107) (end 0 -1.524)
      (stroke (width 0.1524) (type solid)) (layer "F.SilkS") (tstamp af269a70-d975-45d1-859b-1a2c4e49cb8c))
    (fp_arc (start 0 -2.032) (mid 0.861864 -1.840173) (end 1.561 -1.3009)
      (stroke (width 0.254) (type solid)) (layer "F.SilkS") (tstamp 96c52c6b-e436-418d-b0e9-d8185621fe0d))
    (fp_arc (start 0 -1.524) (mid 0.697339 -1.355082) (end 1.2401 -0.885801)
      (stroke (width 0.1524) (type solid)) (layer "F.SilkS") (tstamp e401c6a4-e751-4a52-bb7b-476b017cfd2e))
    (fp_arc (start 0 1.524) (mid -0.669593 1.369018) (end -1.203 0.9356)
      (stroke (width 0.1524) (type solid)) (layer "F.SilkS") (tstamp a2a46071-1593-4756-a156-acffae0b4499))
    (fp_arc (start 0 2.032) (mid -1.019924 1.757525) (end -1.7643 1.0082)
      (stroke (width 0.254) (type solid)) (layer "F.SilkS") (tstamp 6974ed01-0a8f-49de-b737-5f5afcf3069e))
    (fp_arc (start 1.203 0.9356) (mid 0.669593 1.369018) (end 0 1.524)
      (stroke (width 0.1524) (type solid)) (layer "F.SilkS") (tstamp e951ec64-83f9-422e-80af-65243cf46887))
    (fp_arc (start 1.5512 1.3126) (mid 0.854953 1.843405) (end 0 2.032)
      (stroke (width 0.254) (type solid)) (layer "F.SilkS") (tstamp fb0dd4ff-bbb0-4964-8502-a3339ad9c998))
    (fp_line (start 1.5748 1.27) (end 1.5748 -1.27)
      (stroke (width 0.254) (type solid)) (layer "F.Fab") (tstamp ea9ed637-8f76-491e-84b2-4a1d191ba737))
    (fp_arc (start -2.032 0) (mid -1.970339 -0.496775) (end -1.7891 -0.9634)
      (stroke (width 0.254) (type solid)) (layer "F.Fab") (tstamp 8665d2cf-1833-47f2-9c96-2547ab20334f))
    (fp_arc (start -1.7306 1.065) (mid -1.95521 0.553417) (end -2.032 0)
      (stroke (width 0.254) (type solid)) (layer "F.Fab") (tstamp ba2576fa-a91a-4f92-a5dc-9db19f3d72e4))
    (fp_arc (start -1.524 0) (mid -1.432981 -0.518783) (end -1.1708 -0.9756)
      (stroke (width 0.1524) (type solid)) (layer "F.Fab") (tstamp 61896b58-8058-46e9-84a0-cd971dbdceef))
    (fp_arc (start -1.1391 1.0125) (mid -1.42454 0.5416) (end -1.524 0)
      (stroke (width 0.1524) (type solid)) (layer "F.Fab") (tstamp 659751d1-81d2-4d7b-acdd-8510f0de53be))
    (fp_arc (start -1.016 0) (mid -0.71842 -0.71842) (end 0 -1.016)
      (stroke (width 0.1524) (type solid)) (layer "F.Fab") (tstamp aa14695b-36ac-4aed-8951-0c11ed430fb7))
    (fp_arc (start -0.635 0) (mid -0.449013 -0.449013) (end 0 -0.635)
      (stroke (width 0.1524) (type solid)) (layer "F.Fab") (tstamp 8706b697-1107-4aa9-9f93-3829e2a7a015))
    (fp_arc (start 0.635 0) (mid 0.449013 0.449013) (end 0 0.635)
      (stroke (width 0.1524) (type solid)) (layer "F.Fab") (tstamp 5a9f6441-7a48-41d7-b37e-9e132e92d0bf))
    (fp_arc (start 1.016 0) (mid 0.71842 0.71842) (end 0 1.016)
      (stroke (width 0.1524) (type solid)) (layer "F.Fab") (tstamp 48f8500e-133a-4678-b976-12130cbf9a0d))
    (fp_arc (start 1.1571 -0.9918) (mid 1.429332 -0.528744) (end 1.524 0)
      (stroke (width 0.1524) (type solid)) (layer "F.Fab") (tstamp d797b147-71b8-4668-ad56-56a3ad43ffb7))
    (fp_arc (start 1.524 0) (mid 1.432981 0.518783) (end 1.1708 0.9756)
      (stroke (width 0.1524) (type solid)) (layer "F.Fab") (tstamp 2cbafa7b-0061-4908-ada1-386d7de78ba9))
    (pad "A" thru_hole roundrect (at -1.27 0) (size 1.3208 1.3208) (drill 0.8128) (layers "*.Cu" "*.Mask") (roundrect_rratio 0.25)
      (chamfer_ratio 0.2928932188) (chamfer top_left top_right bottom_left bottom_right)
      (net 3 "N$2") (solder_mask_margin 0.1016) (thermal_bridge_angle 45) (tstamp 8671b617-d7ed-41cb-8f1c-f8fbb8c38c85))
    (pad "K" thru_hole roundrect (at 1.27 0) (size 1.3208 1.3208) (drill 0.8128) (layers "*.Cu" "*.Mask") (roundrect_rratio 0.25)
      (chamfer_ratio 0.2928932188) (chamfer top_left top_right bottom_left bottom_right)
      (net 4 "GND") (solder_mask_margin 0.1016) (thermal_bridge_angle 45) (tstamp 9d0454c2-1154-4644-b674-8c7334ced8a8))
  )

  (footprint "Well_PCB:LTR-301" (layer "F.Cu")
    (tstamp 9acf0329-66b1-4a0f-85e0-b97c94926980)
    (at 135.5011 105.0036 90)
    (descr "<h3>LTR-301 IR Phototransistor (Side-Receiving)</h3>\n<p><a href=\"https://www.sparkfun.com/datasheets/Components/LTR-301.pdf\">Datasheet</a></p>\n<p>Specifications:\n<ul>\n<li>Pin Count: 2</li>\n<li>Area: 4.4 x 0.75 mm</li>\n<li>Pitch: 2.54 mm</li>\n</ul>\n<p>Devices Using:</p>\n<ul>\n<li>LTR-301</li>\n</ul>")
    (fp_text reference "BEAM_SENSOR2" (at -0.286 2 90) (layer "F.SilkS")
        (effects (font (size 0.512064 0.512064) (thickness 0.097536)) (justify right))
      (tstamp 3d4c75a5-088e-4f5f-97e5-89c9cfe94b1c)
    )
    (fp_text value "LTR-301" (at 2.286 0) (layer "F.Fab")
        (effects (font (size 0.512064 0.512064) (thickness 0.097536)) (justify right))
      (tstamp aba93dd2-914e-4523-abdc-f617fe182aad)
    )
    (fp_line (start -2.159 -0.762) (end 2.159 -0.762)
      (stroke (width 0.127) (type solid)) (layer "F.SilkS") (tstamp c7410940-3652-419c-be87-6c77f943aabf))
    (fp_line (start -2.159 0.762) (end -2.159 -0.762)
      (stroke (width 0.127) (type solid)) (layer "F.SilkS") (tstamp 473a32c8-a868-4cac-a26c-d29692e82531))
    (fp_line (start -0.762 0.762) (end -2.159 0.762)
      (stroke (width 0.127) (type solid)) (layer "F.SilkS") (tstamp e139f73e-be26-4904-a1c8-b59ac584be81))
    (fp_line (start -0.381 0) (end 0.381 0)
      (stroke (width 0.127) (type solid)) (layer "F.SilkS") (tstamp 653d94cb-5917-4476-b21b-aa01993ae27b))
    (fp_line (start 0 -0.254) (end -0.381 0)
      (stroke (width 0.127) (type solid)) (layer "F.SilkS") (tstamp b1d397cf-a872-49b4-bffe-af1cea742f11))
    (fp_line (start 0 0.254) (end -0.381 0)
      (stroke (width 0.127) (type solid)) (layer "F.SilkS") (tstamp 49061452-afd0-4d9c-ace7-1b94c79954d5))
    (fp_line (start 0.762 0.762) (end -0.762 0.762)
      (stroke (width 0.127) (type solid)) (layer "F.SilkS") (tstamp 96783695-6730-4168-bd0e-192492a96807))
    (fp_line (start 2.159 -0.762) (end 2.159 0.762)
      (stroke (width 0.127) (type solid)) (layer "F.SilkS") (tstamp 32a924af-3337-4ccf-b6bc-03b24ff33a54))
    (fp_line (start 2.159 0.762) (end 0.762 0.762)
      (stroke (width 0.127) (type solid)) (layer "F.SilkS") (tstamp 2cd17847-0f8c-47b0-9c5c-e84963a001bd))
    (fp_arc (start 0.762 0.762) (mid 0 1.524) (end -0.762 0.762)
      (stroke (width 0.127) (type solid)) (layer "F.SilkS") (tstamp 2294a978-6ff2-4c1f-bba2-717d8c6734dd))
    (pad "C" thru_hole circle (at 1.27 0 90) (size 1.308 1.308) (drill 0.8) (layers "*.Cu" "*.Mask")
      (net 9 "SENSOR_SIG2") (solder_mask_margin 0.1016) (tstamp a599f274-82a5-49fe-937d-310b6ac5c02d))
    (pad "E" thru_hole circle (at -1.27 0 90) (size 1.308 1.308) (drill 0.8) (layers "*.Cu" "*.Mask")
      (net 4 "GND") (solder_mask_margin 0.1016) (tstamp 0b364caf-7a5b-4089-9f57-407a6d98c45f))
  )

  (footprint "Well_PCB:LTE-302" (layer "F.Cu")
    (tstamp ad024abb-d02b-4d9f-8e4f-a037c8023d28)
    (at 148.5011 118.0036 180)
    (fp_text reference "LED_IR1" (at 0 0 180) (layer "F.SilkS") hide
        (effects (font (size 1.27 1.27) (thickness 0.15)) (justify right top))
      (tstamp c507c578-c73a-471d-a22c-a9e52953dc5a)
    )
    (fp_text value "LTE-302" (at 0 0 180) (layer "F.Fab") hide
        (effects (font (size 1.27 1.27) (thickness 0.15)) (justify right top))
      (tstamp 5e3a5ab3-c660-497a-9638-bac8dbef021e)
    )
    (fp_line (start -2.159 -0.762) (end -0.381 -0.762)
      (stroke (width 0.127) (type solid)) (layer "F.SilkS") (tstamp 6714a0b1-9674-435f-b2f3-60cbd8da0921))
    (fp_line (start -2.159 0.762) (end -2.159 -0.762)
      (stroke (width 0.127) (type solid)) (layer "F.SilkS") (tstamp 2d7d9dc7-870e-47ff-9968-4da83afcc416))
    (fp_line (start -0.762 0.762) (end -2.159 0.762)
      (stroke (width 0.127) (type solid)) (layer "F.SilkS") (tstamp 9bbbd5c9-4247-494f-ac30-4566e772d0ec))
    (fp_line (start -0.381 -0.762) (end 0.381 -0.762)
      (stroke (width 0.127) (type solid)) (layer "F.SilkS") (tstamp 4dddee64-87bf-4906-b754-69fa36d0463d))
    (fp_line (start -0.381 0) (end -0.381 -0.762)
      (stroke (width 0.127) (type solid)) (layer "F.SilkS") (tstamp dc6a44a2-40cf-4b7e-b0c1-97f00fcb5031))
    (fp_line (start -0.381 0) (end -0.381 0.762)
      (stroke (width 0.127) (type solid)) (layer "F.SilkS") (tstamp 6030cfa8-fc68-4e4e-bfbb-22cd1133194a))
    (fp_line (start -0.381 0) (end 0.381 -0.762)
      (stroke (width 0.127) (type solid)) (layer "F.SilkS") (tstamp 45a522b4-3d52-4131-85ca-7bed1064e022))
    (fp_line (start -0.381 0.762) (end -0.762 0.762)
      (stroke (width 0.127) (type solid)) (layer "F.SilkS") (tstamp 4d6e1459-1442-4e2a-a03c-19813005368a))
    (fp_line (start 0.381 -0.762) (end 0.381 0.762)
      (stroke (width 0.127) (type solid)) (layer "F.SilkS") (tstamp d3bbfce0-3edf-4fde-81c5-a88ad60f5711))
    (fp_line (start 0.381 -0.762) (end 2.159 -0.762)
      (stroke (width 0.127) (type solid)) (layer "F.SilkS") (tstamp c8ed3b62-40ab-46bc-8262-932948737d99))
    (fp_line (start 0.381 0.762) (end -0.381 0)
      (stroke (width 0.127) (type solid)) (layer "F.SilkS") (tstamp 2602db8c-c8a5-47cc-a266-13f76ac1d93e))
    (fp_line (start 0.381 0.762) (end -0.381 0.762)
      (stroke (width 0.127) (type solid)) (layer "F.SilkS") (tstamp 20000424-0081-4f12-b0fe-355f552fa61e))
    (fp_line (start 0.762 0.762) (end 0.381 0.762)
      (stroke (width 0.127) (type solid)) (layer "F.SilkS") (tstamp fafdb2bb-5d52-41f6-8979-2ccd27d1b6ad))
    (fp_line (start 2.159 -0.762) (end 2.159 0.762)
      (stroke (width 0.127) (type solid)) (layer "F.SilkS") (tstamp c42019e2-659a-4776-b860-7e242a6ca8ff))
    (fp_line (start 2.159 0.762) (end 0.762 0.762)
      (stroke (width 0.127) (type solid)) (layer "F.SilkS") (tstamp de7e09b8-c420-4bfc-afa3-11207d769b63))
    (fp_arc (start 0.762 0.762) (mid 0 1.524) (end -0.762 0.762)
      (stroke (width 0.127) (type solid)) (layer "F.SilkS") (tstamp cb544abf-5da8-4677-b875-5d2c9517cd6a))
    (pad "A" thru_hole circle (at 1.27 0 180) (size 1.308 1.308) (drill 0.8) (layers "*.Cu" "*.Mask")
      (net 7 "N$4") (solder_mask_margin 0.1016) (tstamp 96eec7dd-3ac2-4257-a2e0-346e218a5e39))
    (pad "C" thru_hole circle (at -1.27 0 180) (size 1.308 1.308) (drill 0.8) (layers "*.Cu" "*.Mask")
      (net 4 "GND") (solder_mask_margin 0.1016) (tstamp 7095b464-37e1-40d4-89b6-2a1f30ffebf8))
  )

  (footprint "Well_PCB:LED3MM" (layer "F.Cu")
    (tstamp ae6b1ded-b1fe-4e6b-8d40-9f6892ef68d8)
    (at 153.5011 110.0036 180)
    (descr "<B>LED</B><p>\n3 mm, round")
    (fp_text reference "LED1" (at -2.095 -2.381) (layer "F.SilkS")
        (effects (font (size 1.1557 1.1557) (thickness 0.1143)) (justify right))
      (tstamp 5b1883f2-f9a2-46d0-b336-855c6de52c00)
    )
    (fp_text value "" (at 1.905 1.651) (layer "F.Fab")
        (effects (font (size 1.1557 1.1557) (thickness 0.1143)) (justify right))
      (tstamp 48df38b7-6eff-4a01-a7b1-8b4d649816b7)
    )
    (fp_arc (start -1.7929 -0.9562) (mid -1.045438 -1.7424) (end 0 -2.032)
      (stroke (width 0.254) (type solid)) (layer "F.SilkS") (tstamp da64a90c-2040-40ef-94c5-e92e05c6c96b))
    (fp_arc (start -1.2192 -0.9144) (mid -0.681554 -1.363107) (end 0 -1.524)
      (stroke (width 0.1524) (type solid)) (layer "F.SilkS") (tstamp ae075b58-77f0-492d-b6f4-9ad9861e3fd9))
    (fp_arc (start 0 -2.032) (mid 0.861864 -1.840173) (end 1.561 -1.3009)
      (stroke (width 0.254) (type solid)) (layer "F.SilkS") (tstamp bbb08cd0-e7c8-4e2f-b682-512b56f109a7))
    (fp_arc (start 0 -1.524) (mid 0.697339 -1.355082) (end 1.2401 -0.885801)
      (stroke (width 0.1524) (type solid)) (layer "F.SilkS") (tstamp afb03014-21e5-4273-b9bf-b90bc85697fc))
    (fp_arc (start 0 1.524) (mid -0.669593 1.369018) (end -1.203 0.9356)
      (stroke (width 0.1524) (type solid)) (layer "F.SilkS") (tstamp cf83d3e0-4867-4c3c-b9de-f492619a28e5))
    (fp_arc (start 0 2.032) (mid -1.019924 1.757525) (end -1.7643 1.0082)
      (stroke (width 0.254) (type solid)) (layer "F.SilkS") (tstamp 899157e1-78f8-4539-bd22-6757dd6bfd4f))
    (fp_arc (start 1.203 0.9356) (mid 0.669593 1.369018) (end 0 1.524)
      (stroke (width 0.1524) (type solid)) (layer "F.SilkS") (tstamp be6307f6-902a-49b0-82ee-c2ff52e2cc29))
    (fp_arc (start 1.5512 1.3126) (mid 0.854953 1.843405) (end 0 2.032)
      (stroke (width 0.254) (type solid)) (layer "F.SilkS") (tstamp e01483f3-65ad-4080-b479-293f9ec37920))
    (fp_line (start 1.5748 1.27) (end 1.5748 -1.27)
      (stroke (width 0.254) (type solid)) (layer "F.Fab") (tstamp d614bd6b-d290-400a-bd47-b22ad9417ab1))
    (fp_arc (start -2.032 0) (mid -1.970339 -0.496775) (end -1.7891 -0.9634)
      (stroke (width 0.254) (type solid)) (layer "F.Fab") (tstamp b5ca6ec5-9a7c-4b4d-b232-1cb0763ebb69))
    (fp_arc (start -1.7306 1.065) (mid -1.95521 0.553417) (end -2.032 0)
      (stroke (width 0.254) (type solid)) (layer "F.Fab") (tstamp b69c68a7-77a5-4e36-bbf2-fd7a83bc712e))
    (fp_arc (start -1.524 0) (mid -1.432981 -0.518783) (end -1.1708 -0.9756)
      (stroke (width 0.1524) (type solid)) (layer "F.Fab") (tstamp 32164ef0-a9e4-427a-b745-654e384af2cc))
    (fp_arc (start -1.1391 1.0125) (mid -1.42454 0.5416) (end -1.524 0)
      (stroke (width 0.1524) (type solid)) (layer "F.Fab") (tstamp 69d42dd2-23df-493e-8ed3-f5759704b3b9))
    (fp_arc (start -1.016 0) (mid -0.71842 -0.71842) (end 0 -1.016)
      (stroke (width 0.1524) (type solid)) (layer "F.Fab") (tstamp 57771561-c1dc-446c-b822-95531d5efb92))
    (fp_arc (start -0.635 0) (mid -0.449013 -0.449013) (end 0 -0.635)
      (stroke (width 0.1524) (type solid)) (layer "F.Fab") (tstamp 0df8171a-4f85-486e-9a1c-12d629116887))
    (fp_arc (start 0.635 0) (mid 0.449013 0.449013) (end 0 0.635)
      (stroke (width 0.1524) (type solid)) (layer "F.Fab") (tstamp 98dce89a-3380-47af-81e5-1bb34571f5c7))
    (fp_arc (start 1.016 0) (mid 0.71842 0.71842) (end 0 1.016)
      (stroke (width 0.1524) (type solid)) (layer "F.Fab") (tstamp ef53242d-8870-4d46-b891-f772b5bda8bf))
    (fp_arc (start 1.1571 -0.9918) (mid 1.429332 -0.528744) (end 1.524 0)
      (stroke (width 0.1524) (type solid)) (layer "F.Fab") (tstamp ee3ab43f-1c83-48c6-b1d2-4b15d5b427e4))
    (fp_arc (start 1.524 0) (mid 1.432981 0.518783) (end 1.1708 0.9756)
      (stroke (width 0.1524) (type solid)) (layer "F.Fab") (tstamp 792f55c1-6def-496e-bd3e-6aec53144de8))
    (pad "A" thru_hole roundrect (at -1.27 0 180) (size 1.3208 1.3208) (drill 0.8128) (layers "*.Cu" "*.Mask") (roundrect_rratio 0.25)
      (chamfer_ratio 0.2928932188) (chamfer top_left top_right bottom_left bottom_right)
      (net 2 "N$1") (solder_mask_margin 0.1016) (thermal_bridge_angle 45) (tstamp 7ab32906-e1f6-4f7c-ae9e-5ac8ce96f77e))
    (pad "K" thru_hole roundrect (at 1.27 0 180) (size 1.3208 1.3208) (drill 0.8128) (layers "*.Cu" "*.Mask") (roundrect_rratio 0.25)
      (chamfer_ratio 0.2928932188) (chamfer top_left top_right bottom_left bottom_right)
      (net 4 "GND") (solder_mask_margin 0.1016) (thermal_bridge_angle 45) (tstamp e564f3c1-aef3-4da6-9cb5-a1fa6cf75ee4))
  )

  (footprint "Well_PCB:LTR-301" (layer "F.Cu")
    (tstamp af57dd92-4623-4a77-aa5d-5476b57b8b23)
    (at 148.5011 92.0036)
    (descr "<h3>LTR-301 IR Phototransistor (Side-Receiving)</h3>\n<p><a href=\"https://www.sparkfun.com/datasheets/Components/LTR-301.pdf\">Datasheet</a></p>\n<p>Specifications:\n<ul>\n<li>Pin Count: 2</li>\n<li>Area: 4.4 x 0.75 mm</li>\n<li>Pitch: 2.54 mm</li>\n</ul>\n<p>Devices Using:</p>\n<ul>\n<li>LTR-301</li>\n</ul>")
    (fp_text reference "BEAM_SENSOR1" (at -0.048 2) (layer "F.SilkS")
        (effects (font (size 0.512064 0.512064) (thickness 0.097536)) (justify right))
      (tstamp d76df88e-54c1-4187-8405-5503dc0d8a11)
    )
    (fp_text value "LTR-301" (at 2.286 0 90) (layer "F.Fab")
        (effects (font (size 0.512064 0.512064) (thickness 0.097536)) (justify left))
      (tstamp 02b3e015-9b36-4c03-ada3-b85011bcc2e2)
    )
    (fp_line (start -2.159 -0.762) (end 2.159 -0.762)
      (stroke (width 0.127) (type solid)) (layer "F.SilkS") (tstamp c31efb01-8d0e-4389-a39c-06c704bb55da))
    (fp_line (start -2.159 0.762) (end -2.159 -0.762)
      (stroke (width 0.127) (type solid)) (layer "F.SilkS") (tstamp be5d9b7b-88dc-4ccd-b06a-2546753b6d88))
    (fp_line (start -0.762 0.762) (end -2.159 0.762)
      (stroke (width 0.127) (type solid)) (layer "F.SilkS") (tstamp 9362387c-ba25-4e6d-a3d0-b9fede3cc1e7))
    (fp_line (start -0.381 0) (end 0.381 0)
      (stroke (width 0.127) (type solid)) (layer "F.SilkS") (tstamp a19e8954-c7ed-4a41-989d-a6f58e15315a))
    (fp_line (start 0 -0.254) (end -0.381 0)
      (stroke (width 0.127) (type solid)) (layer "F.SilkS") (tstamp 3305bdf1-526c-4f48-a529-24e789fbe973))
    (fp_line (start 0 0.254) (end -0.381 0)
      (stroke (width 0.127) (type solid)) (layer "F.SilkS") (tstamp aabeed83-449b-4ef8-b436-8ce23977186f))
    (fp_line (start 0.762 0.762) (end -0.762 0.762)
      (stroke (width 0.127) (type solid)) (layer "F.SilkS") (tstamp 65c89d6b-cc08-4997-9c2e-5405d2d5628e))
    (fp_line (start 2.159 -0.762) (end 2.159 0.762)
      (stroke (width 0.127) (type solid)) (layer "F.SilkS") (tstamp 727c9e31-b2f2-47ae-84c4-e29f1e93edba))
    (fp_line (start 2.159 0.762) (end 0.762 0.762)
      (stroke (width 0.127) (type solid)) (layer "F.SilkS") (tstamp 0958244a-74a7-4a0d-bcc8-910d6333fd04))
    (fp_arc (start 0.762 0.762) (mid 0 1.524) (end -0.762 0.762)
      (stroke (width 0.127) (type solid)) (layer "F.SilkS") (tstamp b45335a2-aea9-49c2-8442-a736352aae5d))
    (pad "C" thru_hole circle (at 1.27 0) (size 1.308 1.308) (drill 0.8) (layers "*.Cu" "*.Mask")
      (net 8 "SENSOR_SIG1") (solder_mask_margin 0.1016) (tstamp 4f8b2f8a-4c97-4782-b97d-077615ba53c0))
    (pad "E" thru_hole circle (at -1.27 0) (size 1.308 1.308) (drill 0.8) (layers "*.Cu" "*.Mask")
      (net 4 "GND") (solder_mask_margin 0.1016) (tstamp 47794aad-cf49-47f0-ae52-864c168c4f0d))
  )

  (footprint "" (layer "F.Cu")
    (tstamp bbc38cd8-f022-4912-9632-63c82a82c7de)
    (at 148.5011 105.0036)
    (fp_text reference "@HOLE0" (at 0 0) (layer "F.SilkS") hide
        (effects (font (size 1.27 1.27) (thickness 0.15)))
      (tstamp c5f0e6ba-686a-4119-bcad-02fd82886a5b)
    )
    (fp_text value "" (at 0 0) (layer "F.SilkS")
        (effects (font (size 1.27 1.27) (thickness 0.15)))
      (tstamp afa187a7-1c71-4896-93b8-4c6d670ce620)
    )
    (pad "" np_thru_hole circle (at 0 0) (size 8 8) (drill 8) (layers "*.Cu" "*.Mask") (tstamp 945109d0-2a4e-4fae-bc76-83c98ccfcad4))
  )

  (footprint "Well_PCB:R1206" (layer "B.Cu")
    (tstamp 26ae1490-91c8-4906-9ba0-45976dade693)
    (at 158.5011 105.0036 90)
    (descr "<b>RESISTOR</b>")
    (fp_text reference "R_LEDIR2" (at -2.032 1.27 90) (layer "B.SilkS")
        (effects (font (size 0.516128 0.516128) (thickness 0.093472)) (justify left mirror))
      (tstamp d7342995-7f9c-4281-a1ec-bf16686accc4)
    )
    (fp_text value "220" (at -1.27 -2.54 90) (layer "B.Fab")
        (effects (font (size 1.176528 1.176528) (thickness 0.093472)) (justify left mirror))
      (tstamp d2909566-7892-43c8-bc76-c89492cecfdb)
    )
    (fp_poly
      (pts
        (xy -0.3 -0.7)
        (xy 0.3 -0.7)
        (xy 0.3 0.7)
        (xy -0.3 0.7)
      )

      (stroke (width 0) (type default)) (fill solid) (layer "B.Adhes") (tstamp 6088a615-2424-486a-8b55-3d5fd5e3f5c3))
    (fp_line (start -2.473 -0.983) (end -2.473 0.983)
      (stroke (width 0.0508) (type solid)) (layer "B.CrtYd") (tstamp eeb5bc49-5c32-4e50-abc2-d071d5f380f5))
    (fp_line (start -2.473 0.983) (end 2.473 0.983)
      (stroke (width 0.0508) (type solid)) (layer "B.CrtYd") (tstamp 26424d2b-840d-4e81-9bd4-eb941684ff7c))
    (fp_line (start 2.473 -0.983) (end -2.473 -0.983)
      (stroke (width 0.0508) (type solid)) (layer "B.CrtYd") (tstamp 6218d975-62df-4fd8-8ac8-01746c5bf3c3))
    (fp_line (start 2.473 0.983) (end 2.473 -0.983)
      (stroke (width 0.0508) (type solid)) (layer "B.CrtYd") (tstamp 74c34bed-aa63-48f9-90a1-8fbca2c57a1e))
    (fp_line (start 0.9525 -0.8128) (end -0.9652 -0.8128)
      (stroke (width 0.1524) (type solid)) (layer "B.Fab") (tstamp c6f8af9c-4d14-4734-8a8b-8e8fd8db299a))
    (fp_line (start 0.9525 0.8128) (end -0.9652 0.8128)
      (stroke (width 0.1524) (type solid)) (layer "B.Fab") (tstamp caa16873-4e93-4e5e-95cb-8db060ae19d1))
    (fp_poly
      (pts
        (xy -1.6891 -0.8763)
        (xy -0.9525 -0.8763)
        (xy -0.9525 0.8763)
        (xy -1.6891 0.8763)
      )

      (stroke (width 0) (type default)) (fill solid) (layer "B.Fab") (tstamp f58a5e08-8bde-4480-b736-cf1981bdd928))
    (fp_poly
      (pts
        (xy 0.9525 -0.8763)
        (xy 1.6891 -0.8763)
        (xy 1.6891 0.8763)
        (xy 0.9525 0.8763)
      )

      (stroke (width 0) (type default)) (fill solid) (layer "B.Fab") (tstamp e22b8294-8489-476b-9439-be7c18852ac4))
    (pad "1" smd rect (at -1.422 0 90) (size 1.6 1.803) (layers "B.Cu" "B.Paste" "B.Mask")
      (net 10 "N$3") (solder_mask_margin 0.1016) (thermal_bridge_angle 45) (tstamp 3a2a479e-8475-4539-9ee8-bdaa23ccd3c6))
    (pad "2" smd rect (at 1.422 0 90) (size 1.6 1.803) (layers "B.Cu" "B.Paste" "B.Mask")
      (net 1 "+5V") (solder_mask_margin 0.1016) (thermal_bridge_angle 45) (tstamp 7e6c1131-3005-45de-9710-81e18253576a))
  )

  (footprint "Well_PCB:R1206" (layer "B.Cu")
    (tstamp 31b4ebe5-6e4d-4e9f-bfa5-ed6a14b868f5)
    (at 140.5011 98.0036 -90)
    (descr "<b>RESISTOR</b>")
    (fp_text reference "R_PT2" (at 3.111 -1.095 -180) (layer "B.SilkS")
        (effects (font (size 0.516128 0.516128) (thickness 0.093472)) (justify left mirror))
      (tstamp 2779c174-77fc-49e5-81e4-0c909000890e)
    )
    (fp_text value "" (at -1.27 -2.54 -270) (layer "B.Fab")
        (effects (font (size 1.176528 1.176528) (thickness 0.093472)) (justify right mirror))
      (tstamp 47f7792b-1253-417f-9870-2bc20da5f539)
    )
    (fp_poly
      (pts
        (xy -0.3 -0.7)
        (xy 0.3 -0.7)
        (xy 0.3 0.7)
        (xy -0.3 0.7)
      )

      (stroke (width 0) (type default)) (fill solid) (layer "B.Adhes") (tstamp 419c52c7-8e06-41f3-8a6b-c2780211c0c2))
    (fp_line (start -2.473 -0.983) (end -2.473 0.983)
      (stroke (width 0.0508) (type solid)) (layer "B.CrtYd") (tstamp 9c504974-d660-4ee8-9e8b-fc0e7135c5c5))
    (fp_line (start -2.473 0.983) (end 2.473 0.983)
      (stroke (width 0.0508) (type solid)) (layer "B.CrtYd") (tstamp 20475713-a671-46f7-9baa-537ca02a85c5))
    (fp_line (start 2.473 -0.983) (end -2.473 -0.983)
      (stroke (width 0.0508) (type solid)) (layer "B.CrtYd") (tstamp 794e4c8e-0f69-44d7-aebb-64b172e083b8))
    (fp_line (start 2.473 0.983) (end 2.473 -0.983)
      (stroke (width 0.0508) (type solid)) (layer "B.CrtYd") (tstamp 91b529c1-ae5a-4b3c-b3f5-fac40f81161f))
    (fp_line (start 0.9525 -0.8128) (end -0.9652 -0.8128)
      (stroke (width 0.1524) (type solid)) (layer "B.Fab") (tstamp ea3baea9-c798-4970-b564-44156ae08971))
    (fp_line (start 0.9525 0.8128) (end -0.9652 0.8128)
      (stroke (width 0.1524) (type solid)) (layer "B.Fab") (tstamp f1806ab0-d0ca-43d5-89fa-1c9001dee48f))
    (fp_poly
      (pts
        (xy -1.6891 -0.8763)
        (xy -0.9525 -0.8763)
        (xy -0.9525 0.8763)
        (xy -1.6891 0.8763)
      )

      (stroke (width 0) (type default)) (fill solid) (layer "B.Fab") (tstamp 17b4540e-c118-42b8-8a70-20170573e735))
    (fp_poly
      (pts
        (xy 0.9525 -0.8763)
        (xy 1.6891 -0.8763)
        (xy 1.6891 0.8763)
        (xy 0.9525 0.8763)
      )

      (stroke (width 0) (type default)) (fill solid) (layer "B.Fab") (tstamp 5936a934-f11a-480b-83d4-95899e92f1dc))
    (pad "1" smd rect (at -1.422 0 270) (size 1.6 1.803) (layers "B.Cu" "B.Paste" "B.Mask")
      (net 9 "SENSOR_SIG2") (solder_mask_margin 0.1016) (thermal_bridge_angle 45) (tstamp 4186bdd8-d4d5-41a6-a413-3ccb068872c6))
    (pad "2" smd rect (at 1.422 0 270) (size 1.6 1.803) (layers "B.Cu" "B.Paste" "B.Mask")
      (net 1 "+5V") (solder_mask_margin 0.1016) (thermal_bridge_angle 45) (tstamp 44e5ac32-6d28-4fb7-a7f0-17de26e04b2f))
  )

  (footprint "Well_PCB:53047-08" (layer "B.Cu")
    (tstamp 573c2c4d-a3e3-4f8d-8021-4db99880c69e)
    (at 148.5011 98.0196 180)
    (descr "<b>1.25mm Pitch PicoBlade™ Wire-to-Board Header, Vertical, with Friction Lock, 8 Circuits</b><p><a href =http://www.molex.com/pdm_docs/sd/530470810_sd.pdf>Datasheet </a>")
    (fp_text reference "MOLEX0" (at 2.249 -2.568) (layer "B.SilkS")
        (effects (font (size 0.719328 0.719328) (thickness 0.093472)) (justify left mirror))
      (tstamp 221c9342-894f-4ef6-ae5f-a10476fa787c)
    )
    (fp_text value "53047-08" (at 1.125 1.75) (layer "B.Fab")
        (effects (font (size 1.176528 1.176528) (thickness 0.093472)) (justify left mirror))
      (tstamp a8c0a1d4-c50e-4a52-b336-5e4e47c19672)
    )
    (fp_line (start -5.775 -1.5) (end 5.775 -1.5)
      (stroke (width 0.2032) (type solid)) (layer "B.SilkS") (tstamp df42dc22-6064-4449-bb7b-65e28bbfa196))
    (fp_line (start -5.775 1.5) (end -5.775 -1.5)
      (stroke (width 0.2032) (type solid)) (layer "B.SilkS") (tstamp d7039930-ff99-4d61-b5e2-ab8852456d44))
    (fp_line (start -5.75 -0.25) (end -5.375 -0.25)
      (stroke (width 0.0508) (type solid)) (layer "B.SilkS") (tstamp 053111cb-62c3-4b91-832d-11066d45244d))
    (fp_line (start -5.75 0.375) (end -5.375 0.375)
      (stroke (width 0.0508) (type solid)) (layer "B.SilkS") (tstamp db59378f-0df3-4965-8ffa-11995f5288e3))
    (fp_line (start -5.375 -0.25) (end -5.375 -1.25)
      (stroke (width 0.0508) (type solid)) (layer "B.SilkS") (tstamp 1a3c9f5a-3121-4c03-9581-bf713d8d5d2c))
    (fp_line (start -5.375 0.375) (end -5.375 1.125)
      (stroke (width 0.0508) (type solid)) (layer "B.SilkS") (tstamp af9d1dab-a816-493f-a575-db55f9dc57a9))
    (fp_line (start -5.375 1.125) (end -5.625 1.375)
      (stroke (width 0.0508) (type solid)) (layer "B.SilkS") (tstamp ea8a9b7e-8be0-4c89-92c5-6dc002f3983d))
    (fp_line (start -5.375 1.125) (end 5.375 1.125)
      (stroke (width 0.0508) (type solid)) (layer "B.SilkS") (tstamp c780b145-0c37-46ca-b5d6-1caafe95f963))
    (fp_line (start 5.375 -0.25) (end 5.375 -1.25)
      (stroke (width 0.0508) (type solid)) (layer "B.SilkS") (tstamp 74408303-6a78-4c3d-9d5f-3f1b459a0e13))
    (fp_line (start 5.375 -0.25) (end 5.75 -0.25)
      (stroke (width 0.0508) (type solid)) (layer "B.SilkS") (tstamp ae803ba7-778a-4469-b1cb-44724c37d2fb))
    (fp_line (start 5.375 0.375) (end 5.75 0.375)
      (stroke (width 0.0508) (type solid)) (layer "B.SilkS") (tstamp b81b581c-4263-4314-a1b4-437c14068bd3))
    (fp_line (start 5.375 1.125) (end 5.375 0.375)
      (stroke (width 0.0508) (type solid)) (layer "B.SilkS") (tstamp 876c47cd-6723-4921-b7ce-de31b0b02293))
    (fp_line (start 5.375 1.125) (end 5.625 1.375)
      (stroke (width 0.0508) (type solid)) (layer "B.SilkS") (tstamp ed797dc4-d677-4d5e-82da-4f0c51231309))
    (fp_line (start 5.775 -1.5) (end 5.775 1.5)
      (stroke (width 0.2032) (type solid)) (layer "B.SilkS") (tstamp 5f4a9a03-52ca-4eec-9cca-174b1a4a2b2d))
    (fp_line (start 5.775 1.5) (end -5.775 1.5)
      (stroke (width 0.2032) (type solid)) (layer "B.SilkS") (tstamp fa54fe7b-5d26-49ac-b7de-6012d0874337))
    (fp_poly
      (pts
        (xy -5.75 -1.5)
        (xy 5.75 -1.5)
        (xy 5.75 -1.125)
        (xy -5.75 -1.125)
      )

      (stroke (width 0) (type default)) (fill solid) (layer "B.SilkS") (tstamp 8a1bf6b0-9f90-4c0b-9829-3ece7f3d4fef))
    (pad "1" thru_hole oval (at 4.375 0.45 90) (size 1.3968 0.6984) (drill 0.5) (layers "*.Cu" "*.Mask")
      (solder_mask_margin 0.1016) (thermal_bridge_angle 45) (tstamp f32241e6-b148-41bc-974f-5f9975a50012))
    (pad "2" thru_hole oval (at 3.125 0.45 90) (size 1.3968 0.6984) (drill 0.5) (layers "*.Cu" "*.Mask")
      (net 6 "LED2_SIG") (solder_mask_margin 0.1016) (thermal_bridge_angle 45) (tstamp 4e83b3da-85ee-4223-a40e-5f88943f672e))
    (pad "3" thru_hole oval (at 1.875 0.45 90) (size 1.3968 0.6984) (drill 0.5) (layers "*.Cu" "*.Mask")
      (net 5 "LED1_SIG") (solder_mask_margin 0.1016) (thermal_bridge_angle 45) (tstamp 399d6408-319b-4f2b-adf9-a6bc775adeb2))
    (pad "4" thru_hole oval (at 0.625 0.45 90) (size 1.3968 0.6984) (drill 0.5) (layers "*.Cu" "*.Mask")
      (net 4 "GND") (solder_mask_margin 0.1016) (thermal_bridge_angle 45) (tstamp 47a47c26-28a1-4f28-91e4-554f1dbb8b68))
    (pad "5" thru_hole oval (at -0.625 0.45 90) (size 1.3968 0.6984) (drill 0.5) (layers "*.Cu" "*.Mask")
      (net 1 "+5V") (solder_mask_margin 0.1016) (thermal_bridge_angle 45) (tstamp c05d26e1-017c-49fc-9f81-0dc74deeb039))
    (pad "6" thru_hole oval (at -1.875 0.45 90) (size 1.3968 0.6984) (drill 0.5) (layers "*.Cu" "*.Mask")
      (net 9 "SENSOR_SIG2") (solder_mask_margin 0.1016) (thermal_bridge_angle 45) (tstamp 08bcdf28-3d3c-489b-814e-a5d7aaf4d4fe))
    (pad "7" thru_hole oval (at -3.125 0.45 90) (size 1.3968 0.6984) (drill 0.5) (layers "*.Cu" "*.Mask")
      (net 8 "SENSOR_SIG1") (solder_mask_margin 0.1016) (thermal_bridge_angle 45) (tstamp 082a1eb5-8a78-4f36-a5de-8b6c14e90ff8))
    (pad "8" thru_hole oval (at -4.375 0.45 90) (size 1.3968 0.6984) (drill 0.5) (layers "*.Cu" "*.Mask")
      (net 4 "GND") (solder_mask_margin 0.1016) (thermal_bridge_angle 45) (tstamp 7b387ef6-cd3c-4d26-a57b-27c474bf3a06))
  )

  (footprint "Well_PCB:R1206" (layer "B.Cu")
    (tstamp bc98aa8e-e538-4e4c-b3f4-9ebf1382b9cc)
    (at 155.5011 105.0036 90)
    (descr "<b>RESISTOR</b>")
    (fp_text reference "R_LEDIR1" (at -2.159 -1.778 90) (layer "B.SilkS")
        (effects (font (size 0.516128 0.516128) (thickness 0.093472)) (justify left mirror))
      (tstamp d2e9d376-6d7c-41eb-b851-bc6197035575)
    )
    (fp_text value "220" (at -1.27 -2.54 90) (layer "B.Fab")
        (effects (font (size 1.176528 1.176528) (thickness 0.093472)) (justify left mirror))
      (tstamp 1bd8ad39-e818-4770-8a06-92a688c576ca)
    )
    (fp_poly
      (pts
        (xy -0.3 -0.7)
        (xy 0.3 -0.7)
        (xy 0.3 0.7)
        (xy -0.3 0.7)
      )

      (stroke (width 0) (type default)) (fill solid) (layer "B.Adhes") (tstamp 7d863b72-6cfa-4684-8c9b-864f9b35c58c))
    (fp_line (start -2.473 -0.983) (end -2.473 0.983)
      (stroke (width 0.0508) (type solid)) (layer "B.CrtYd") (tstamp d59ede7b-39bc-416a-8734-832845e5fcc7))
    (fp_line (start -2.473 0.983) (end 2.473 0.983)
      (stroke (width 0.0508) (type solid)) (layer "B.CrtYd") (tstamp c70c0f9c-780e-46ac-a2bd-54a45b643994))
    (fp_line (start 2.473 -0.983) (end -2.473 -0.983)
      (stroke (width 0.0508) (type solid)) (layer "B.CrtYd") (tstamp cbb1412a-7f9a-4f4d-a441-9700ccf55313))
    (fp_line (start 2.473 0.983) (end 2.473 -0.983)
      (stroke (width 0.0508) (type solid)) (layer "B.CrtYd") (tstamp c0913aa2-f02a-4636-b218-a48c3a32b40e))
    (fp_line (start 0.9525 -0.8128) (end -0.9652 -0.8128)
      (stroke (width 0.1524) (type solid)) (layer "B.Fab") (tstamp 8917d63f-246c-484c-b334-924779ad49eb))
    (fp_line (start 0.9525 0.8128) (end -0.9652 0.8128)
      (stroke (width 0.1524) (type solid)) (layer "B.Fab") (tstamp f7481de3-be1a-4cbe-97b8-1942ea27a5dd))
    (fp_poly
      (pts
        (xy -1.6891 -0.8763)
        (xy -0.9525 -0.8763)
        (xy -0.9525 0.8763)
        (xy -1.6891 0.8763)
      )

      (stroke (width 0) (type default)) (fill solid) (layer "B.Fab") (tstamp fb37d953-e0fd-4555-90eb-6be327870184))
    (fp_poly
      (pts
        (xy 0.9525 -0.8763)
        (xy 1.6891 -0.8763)
        (xy 1.6891 0.8763)
        (xy 0.9525 0.8763)
      )

      (stroke (width 0) (type default)) (fill solid) (layer "B.Fab") (tstamp 6dffe9f2-e458-436e-842e-d4f54bd5d5b1))
    (pad "1" smd rect (at -1.422 0 90) (size 1.6 1.803) (layers "B.Cu" "B.Paste" "B.Mask")
      (net 7 "N$4") (solder_mask_margin 0.1016) (thermal_bridge_angle 45) (tstamp 0c813fce-1e12-44ff-8ee6-1f7b92dc0683))
    (pad "2" smd rect (at 1.422 0 90) (size 1.6 1.803) (layers "B.Cu" "B.Paste" "B.Mask")
      (net 1 "+5V") (solder_mask_margin 0.1016) (thermal_bridge_angle 45) (tstamp a9fb6621-7f0d-40f2-964a-768647b7d968))
  )

  (footprint "Well_PCB:R1206" (layer "B.Cu")
    (tstamp cff5a9e6-b783-420b-b810-08507877b784)
    (at 156.5011 98.0036 -90)
    (descr "<b>RESISTOR</b>")
    (fp_text reference "R_PT1" (at 3.048 -2.032 -180) (layer "B.SilkS")
        (effects (font (size 0.516128 0.516128) (thickness 0.093472)) (justify left mirror))
      (tstamp aefe5f4c-4088-4fa2-bb4e-0f5f84c54187)
    )
    (fp_text value "" (at -1.27 -2.54 -270) (layer "B.Fab")
        (effects (font (size 1.176528 1.176528) (thickness 0.093472)) (justify right mirror))
      (tstamp dac5f48f-49b9-4a4f-8543-ed0b82dbbd56)
    )
    (fp_poly
      (pts
        (xy -0.3 -0.7)
        (xy 0.3 -0.7)
        (xy 0.3 0.7)
        (xy -0.3 0.7)
      )

      (stroke (width 0) (type default)) (fill solid) (layer "B.Adhes") (tstamp a0ebd5f2-5cd0-46b8-be49-bf2a2d00a0bd))
    (fp_line (start -2.473 -0.983) (end -2.473 0.983)
      (stroke (width 0.0508) (type solid)) (layer "B.CrtYd") (tstamp c6909fc6-d248-4223-aad8-f0f781b00b29))
    (fp_line (start -2.473 0.983) (end 2.473 0.983)
      (stroke (width 0.0508) (type solid)) (layer "B.CrtYd") (tstamp b7f4001c-45a3-4e03-acf0-2b0c94c7f24d))
    (fp_line (start 2.473 -0.983) (end -2.473 -0.983)
      (stroke (width 0.0508) (type solid)) (layer "B.CrtYd") (tstamp eac3c5da-6d9a-4ab0-b395-a5c121e202d5))
    (fp_line (start 2.473 0.983) (end 2.473 -0.983)
      (stroke (width 0.0508) (type solid)) (layer "B.CrtYd") (tstamp 60e57169-4984-4a7c-a901-911a09381539))
    (fp_line (start 0.9525 -0.8128) (end -0.9652 -0.8128)
      (stroke (width 0.1524) (type solid)) (layer "B.Fab") (tstamp 5d7da937-9f42-4143-85c3-107a617fd941))
    (fp_line (start 0.9525 0.8128) (end -0.9652 0.8128)
      (stroke (width 0.1524) (type solid)) (layer "B.Fab") (tstamp 3ad48f76-c2f2-4281-b2a9-4746652b1de8))
    (fp_poly
      (pts
        (xy -1.6891 -0.8763)
        (xy -0.9525 -0.8763)
        (xy -0.9525 0.8763)
        (xy -1.6891 0.8763)
      )

      (stroke (width 0) (type default)) (fill solid) (layer "B.Fab") (tstamp 3ec963eb-4b69-49a2-bcc6-36cf5a5c27cb))
    (fp_poly
      (pts
        (xy 0.9525 -0.8763)
        (xy 1.6891 -0.8763)
        (xy 1.6891 0.8763)
        (xy 0.9525 0.8763)
      )

      (stroke (width 0) (type default)) (fill solid) (layer "B.Fab") (tstamp 38b50b26-00f8-4e03-bded-985166035d11))
    (pad "1" smd rect (at -1.422 0 270) (size 1.6 1.803) (layers "B.Cu" "B.Paste" "B.Mask")
      (net 8 "SENSOR_SIG1") (solder_mask_margin 0.1016) (thermal_bridge_angle 45) (tstamp bceff649-8443-4d53-9cf2-0cdfbd99ae51))
    (pad "2" smd rect (at 1.422 0 270) (size 1.6 1.803) (layers "B.Cu" "B.Paste" "B.Mask")
      (net 1 "+5V") (solder_mask_margin 0.1016) (thermal_bridge_angle 45) (tstamp e411082a-65a6-4008-afe7-f8669857e49d))
  )

  (footprint "Well_PCB:R1206" (layer "B.Cu")
    (tstamp d562e310-82c7-426b-b398-fd466f210e4e)
    (at 148.5011 114.0036 180)
    (descr "<b>RESISTOR</b>")
    (fp_text reference "R1" (at -0.889 1.143) (layer "B.SilkS")
        (effects (font (size 0.922528 0.922528) (thickness 0.093472)) (justify left mirror))
      (tstamp 213b587e-ea80-458e-9561-8fc84bdd4cf5)
    )
    (fp_text value "" (at -1.27 -2.54) (layer "B.Fab")
        (effects (font (size 1.176528 1.176528) (thickness 0.093472)) (justify left mirror))
      (tstamp de4cccf0-75e5-4a1f-81cb-063fae58c71c)
    )
    (fp_poly
      (pts
        (xy -0.3 -0.7)
        (xy 0.3 -0.7)
        (xy 0.3 0.7)
        (xy -0.3 0.7)
      )

      (stroke (width 0) (type default)) (fill solid) (layer "B.Adhes") (tstamp 8ab46f7d-6205-4b49-b13c-27634c1f7f19))
    (fp_line (start -2.473 -0.983) (end -2.473 0.983)
      (stroke (width 0.0508) (type solid)) (layer "B.CrtYd") (tstamp 720299e4-734b-4896-a094-6a2270a65b51))
    (fp_line (start -2.473 0.983) (end 2.473 0.983)
      (stroke (width 0.0508) (type solid)) (layer "B.CrtYd") (tstamp 0c84e140-734b-4393-aaa5-5c32bf961787))
    (fp_line (start 2.473 -0.983) (end -2.473 -0.983)
      (stroke (width 0.0508) (type solid)) (layer "B.CrtYd") (tstamp 40491a05-3e7d-4e85-8c9c-496ccebc9578))
    (fp_line (start 2.473 0.983) (end 2.473 -0.983)
      (stroke (width 0.0508) (type solid)) (layer "B.CrtYd") (tstamp 3bf3b725-c398-4ecc-803e-1476b94db76d))
    (fp_line (start 0.9525 -0.8128) (end -0.9652 -0.8128)
      (stroke (width 0.1524) (type solid)) (layer "B.Fab") (tstamp 5df79f50-651c-40bd-accc-ee7fa06016d3))
    (fp_line (start 0.9525 0.8128) (end -0.9652 0.8128)
      (stroke (width 0.1524) (type solid)) (layer "B.Fab") (tstamp d7360ea5-cc93-4c4b-a036-0591eb002239))
    (fp_poly
      (pts
        (xy -1.6891 -0.8763)
        (xy -0.9525 -0.8763)
        (xy -0.9525 0.8763)
        (xy -1.6891 0.8763)
      )

      (stroke (width 0) (type default)) (fill solid) (layer "B.Fab") (tstamp 19c890b3-adb8-4c71-a4a3-6ec1540f1db7))
    (fp_poly
      (pts
        (xy 0.9525 -0.8763)
        (xy 1.6891 -0.8763)
        (xy 1.6891 0.8763)
        (xy 0.9525 0.8763)
      )

      (stroke (width 0) (type default)) (fill solid) (layer "B.Fab") (tstamp 09c6b36b-84be-44c2-a491-58187c337ead))
    (pad "1" smd rect (at -1.422 0 180) (size 1.6 1.803) (layers "B.Cu" "B.Paste" "B.Mask")
      (net 2 "N$1") (solder_mask_margin 0.1016) (thermal_bridge_angle 45) (tstamp e9bada96-b079-4450-902e-2a96600afed5))
    (pad "2" smd rect (at 1.422 0 180) (size 1.6 1.803) (layers "B.Cu" "B.Paste" "B.Mask")
      (net 5 "LED1_SIG") (solder_mask_margin 0.1016) (thermal_bridge_angle 45) (tstamp 67310273-2eb8-46f4-90d0-71e49ac0795d))
  )

  (footprint "Well_PCB:R1206" (layer "B.Cu")
    (tstamp fd893b43-1026-49e3-9715-28e34b7f4435)
    (at 141.5011 105.0036 90)
    (descr "<b>RESISTOR</b>")
    (fp_text reference "R2" (at -0.27 0.572 180) (layer "B.SilkS")
        (effects (font (size 0.516128 0.516128) (thickness 0.093472)) (justify left mirror))
      (tstamp 986ed9ad-b72f-4f55-a31b-13b5fb651922)
    )
    (fp_text value "" (at -1.27 -2.54 90) (layer "B.Fab")
        (effects (font (size 1.176528 1.176528) (thickness 0.093472)) (justify left mirror))
      (tstamp ce78a493-2d27-41c6-9598-6be65adc43a6)
    )
    (fp_poly
      (pts
        (xy -0.3 -0.7)
        (xy 0.3 -0.7)
        (xy 0.3 0.7)
        (xy -0.3 0.7)
      )

      (stroke (width 0) (type default)) (fill solid) (layer "B.Adhes") (tstamp b348cff4-a272-44f8-82c4-a07e7ec7630e))
    (fp_line (start -2.473 -0.983) (end -2.473 0.983)
      (stroke (width 0.0508) (type solid)) (layer "B.CrtYd") (tstamp f346f26f-8587-4faa-b21f-f684cb1e2f1b))
    (fp_line (start -2.473 0.983) (end 2.473 0.983)
      (stroke (width 0.0508) (type solid)) (layer "B.CrtYd") (tstamp 17418290-4b4f-473f-898a-fb5898025af4))
    (fp_line (start 2.473 -0.983) (end -2.473 -0.983)
      (stroke (width 0.0508) (type solid)) (layer "B.CrtYd") (tstamp ea37ee60-9947-42d0-8000-ab01edb9195f))
    (fp_line (start 2.473 0.983) (end 2.473 -0.983)
      (stroke (width 0.0508) (type solid)) (layer "B.CrtYd") (tstamp 4ae0d626-d5a4-464f-8ef5-a8b444115871))
    (fp_line (start 0.9525 -0.8128) (end -0.9652 -0.8128)
      (stroke (width 0.1524) (type solid)) (layer "B.Fab") (tstamp 0b8a058c-a66e-4ac8-9e59-f359d617a629))
    (fp_line (start 0.9525 0.8128) (end -0.9652 0.8128)
      (stroke (width 0.1524) (type solid)) (layer "B.Fab") (tstamp c137a7f3-1913-4d2c-857f-97b865db3b66))
    (fp_poly
      (pts
        (xy -1.6891 -0.8763)
        (xy -0.9525 -0.8763)
        (xy -0.9525 0.8763)
        (xy -1.6891 0.8763)
      )

      (stroke (width 0) (type default)) (fill solid) (layer "B.Fab") (tstamp 47b9e204-7608-49dd-8f30-1c22067ec5c9))
    (fp_poly
      (pts
        (xy 0.9525 -0.8763)
        (xy 1.6891 -0.8763)
        (xy 1.6891 0.8763)
        (xy 0.9525 0.8763)
      )

      (stroke (width 0) (type default)) (fill solid) (layer "B.Fab") (tstamp 10e79163-22b9-4d46-990d-38e0063c90c4))
    (pad "1" smd rect (at -1.422 0 90) (size 1.6 1.803) (layers "B.Cu" "B.Paste" "B.Mask")
      (net 3 "N$2") (solder_mask_margin 0.1016) (thermal_bridge_angle 45) (tstamp c7e9ce8a-660b-417e-baea-2376902255dc))
    (pad "2" smd rect (at 1.422 0 90) (size 1.6 1.803) (layers "B.Cu" "B.Paste" "B.Mask")
      (net 6 "LED2_SIG") (solder_mask_margin 0.1016) (thermal_bridge_angle 45) (tstamp d1ae6131-66f4-42c4-a1d2-6d84114147ca))
  )

  (gr_arc (start 163.501099 105.003599) (mid 159.107701 115.610201) (end 148.5011 120.0036)
    (stroke (width 0.05) (type solid)) (layer "Edge.Cuts") (tstamp 047f8905-4304-42d3-8747-53687282d6ee))
  (gr_arc (start 133.501099 105.003601) (mid 137.894498 94.396999) (end 148.5011 90.0036)
    (stroke (width 0.05) (type solid)) (layer "Edge.Cuts") (tstamp 0cddaf38-9f27-41b5-acc9-ac1293a0a093))
  (gr_arc (start 148.501098 90.0036) (mid 159.107701 94.396998) (end 163.5011 105.0036)
    (stroke (width 0.05) (type solid)) (layer "Edge.Cuts") (tstamp 30444d69-d6ce-476a-8755-ff393b90d71c))
  (gr_arc (start 148.5011 120.0036) (mid 137.894498 115.610202) (end 133.5011 105.0036)
    (stroke (width 0.05) (type solid)) (layer "Edge.Cuts") (tstamp 44e6cd50-57b6-46df-b7e5-bbeaebcd4712))
  (gr_text "+" (at 150.2471 93.7496) (layer "B.SilkS") (tstamp 0f5b07dc-b60c-4b93-a6f1-9c0e5b2f6c04)
    (effects (font (size 0.93472 0.93472) (thickness 0.08128)) (justify left bottom mirror))
  )
  (gr_text "C" (at 151.8661 92.3686) (layer "B.SilkS") (tstamp 12b43128-f46b-49e5-a7a8-f535d6fd1c39)
    (effects (font (size 0.93472 0.93472) (thickness 0.08128)) (justify left bottom mirror))
  )
  (gr_text "+" (at 146.1181 118.4176) (layer "B.SilkS") (tstamp 3cccd29b-0525-4437-ae04-5da7bbd04eac)
    (effects (font (size 0.93472 0.93472) (thickness 0.08128)) (justify left bottom mirror))
  )
  (gr_text "+" (at 161.1041 107.7496) (layer "B.SilkS") (tstamp 567808d5-10fb-4bcc-a727-d711b5203968)
    (effects (font (size 0.93472 0.93472) (thickness 0.08128)) (justify left bottom mirror))
  )
  (gr_text "v0.3" (at 160.4251 112.8916 -315) (layer "B.SilkS") (tstamp 68b8a5ff-b30e-4ef8-bdc9-22e71b0dc52d)
    (effects (font (size 1.63576 1.63576) (thickness 0.14224)) (justify left bottom mirror))
  )
  (gr_text "C" (at 137.3881 104.3066) (layer "B.SilkS") (tstamp 70da80f9-f4df-49d7-b325-da2e0eb6fa87)
    (effects (font (size 0.93472 0.93472) (thickness 0.08128)) (justify left bottom mirror))
  )
  (gr_text "LED1" (at 154.9131 112.0676) (layer "B.SilkS") (tstamp 710f0797-91dd-4aa0-8d16-28c057bf456d)
    (effects (font (size 0.93472 0.93472) (thickness 0.08128)) (justify left bottom mirror))
  )
  (gr_text "+" (at 137.2791 103.1126) (layer "B.SilkS") (tstamp a9a4cae6-18de-4eb5-ad56-f8db4d6fdea4)
    (effects (font (size 0.93472 0.93472) (thickness 0.08128)) (justify left bottom mirror))
  )
  (gr_text "LED2" (at 145.1681 112.1946) (layer "B.SilkS") (tstamp b53c2566-d526-4577-9088-c9e69f56686f)
    (effects (font (size 0.93472 0.93472) (thickness 0.08128)) (justify left bottom mirror))
  )
  (gr_text "1" (at 144.8491 95.7336) (layer "B.SilkS") (tstamp c4b79249-bd25-4fd1-8de9-a923e5c2d8ef)
    (effects (font (size 1.63576 1.63576) (thickness 0.14224)) (justify left bottom mirror))
  )
  (gr_text "+" (at 141.2001 110.5436) (layer "B.SilkS") (tstamp e0635efb-2aa9-4839-9175-834b86041d76)
    (effects (font (size 0.93472 0.93472) (thickness 0.08128)) (justify left bottom mirror))
  )
  (gr_text "+" (at 154.8981 109.2886) (layer "B.SilkS") (tstamp ed55b2e8-2c6f-4b3a-803b-4817e04c735d)
    (effects (font (size 0.93472 0.93472) (thickness 0.08128)) (justify left bottom mirror))
  )
  (gr_text "Well EIB" (at 160.1711 110.0976 -315) (layer "B.SilkS") (tstamp f99952f7-ea49-4446-ba8d-63b597202df4)
    (effects (font (size 1.63576 1.63576) (thickness 0.14224)) (justify left bottom mirror))
  )
  (gr_text "AdaptAMaze" (at 143.9151 118.7336 -50) (layer "B.SilkS") (tstamp fc491c9c-f012-407d-b0fc-cd6db57aa0b3)
    (effects (font (size 1.63576 1.63576) (thickness 0.14224)) (justify left bottom mirror))
  )
  (gr_text "+" (at 145.5011 118.0036) (layer "F.SilkS") (tstamp 09b9a895-5734-4e0e-b4e2-466774426551)
    (effects (font (size 0.93472 0.93472) (thickness 0.08128)) (justify left bottom))
  )
  (gr_text "LED  IR" (at 146.0881 115.9876) (layer "F.SilkS") (tstamp 103f7f25-72d4-43b8-880b-0f83c3ddffd6)
    (effects (font (size 0.93472 0.93472) (thickness 0.08128)) (justify left bottom))
  )
  (gr_text "LED  IR" (at 159.5961 107.3686 90) (layer "F.SilkS") (tstamp 191dd244-e71c-40e6-9d3d-9efe7ebb3beb)
    (effects (font (size 0.93472 0.93472) (thickness 0.08128)) (justify left bottom))
  )
  (gr_text "+" (at 155.8351 111.1306) (layer "F.SilkS") (tstamp 49e8c12c-1021-4abf-98f0-74c0ae99e5e6)
    (effects (font (size 0.93472 0.93472) (thickness 0.08128)) (justify left bottom))
  )
  (gr_text "1" (at 152.5011 99.0036) (layer "F.SilkS") (tstamp 5aa5ee83-7491-4362-8dfb-6aa350abb7e8)
    (effects (font (size 1.63576 1.63576) (thickness 0.14224)) (justify left bottom))
  )
  (gr_text "+" (at 151.5011 93.0036) (layer "F.SilkS") (tstamp 8a93c3ea-321b-4ace-8fd9-ca4c5da9c6c4)
    (effects (font (size 0.93472 0.93472) (thickness 0.08128)) (justify left bottom))
  )
  (gr_text "C" (at 136.2471 102.2576) (layer "F.SilkS") (tstamp b32c242b-85bd-4eff-8630-0628ab23efaa)
    (effects (font (size 0.93472 0.93472) (thickness 0.08128)) (justify left bottom))
  )
  (gr_text "C" (at 152.5011 93.0036) (layer "F.SilkS") (tstamp bb6f6d9a-5ca5-47d7-9592-bf861ae87a20)
    (effects (font (size 0.93472 0.93472) (thickness 0.08128)) (justify left bottom))
  )
  (gr_text "+" (at 160.5011 108.0036) (layer "F.SilkS") (tstamp d5f884de-228d-4cb9-8ddd-8284f1dfee07)
    (effects (font (size 0.93472 0.93472) (thickness 0.08128)) (justify left bottom))
  )
  (gr_text "+" (at 140.4051 111.3846) (layer "F.SilkS") (tstamp dde93dc3-d431-4939-afc9-6be8d5baecad)
    (effects (font (size 0.93472 0.93472) (thickness 0.08128)) (justify left bottom))
  )
  (gr_text "+" (at 135.2471 102.2416) (layer "F.SilkS") (tstamp e6bcc8e0-07ac-4b4e-aad2-4436f1e6abf7)
    (effects (font (size 0.93472 0.93472) (thickness 0.08128)) (justify left bottom))
  )

  (segment (start 149.9603 99.3788) (end 149.1261 98.5446) (width 0.1524) (layer "B.Cu") (net 1) (tstamp 0314205b-bf0d-4816-8690-90ce525bf98c))
  (segment (start 149.1261 98.5446) (end 149.1261 97.5696) (width 0.1524) (layer "B.Cu") (net 1) (tstamp 28719a8d-92b7-4907-a7ce-775507a85e34))
  (segment (start 155.5011 103.5816) (end 155.5011 100.4256) (width 0.1524) (layer "B.Cu") (net 1) (tstamp 2de2176f-691f-471d-a601-5c054e6e93c7))
  (segment (start 155.5011 100.4256) (end 156.5011 99.4256) (width 0.1524) (layer "B.Cu") (net 1) (tstamp 5872ab16-28b2-4283-b2ef-fbbd4beebc7a))
  (segment (start 140.5011 99.4256) (end 143.7991 96.1276) (width 0.1524) (layer "B.Cu") (net 1) (tstamp 7d68dbde-0148-4959-b7f2-7b2dfd5ffafc))
  (segment (start 155.5011 103.5816) (end 158.5011 103.5816) (width 0.1524) (layer "B.Cu") (net 1) (tstamp 80448cca-64ac-41b2-bb60-63defb66653e))
  (segment (start 156.5011 99.4256) (end 156.4543 99.3788) (width 0.1524) (layer "B.Cu") (net 1) (tstamp 81781692-5306-43cf-904c-493a2fe6e0b6))
  (segment (start 156.4543 99.3788) (end 149.9603 99.3788) (width 0.1524) (layer "B.Cu") (net 1) (tstamp a038fdc8-116c-4ca9-82e6-d64ec3827565))
  (segment (start 143.7991 96.1276) (end 148.4871 96.1276) (width 0.1524) (layer "B.Cu") (net 1) (tstamp a65bba4d-8efc-4475-9c95-3af5e29cb75e))
  (segment (start 148.4871 96.1276) (end 149.1261 96.7666) (width 0.1524) (layer "B.Cu") (net 1) (tstamp c9175f98-1f2d-400d-9147-3dc674a948b6))
  (segment (start 149.1261 96.7666) (end 149.1261 97.5696) (width 0.1524) (layer "B.Cu") (net 1) (tstamp e3b40869-11c2-4993-bb68-896303566f9a))
  (segment (start 150.7711 114.0036) (end 154.7711 110.0036) (width 0.1524) (layer "B.Cu") (net 2) (tstamp eb84936e-c23f-4369-a5fd-ce4262bb6a46))
  (segment (start 149.9231 114.0036) (end 150.7711 114.0036) (width 0.1524) (layer "B.Cu") (net 2) (tstamp f0c6e1d0-e9d2-4159-8a3a-7d67f87740c6))
  (segment (start 141.5011 106.4256) (end 142.2311 107.1556) (width 0.1524) (layer "B.Cu") (net 3) (tstamp 27637c7d-503d-4423-b72f-cd53f5ce4542))
  (segment (start 142.2311 107.1556) (end 142.2311 110.0036) (width 0.1524) (layer "B.Cu") (net 3) (tstamp 3bee7e06-15e3-411b-a71b-d8fbfaa22977))
  (segment (start 150.7731 99.6836) (end 147.9791 99.6836) (width 0.1524) (layer "B.Cu") (net 5) (tstamp 096e6e06-88e2-416e-9e70-ade05ee352e3))
  (segment (start 147.0791 114.0036) (end 148.5071 115.4316) (width 0.1524) (layer "B.Cu") (net 5) (tstamp 1b325718-e322-476b-b823-5c0db934de92))
  (segment (start 155.8531 109.3356) (end 154.0751 107.5576) (width 0.1524) (layer "B.Cu") (net 5) (tstamp 35970d56-7813-44b6-a023-702394dca80e))
  (segment (start 155.8531 110.8596) (end 155.8531 109.3356) (width 0.1524) (layer "B.Cu") (net 5) (tstamp 65816427-d8f1-45dc-91dd-d3a4a0334a51))
  (segment (start 148.5071 115.4316) (end 151.2811 115.4316) (width 0.1524) (layer "B.Cu") (net 5) (tstamp 7a545045-e832-4d34-a047-64fdeb69d02d))
  (segment (start 154.0751 107.5576) (end 154.0751 102.9856) (width 0.1524) (layer "B.Cu") (net 5) (tstamp d76a89d9-8a64-4a2d-a04b-ccc638197841))
  (segment (start 146.6261 97.5696) (end 146.6261 98.3306) (width 0.1524) (layer "B.Cu") (net 5) (tstamp df11b560-e4d9-475d-8582-620c99fe34c9))
  (segment (start 154.0751 102.9856) (end 150.7731 99.6836) (width 0.1524) (layer "B.Cu") (net 5) (tstamp e9908613-8ae4-49b3-8892-e171e79d9c4a))
  (segment (start 151.2811 115.4316) (end 155.8531 110.8596) (width 0.1524) (layer "B.Cu") (net 5) (tstamp f0e62ca6-9709-462a-a211-3d651d4ec90b))
  (segment (start 146.6261 98.3306) (end 147.9791 99.6836) (width 0.1524) (layer "B.Cu") (net 5) (tstamp f9b041ce-c292-40d9-ace1-218d84ea580e))
  (segment (start 145.3761 99.7066) (end 145.3761 97.5696) (width 0.1524) (layer "B.Cu") (net 6) (tstamp 0b3228e1-b70b-4c25-ae66-4665393602ad))
  (segment (start 141.5011 103.5816) (end 145.3761 99.7066) (width 0.1524) (layer "B.Cu") (net 6) (tstamp 6378397a-8d46-42f2-b588-189fa108f89b))
  (segment (start 152.2971 114.9236) (end 156.1579 111.0628) (width 0.1524) (layer "B.Cu") (net 7) (tstamp 0608390f-c479-4321-ac29-15150237c2e5))
  (segment (start 155.5011 108.552544) (end 156.1579 109.209344) (width 0.1524) (layer "B.Cu") (net 7) (tstamp 26bc094a-d59d-4bc3-9243-a5f93fd7fedd))
  (segment (start 149.4983 115.7364) (end 151.4843 115.7364) (width 0.1524) (layer "B.Cu") (net 7) (tstamp 3ed2f2d2-c6df-4444-b4e2-e78fa4049ff8))
  (segment (start 151.4843 115.7364) (end 152.0431 115.1776) (width 0.1524) (layer "B.Cu") (net 7) (tstamp 43e8c6d5-0bd5-4c42-a52c-0d9889eb4660))
  (segment (start 152.0431 115.1776) (end 152.2971 114.9236) (width 0.1524) (layer "B.Cu") (net 7) (tstamp 8e38659a-7c59-431a-91ab-d04fce253eed))
  (segment (start 155.5011 106.4256) (end 155.5011 108.552544) (width 0.1524) (layer "B.Cu") (net 7) (tstamp 9f2501fd-ce33-4bb4-b984-ea5df95b6859))
  (segment (start 147.2311 118.0036) (end 149.4983 115.7364) (width 0.1524) (layer "B.Cu") (net 7) (tstamp b84b594e-9ecb-4029-ab0c-aeb49cfa9fe7))
  (segment (start 156.1579 109.209344) (end 156.1579 111.0628) (width 0.1524) (layer "B.Cu") (net 7) (tstamp fb2aa3d7-3d11-42ce-a544-f4441eecc6a7))
  (segment (start 150.9371 93.1696) (end 149.7711 92.0036) (width 0.1524) (layer "B.Cu") (net 8) (tstamp 06f7def2-1ad2-4132-95d6-cae4f2d8be49))
  (segment (start 154.3491 96.5816) (end 151.6261 93.8586) (width 0.1524) (layer "B.Cu") (net 8) (tstamp 76b342ba-13f7-45bb-be33-1ba2e1dbce2e))
  (segment (start 151.6261 97.5696) (end 151.6261 93.8586) (width 0.1524) (layer "B.Cu") (net 8) (tstamp 898a3864-c7e8-4b23-b0cf-2d17650307c1))
  (segment (start 151.6261 93.8586) (end 150.9371 93.1696) (width 0.1524) (layer "B.Cu") (net 8) (tstamp 9cbf9b3e-09dc-4682-a374-ee1462df921f))
  (segment (start 156.5011 96.5816) (end 154.3491 96.5816) (width 0.1524) (layer "B.Cu") (net 8) (tstamp a293ac9d-6d0c-4b9c-a9ec-df554901b81e))
  (segment (start 148.7411 94.8576) (end 142.2251 94.8576) (width 0.1524) (layer "B.Cu") (net 9) (tstamp 0adc31f6-ffe6-44fc-96ae-3c8c724702ec))
  (segment (start 135.5011 101.5816) (end 135.5011 103.7336) (width 0.1524) (layer "B.Cu") (net 9) (tstamp 3801e661-535c-4f75-a42c-8853c6ac6fa5))
  (segment (start 140.5011 96.5816) (end 135.5011 101.5816) (width 0.1524) (layer "B.Cu") (net 9) (tstamp 96e7b606-bbaa-4be8-8fd7-f50a6098acec))
  (segment (start 150.3761 97.5696) (end 150.3761 96.4926) (width 0.1524) (layer "B.Cu") (net 9) (tstamp b060cc03-b3be-4778-a1d1-24e834a8382e))
  (segment (start 142.2251 94.8576) (end 140.5011 96.5816) (width 0.1524) (layer "B.Cu") (net 9) (tstamp ddee9f51-d723-4581-be5e-002f560aab82))
  (segment (start 150.3761 96.4926) (end 148.7411 94.8576) (width 0.1524) (layer "B.Cu") (net 9) (tstamp ff44120f-1651-4ae8-8716-3634f89ab3e9))
  (segment (start 158.5011 106.4256) (end 161.3491 106.4256) (width 0.1524) (layer "B.Cu") (net 10) (tstamp c0bcc656-bcf8-4cf9-b2df-1f67f0faf7b3))
  (segment (start 161.3491 106.4256) (end 161.5011 106.2736) (width 0.1524) (layer "B.Cu") (net 10) (tstamp f24d3317-f931-4a9a-9c38-b2c119f9a8e5))

  (zone (net 4) (net_name "GND") (layer "F.Cu") (tstamp c9433811-06d6-4a60-84c0-624679c0c3b7) (hatch edge 0.5)
    (priority 6)
    (connect_pads (clearance 0.000001))
    (min_thickness 0.0762) (filled_areas_thickness no)
    (fill (thermal_gap 0.2024) (thermal_bridge_width 0.2024))
    (polygon
      (pts
        (xy 164.5773 121.0798)
        (xy 132.4249 121.0798)
        (xy 132.4249 88.9274)
        (xy 164.5773 88.9274)
      )
    )
  )
  (zone (net 4) (net_name "GND") (layer "B.Cu") (tstamp 951379e7-e4e3-4fd4-ac92-759f20c64f93) (hatch edge 0.5)
    (priority 6)
    (connect_pads (clearance 0.000001))
    (min_thickness 0.0762) (filled_areas_thickness no)
    (fill (thermal_gap 0.2024) (thermal_bridge_width 0.2024))
    (polygon
      (pts
        (xy 165.5773 122.0798)
        (xy 131.4249 122.0798)
        (xy 131.4249 87.9274)
        (xy 165.5773 87.9274)
      )
    )
  )
)
