(kicad_symbol_lib (version 20220914) (generator kicad_symbol_editor)
  (symbol "53?-08047" (in_bom yes) (on_board yes)
    (property "Reference" "X" (at 2.54 -0.762 0)
      (effects (font (size 1.524 1.2954)) (justify left bottom))
    )
    (property "Value" "" (at -0.762 1.397 0)
      (effects (font (size 1.778 1.5113)) (justify left bottom) hide)
    )
    (property "Footprint" "Riser_EIB:53047-08" (at 0 0 0)
      (effects (font (size 1.27 1.27)) hide)
    )
    (property "Datasheet" "" (at 0 0 0)
      (effects (font (size 1.27 1.27)) hide)
    )
    (property "ki_locked" "" (at 0 0 0)
      (effects (font (size 1.27 1.27)))
    )
    (symbol "53?-08047_1_0"
      (polyline
        (pts
          (xy 1.27 0)
          (xy 0 0)
        )
        (stroke (width 0.6096) (type solid))
        (fill (type none))
      )
      (pin passive line (at -2.54 0 0) (length 2.54)
        (name "S" (effects (font (size 0 0))))
        (number "1" (effects (font (size 0 0))))
      )
    )
    (symbol "53?-08047_2_0"
      (polyline
        (pts
          (xy 1.27 0)
          (xy 0 0)
        )
        (stroke (width 0.6096) (type solid))
        (fill (type none))
      )
      (pin passive line (at -2.54 0 0) (length 2.54)
        (name "S" (effects (font (size 0 0))))
        (number "2" (effects (font (size 0 0))))
      )
    )
    (symbol "53?-08047_3_0"
      (polyline
        (pts
          (xy 1.27 0)
          (xy 0 0)
        )
        (stroke (width 0.6096) (type solid))
        (fill (type none))
      )
      (pin passive line (at -2.54 0 0) (length 2.54)
        (name "S" (effects (font (size 0 0))))
        (number "3" (effects (font (size 0 0))))
      )
    )
    (symbol "53?-08047_4_0"
      (polyline
        (pts
          (xy 1.27 0)
          (xy 0 0)
        )
        (stroke (width 0.6096) (type solid))
        (fill (type none))
      )
      (pin passive line (at -2.54 0 0) (length 2.54)
        (name "S" (effects (font (size 0 0))))
        (number "4" (effects (font (size 0 0))))
      )
    )
    (symbol "53?-08047_5_0"
      (polyline
        (pts
          (xy 1.27 0)
          (xy 0 0)
        )
        (stroke (width 0.6096) (type solid))
        (fill (type none))
      )
      (pin passive line (at -2.54 0 0) (length 2.54)
        (name "S" (effects (font (size 0 0))))
        (number "5" (effects (font (size 0 0))))
      )
    )
    (symbol "53?-08047_6_0"
      (polyline
        (pts
          (xy 1.27 0)
          (xy 0 0)
        )
        (stroke (width 0.6096) (type solid))
        (fill (type none))
      )
      (pin passive line (at -2.54 0 0) (length 2.54)
        (name "S" (effects (font (size 0 0))))
        (number "6" (effects (font (size 0 0))))
      )
    )
    (symbol "53?-08047_7_0"
      (polyline
        (pts
          (xy 1.27 0)
          (xy 0 0)
        )
        (stroke (width 0.6096) (type solid))
        (fill (type none))
      )
      (pin passive line (at -2.54 0 0) (length 2.54)
        (name "S" (effects (font (size 0 0))))
        (number "7" (effects (font (size 0 0))))
      )
    )
    (symbol "53?-08047_8_0"
      (polyline
        (pts
          (xy 1.27 0)
          (xy 0 0)
        )
        (stroke (width 0.6096) (type solid))
        (fill (type none))
      )
      (pin passive line (at -2.54 0 0) (length 2.54)
        (name "S" (effects (font (size 0 0))))
        (number "8" (effects (font (size 0 0))))
      )
    )
  )
  (symbol "53?-08048" (in_bom yes) (on_board yes)
    (property "Reference" "X" (at 2.54 -0.762 0)
      (effects (font (size 1.524 1.2954)) (justify left bottom))
    )
    (property "Value" "" (at -0.762 1.397 0)
      (effects (font (size 1.778 1.5113)) (justify left bottom) hide)
    )
    (property "Footprint" "Riser_EIB:53048-08" (at 0 0 0)
      (effects (font (size 1.27 1.27)) hide)
    )
    (property "Datasheet" "" (at 0 0 0)
      (effects (font (size 1.27 1.27)) hide)
    )
    (property "ki_locked" "" (at 0 0 0)
      (effects (font (size 1.27 1.27)))
    )
    (symbol "53?-08048_1_0"
      (polyline
        (pts
          (xy 1.27 0)
          (xy 0 0)
        )
        (stroke (width 0.6096) (type solid))
        (fill (type none))
      )
      (pin passive line (at -2.54 0 0) (length 2.54)
        (name "S" (effects (font (size 0 0))))
        (number "1" (effects (font (size 0 0))))
      )
    )
    (symbol "53?-08048_2_0"
      (polyline
        (pts
          (xy 1.27 0)
          (xy 0 0)
        )
        (stroke (width 0.6096) (type solid))
        (fill (type none))
      )
      (pin passive line (at -2.54 0 0) (length 2.54)
        (name "S" (effects (font (size 0 0))))
        (number "2" (effects (font (size 0 0))))
      )
    )
    (symbol "53?-08048_3_0"
      (polyline
        (pts
          (xy 1.27 0)
          (xy 0 0)
        )
        (stroke (width 0.6096) (type solid))
        (fill (type none))
      )
      (pin passive line (at -2.54 0 0) (length 2.54)
        (name "S" (effects (font (size 0 0))))
        (number "3" (effects (font (size 0 0))))
      )
    )
    (symbol "53?-08048_4_0"
      (polyline
        (pts
          (xy 1.27 0)
          (xy 0 0)
        )
        (stroke (width 0.6096) (type solid))
        (fill (type none))
      )
      (pin passive line (at -2.54 0 0) (length 2.54)
        (name "S" (effects (font (size 0 0))))
        (number "4" (effects (font (size 0 0))))
      )
    )
    (symbol "53?-08048_5_0"
      (polyline
        (pts
          (xy 1.27 0)
          (xy 0 0)
        )
        (stroke (width 0.6096) (type solid))
        (fill (type none))
      )
      (pin passive line (at -2.54 0 0) (length 2.54)
        (name "S" (effects (font (size 0 0))))
        (number "5" (effects (font (size 0 0))))
      )
    )
    (symbol "53?-08048_6_0"
      (polyline
        (pts
          (xy 1.27 0)
          (xy 0 0)
        )
        (stroke (width 0.6096) (type solid))
        (fill (type none))
      )
      (pin passive line (at -2.54 0 0) (length 2.54)
        (name "S" (effects (font (size 0 0))))
        (number "6" (effects (font (size 0 0))))
      )
    )
    (symbol "53?-08048_7_0"
      (polyline
        (pts
          (xy 1.27 0)
          (xy 0 0)
        )
        (stroke (width 0.6096) (type solid))
        (fill (type none))
      )
      (pin passive line (at -2.54 0 0) (length 2.54)
        (name "S" (effects (font (size 0 0))))
        (number "7" (effects (font (size 0 0))))
      )
    )
    (symbol "53?-08048_8_0"
      (polyline
        (pts
          (xy 1.27 0)
          (xy 0 0)
        )
        (stroke (width 0.6096) (type solid))
        (fill (type none))
      )
      (pin passive line (at -2.54 0 0) (length 2.54)
        (name "S" (effects (font (size 0 0))))
        (number "8" (effects (font (size 0 0))))
      )
    )
  )
  (symbol "53?-08261" (in_bom yes) (on_board yes)
    (property "Reference" "X" (at 2.54 -0.762 0)
      (effects (font (size 1.524 1.2954)) (justify left bottom))
    )
    (property "Value" "" (at -0.762 1.397 0)
      (effects (font (size 1.778 1.5113)) (justify left bottom) hide)
    )
    (property "Footprint" "Riser_EIB:53261-08" (at 0 0 0)
      (effects (font (size 1.27 1.27)) hide)
    )
    (property "Datasheet" "" (at 0 0 0)
      (effects (font (size 1.27 1.27)) hide)
    )
    (property "ki_locked" "" (at 0 0 0)
      (effects (font (size 1.27 1.27)))
    )
    (symbol "53?-08261_1_0"
      (polyline
        (pts
          (xy 1.27 0)
          (xy 0 0)
        )
        (stroke (width 0.6096) (type solid))
        (fill (type none))
      )
      (pin passive line (at -2.54 0 0) (length 2.54)
        (name "S" (effects (font (size 0 0))))
        (number "1" (effects (font (size 0 0))))
      )
    )
    (symbol "53?-08261_2_0"
      (polyline
        (pts
          (xy 1.27 0)
          (xy 0 0)
        )
        (stroke (width 0.6096) (type solid))
        (fill (type none))
      )
      (pin passive line (at -2.54 0 0) (length 2.54)
        (name "S" (effects (font (size 0 0))))
        (number "2" (effects (font (size 0 0))))
      )
    )
    (symbol "53?-08261_3_0"
      (polyline
        (pts
          (xy 1.27 0)
          (xy 0 0)
        )
        (stroke (width 0.6096) (type solid))
        (fill (type none))
      )
      (pin passive line (at -2.54 0 0) (length 2.54)
        (name "S" (effects (font (size 0 0))))
        (number "3" (effects (font (size 0 0))))
      )
    )
    (symbol "53?-08261_4_0"
      (polyline
        (pts
          (xy 1.27 0)
          (xy 0 0)
        )
        (stroke (width 0.6096) (type solid))
        (fill (type none))
      )
      (pin passive line (at -2.54 0 0) (length 2.54)
        (name "S" (effects (font (size 0 0))))
        (number "4" (effects (font (size 0 0))))
      )
    )
    (symbol "53?-08261_5_0"
      (polyline
        (pts
          (xy 1.27 0)
          (xy 0 0)
        )
        (stroke (width 0.6096) (type solid))
        (fill (type none))
      )
      (pin passive line (at -2.54 0 0) (length 2.54)
        (name "S" (effects (font (size 0 0))))
        (number "5" (effects (font (size 0 0))))
      )
    )
    (symbol "53?-08261_6_0"
      (polyline
        (pts
          (xy 1.27 0)
          (xy 0 0)
        )
        (stroke (width 0.6096) (type solid))
        (fill (type none))
      )
      (pin passive line (at -2.54 0 0) (length 2.54)
        (name "S" (effects (font (size 0 0))))
        (number "6" (effects (font (size 0 0))))
      )
    )
    (symbol "53?-08261_7_0"
      (polyline
        (pts
          (xy 1.27 0)
          (xy 0 0)
        )
        (stroke (width 0.6096) (type solid))
        (fill (type none))
      )
      (pin passive line (at -2.54 0 0) (length 2.54)
        (name "S" (effects (font (size 0 0))))
        (number "7" (effects (font (size 0 0))))
      )
    )
    (symbol "53?-08261_8_0"
      (polyline
        (pts
          (xy 1.27 0)
          (xy 0 0)
        )
        (stroke (width 0.6096) (type solid))
        (fill (type none))
      )
      (pin passive line (at -2.54 0 0) (length 2.54)
        (name "S" (effects (font (size 0 0))))
        (number "8" (effects (font (size 0 0))))
      )
    )
  )
  (symbol "53?-08398" (in_bom yes) (on_board yes)
    (property "Reference" "X" (at 2.54 -0.762 0)
      (effects (font (size 1.524 1.2954)) (justify left bottom))
    )
    (property "Value" "" (at -0.762 1.397 0)
      (effects (font (size 1.778 1.5113)) (justify left bottom) hide)
    )
    (property "Footprint" "Riser_EIB:53398-08" (at 0 0 0)
      (effects (font (size 1.27 1.27)) hide)
    )
    (property "Datasheet" "" (at 0 0 0)
      (effects (font (size 1.27 1.27)) hide)
    )
    (property "ki_locked" "" (at 0 0 0)
      (effects (font (size 1.27 1.27)))
    )
    (symbol "53?-08398_1_0"
      (polyline
        (pts
          (xy 1.27 0)
          (xy 0 0)
        )
        (stroke (width 0.6096) (type solid))
        (fill (type none))
      )
      (pin passive line (at -2.54 0 0) (length 2.54)
        (name "S" (effects (font (size 0 0))))
        (number "1" (effects (font (size 0 0))))
      )
    )
    (symbol "53?-08398_2_0"
      (polyline
        (pts
          (xy 1.27 0)
          (xy 0 0)
        )
        (stroke (width 0.6096) (type solid))
        (fill (type none))
      )
      (pin passive line (at -2.54 0 0) (length 2.54)
        (name "S" (effects (font (size 0 0))))
        (number "2" (effects (font (size 0 0))))
      )
    )
    (symbol "53?-08398_3_0"
      (polyline
        (pts
          (xy 1.27 0)
          (xy 0 0)
        )
        (stroke (width 0.6096) (type solid))
        (fill (type none))
      )
      (pin passive line (at -2.54 0 0) (length 2.54)
        (name "S" (effects (font (size 0 0))))
        (number "3" (effects (font (size 0 0))))
      )
    )
    (symbol "53?-08398_4_0"
      (polyline
        (pts
          (xy 1.27 0)
          (xy 0 0)
        )
        (stroke (width 0.6096) (type solid))
        (fill (type none))
      )
      (pin passive line (at -2.54 0 0) (length 2.54)
        (name "S" (effects (font (size 0 0))))
        (number "4" (effects (font (size 0 0))))
      )
    )
    (symbol "53?-08398_5_0"
      (polyline
        (pts
          (xy 1.27 0)
          (xy 0 0)
        )
        (stroke (width 0.6096) (type solid))
        (fill (type none))
      )
      (pin passive line (at -2.54 0 0) (length 2.54)
        (name "S" (effects (font (size 0 0))))
        (number "5" (effects (font (size 0 0))))
      )
    )
    (symbol "53?-08398_6_0"
      (polyline
        (pts
          (xy 1.27 0)
          (xy 0 0)
        )
        (stroke (width 0.6096) (type solid))
        (fill (type none))
      )
      (pin passive line (at -2.54 0 0) (length 2.54)
        (name "S" (effects (font (size 0 0))))
        (number "6" (effects (font (size 0 0))))
      )
    )
    (symbol "53?-08398_7_0"
      (polyline
        (pts
          (xy 1.27 0)
          (xy 0 0)
        )
        (stroke (width 0.6096) (type solid))
        (fill (type none))
      )
      (pin passive line (at -2.54 0 0) (length 2.54)
        (name "S" (effects (font (size 0 0))))
        (number "7" (effects (font (size 0 0))))
      )
    )
    (symbol "53?-08398_8_0"
      (polyline
        (pts
          (xy 1.27 0)
          (xy 0 0)
        )
        (stroke (width 0.6096) (type solid))
        (fill (type none))
      )
      (pin passive line (at -2.54 0 0) (length 2.54)
        (name "S" (effects (font (size 0 0))))
        (number "8" (effects (font (size 0 0))))
      )
    )
  )
  (symbol "FRAME_A_L" (in_bom yes) (on_board yes)
    (property "Reference" "#FRAME" (at 0 0 0)
      (effects (font (size 1.27 1.27)) hide)
    )
    (property "Value" "" (at 0 0 0)
      (effects (font (size 1.27 1.27)) hide)
    )
    (property "Footprint" "" (at 0 0 0)
      (effects (font (size 1.27 1.27)) hide)
    )
    (property "Datasheet" "" (at 0 0 0)
      (effects (font (size 1.27 1.27)) hide)
    )
    (property "ki_locked" "" (at 0 0 0)
      (effects (font (size 1.27 1.27)))
    )
    (symbol "FRAME_A_L_1_0"
      (polyline
        (pts
          (xy 0 43.18)
          (xy 3.81 43.18)
        )
        (stroke (width 0) (type default))
        (fill (type none))
      )
      (polyline
        (pts
          (xy 0 86.36)
          (xy 3.81 86.36)
        )
        (stroke (width 0) (type default))
        (fill (type none))
      )
      (polyline
        (pts
          (xy 0 129.54)
          (xy 3.81 129.54)
        )
        (stroke (width 0) (type default))
        (fill (type none))
      )
      (polyline
        (pts
          (xy 0 172.72)
          (xy 3.81 172.72)
        )
        (stroke (width 0) (type default))
        (fill (type none))
      )
      (polyline
        (pts
          (xy 3.81 3.81)
          (xy 3.81 212.09)
        )
        (stroke (width 0) (type default))
        (fill (type none))
      )
      (polyline
        (pts
          (xy 46.5667 0)
          (xy 46.5667 3.81)
        )
        (stroke (width 0) (type default))
        (fill (type none))
      )
      (polyline
        (pts
          (xy 93.1333 0)
          (xy 93.1333 3.81)
        )
        (stroke (width 0) (type default))
        (fill (type none))
      )
      (polyline
        (pts
          (xy 139.7 0)
          (xy 139.7 3.81)
        )
        (stroke (width 0) (type default))
        (fill (type none))
      )
      (polyline
        (pts
          (xy 186.2667 0)
          (xy 186.2667 3.81)
        )
        (stroke (width 0) (type default))
        (fill (type none))
      )
      (polyline
        (pts
          (xy 232.8333 0)
          (xy 232.8333 3.81)
        )
        (stroke (width 0) (type default))
        (fill (type none))
      )
      (polyline
        (pts
          (xy 275.59 3.81)
          (xy 275.59 212.09)
        )
        (stroke (width 0) (type default))
        (fill (type none))
      )
      (polyline
        (pts
          (xy 275.59 43.18)
          (xy 279.4 43.18)
        )
        (stroke (width 0) (type default))
        (fill (type none))
      )
      (polyline
        (pts
          (xy 275.59 86.36)
          (xy 279.4 86.36)
        )
        (stroke (width 0) (type default))
        (fill (type none))
      )
      (polyline
        (pts
          (xy 275.59 129.54)
          (xy 279.4 129.54)
        )
        (stroke (width 0) (type default))
        (fill (type none))
      )
      (polyline
        (pts
          (xy 275.59 172.72)
          (xy 279.4 172.72)
        )
        (stroke (width 0) (type default))
        (fill (type none))
      )
      (polyline
        (pts
          (xy 275.59 212.09)
          (xy 3.81 212.09)
        )
        (stroke (width 0) (type default))
        (fill (type none))
      )
      (polyline
        (pts
          (xy 0 0)
          (xy 279.4 0)
          (xy 279.4 215.9)
          (xy 0 215.9)
          (xy 0 0)
        )
        (stroke (width 0) (type default))
        (fill (type none))
      )
      (text "1" (at 23.2833 213.995 0)
        (effects (font (size 2.54 2.286)))
      )
      (text "2" (at 69.85 213.995 0)
        (effects (font (size 2.54 2.286)))
      )
      (text "3" (at 116.4167 213.995 0)
        (effects (font (size 2.54 2.286)))
      )
      (text "4" (at 162.9833 213.995 0)
        (effects (font (size 2.54 2.286)))
      )
      (text "5" (at 209.55 213.995 0)
        (effects (font (size 2.54 2.286)))
      )
      (text "6" (at 256.1167 213.995 0)
        (effects (font (size 2.54 2.286)))
      )
      (text "A" (at 1.905 194.31 0)
        (effects (font (size 2.54 2.286)))
      )
      (text "A" (at 277.495 194.31 0)
        (effects (font (size 2.54 2.286)))
      )
      (text "B" (at 1.905 151.13 0)
        (effects (font (size 2.54 2.286)))
      )
      (text "B" (at 277.495 151.13 0)
        (effects (font (size 2.54 2.286)))
      )
      (text "C" (at 1.905 107.95 0)
        (effects (font (size 2.54 2.286)))
      )
      (text "C" (at 277.495 107.95 0)
        (effects (font (size 2.54 2.286)))
      )
      (text "D" (at 1.905 64.77 0)
        (effects (font (size 2.54 2.286)))
      )
      (text "D" (at 277.495 64.77 0)
        (effects (font (size 2.54 2.286)))
      )
      (text "E" (at 1.905 21.59 0)
        (effects (font (size 2.54 2.286)))
      )
      (text "E" (at 277.495 21.59 0)
        (effects (font (size 2.54 2.286)))
      )
    )
    (symbol "FRAME_A_L_2_0"
      (polyline
        (pts
          (xy 0 0)
          (xy 0 5.08)
        )
        (stroke (width 0.1016) (type solid))
        (fill (type none))
      )
      (polyline
        (pts
          (xy 0 0)
          (xy 71.12 0)
        )
        (stroke (width 0.1016) (type solid))
        (fill (type none))
      )
      (polyline
        (pts
          (xy 0 5.08)
          (xy 0 15.24)
        )
        (stroke (width 0.1016) (type solid))
        (fill (type none))
      )
      (polyline
        (pts
          (xy 0 5.08)
          (xy 71.12 5.08)
        )
        (stroke (width 0.1016) (type solid))
        (fill (type none))
      )
      (polyline
        (pts
          (xy 0 15.24)
          (xy 0 22.86)
        )
        (stroke (width 0.1016) (type solid))
        (fill (type none))
      )
      (polyline
        (pts
          (xy 0 22.86)
          (xy 0 35.56)
        )
        (stroke (width 0.1016) (type solid))
        (fill (type none))
      )
      (polyline
        (pts
          (xy 0 22.86)
          (xy 101.6 22.86)
        )
        (stroke (width 0.1016) (type solid))
        (fill (type none))
      )
      (polyline
        (pts
          (xy 71.12 0)
          (xy 101.6 0)
        )
        (stroke (width 0.1016) (type solid))
        (fill (type none))
      )
      (polyline
        (pts
          (xy 71.12 5.08)
          (xy 71.12 0)
        )
        (stroke (width 0.1016) (type solid))
        (fill (type none))
      )
      (polyline
        (pts
          (xy 71.12 5.08)
          (xy 87.63 5.08)
        )
        (stroke (width 0.1016) (type solid))
        (fill (type none))
      )
      (polyline
        (pts
          (xy 87.63 5.08)
          (xy 101.6 5.08)
        )
        (stroke (width 0.1016) (type solid))
        (fill (type none))
      )
      (polyline
        (pts
          (xy 87.63 15.24)
          (xy 0 15.24)
        )
        (stroke (width 0.1016) (type solid))
        (fill (type none))
      )
      (polyline
        (pts
          (xy 87.63 15.24)
          (xy 87.63 5.08)
        )
        (stroke (width 0.1016) (type solid))
        (fill (type none))
      )
      (polyline
        (pts
          (xy 101.6 5.08)
          (xy 101.6 0)
        )
        (stroke (width 0.1016) (type solid))
        (fill (type none))
      )
      (polyline
        (pts
          (xy 101.6 15.24)
          (xy 87.63 15.24)
        )
        (stroke (width 0.1016) (type solid))
        (fill (type none))
      )
      (polyline
        (pts
          (xy 101.6 15.24)
          (xy 101.6 5.08)
        )
        (stroke (width 0.1016) (type solid))
        (fill (type none))
      )
      (polyline
        (pts
          (xy 101.6 22.86)
          (xy 101.6 15.24)
        )
        (stroke (width 0.1016) (type solid))
        (fill (type none))
      )
      (polyline
        (pts
          (xy 101.6 35.56)
          (xy 0 35.56)
        )
        (stroke (width 0.1016) (type solid))
        (fill (type none))
      )
      (polyline
        (pts
          (xy 101.6 35.56)
          (xy 101.6 22.86)
        )
        (stroke (width 0.1016) (type solid))
        (fill (type none))
      )
      (text "${#}/${##}" (at 86.36 1.27 0)
        (effects (font (size 2.54 2.159)) (justify left bottom))
      )
      (text "${CURRENT_DATE}" (at 12.7 1.27 0)
        (effects (font (size 2.54 2.159)) (justify left bottom))
      )
      (text "${PROJECTNAME}" (at 17.78 19.05 0)
        (effects (font (size 2.54 2.159)) (justify left bottom))
      )
      (text "Date:" (at 1.27 1.27 0)
        (effects (font (size 2.54 2.159)) (justify left bottom))
      )
      (text "Document Number:" (at 1.27 11.43 0)
        (effects (font (size 2.54 2.159)) (justify left bottom))
      )
      (text "REV:" (at 88.9 11.43 0)
        (effects (font (size 2.54 2.159)) (justify left bottom))
      )
      (text "Sheet:" (at 72.39 1.27 0)
        (effects (font (size 2.54 2.159)) (justify left bottom))
      )
      (text "TITLE:" (at 1.27 19.05 0)
        (effects (font (size 2.54 2.159)) (justify left bottom))
      )
    )
  )
  (symbol "SJ-43514" (in_bom yes) (on_board yes)
    (property "Reference" "J" (at -7.6219 8.3841 0)
      (effects (font (size 1.7784 1.5116)) (justify left bottom))
    )
    (property "Value" "" (at -7.6261 -10.1682 0)
      (effects (font (size 1.7794 1.5124)) (justify left bottom))
    )
    (property "Footprint" "Riser_EIB:CUI_SJ-43514" (at 0 0 0)
      (effects (font (size 1.27 1.27)) hide)
    )
    (property "Datasheet" "" (at 0 0 0)
      (effects (font (size 1.27 1.27)) hide)
    )
    (property "ki_locked" "" (at 0 0 0)
      (effects (font (size 1.27 1.27)))
    )
    (symbol "SJ-43514_1_0"
      (polyline
        (pts
          (xy -7.62 -7.62)
          (xy -7.62 7.62)
        )
        (stroke (width 0.254) (type solid))
        (fill (type none))
      )
      (polyline
        (pts
          (xy -7.62 7.62)
          (xy 7.62 7.62)
        )
        (stroke (width 0.254) (type solid))
        (fill (type none))
      )
      (polyline
        (pts
          (xy -6.096 -2.413)
          (xy -4.064 -2.413)
        )
        (stroke (width 0.254) (type solid))
        (fill (type none))
      )
      (polyline
        (pts
          (xy -6.096 2.159)
          (xy -6.096 -2.413)
        )
        (stroke (width 0.254) (type solid))
        (fill (type none))
      )
      (polyline
        (pts
          (xy -5.08 -5.08)
          (xy 7.62 -5.08)
        )
        (stroke (width 0.254) (type solid))
        (fill (type none))
      )
      (polyline
        (pts
          (xy -5.08 -2.54)
          (xy -5.08 -5.08)
        )
        (stroke (width 0.254) (type solid))
        (fill (type none))
      )
      (polyline
        (pts
          (xy -4.064 -2.413)
          (xy -4.064 2.159)
        )
        (stroke (width 0.254) (type solid))
        (fill (type none))
      )
      (polyline
        (pts
          (xy -4.064 2.159)
          (xy -6.096 2.159)
        )
        (stroke (width 0.254) (type solid))
        (fill (type none))
      )
      (polyline
        (pts
          (xy -2.286 5.08)
          (xy -1.016 3.302)
        )
        (stroke (width 0.254) (type solid))
        (fill (type none))
      )
      (polyline
        (pts
          (xy -1.016 3.302)
          (xy 0.254 5.08)
        )
        (stroke (width 0.254) (type solid))
        (fill (type none))
      )
      (polyline
        (pts
          (xy -0.381 -2.54)
          (xy 0.889 -0.762)
        )
        (stroke (width 0.254) (type solid))
        (fill (type none))
      )
      (polyline
        (pts
          (xy 0.381 5.08)
          (xy 7.62 5.08)
        )
        (stroke (width 0.254) (type solid))
        (fill (type none))
      )
      (polyline
        (pts
          (xy 0.889 -0.762)
          (xy 2.159 -2.54)
        )
        (stroke (width 0.254) (type solid))
        (fill (type none))
      )
      (polyline
        (pts
          (xy 2.159 -2.54)
          (xy 7.62 -2.54)
        )
        (stroke (width 0.254) (type solid))
        (fill (type none))
      )
      (polyline
        (pts
          (xy 2.413 2.54)
          (xy 3.683 1.016)
        )
        (stroke (width 0.254) (type solid))
        (fill (type none))
      )
      (polyline
        (pts
          (xy 3.683 1.016)
          (xy 4.953 2.54)
        )
        (stroke (width 0.254) (type solid))
        (fill (type none))
      )
      (polyline
        (pts
          (xy 4.953 2.54)
          (xy 7.62 2.54)
        )
        (stroke (width 0.254) (type solid))
        (fill (type none))
      )
      (polyline
        (pts
          (xy 7.62 -7.62)
          (xy -7.62 -7.62)
        )
        (stroke (width 0.254) (type solid))
        (fill (type none))
      )
      (polyline
        (pts
          (xy 7.62 -5.08)
          (xy 7.62 -7.62)
        )
        (stroke (width 0.254) (type solid))
        (fill (type none))
      )
      (polyline
        (pts
          (xy 7.62 -2.54)
          (xy 7.62 -5.08)
        )
        (stroke (width 0.254) (type solid))
        (fill (type none))
      )
      (polyline
        (pts
          (xy 7.62 2.54)
          (xy 7.62 -2.54)
        )
        (stroke (width 0.254) (type solid))
        (fill (type none))
      )
      (polyline
        (pts
          (xy 7.62 5.08)
          (xy 7.62 2.54)
        )
        (stroke (width 0.254) (type solid))
        (fill (type none))
      )
      (polyline
        (pts
          (xy 7.62 7.62)
          (xy 7.62 5.08)
        )
        (stroke (width 0.254) (type solid))
        (fill (type none))
      )
      (pin passive line (at 10.16 -5.08 180) (length 2.54)
        (name "SLEEVE" (effects (font (size 0 0))))
        (number "1" (effects (font (size 1.27 1.27))))
      )
      (pin passive line (at 10.16 2.54 180) (length 2.54)
        (name "TIP" (effects (font (size 0 0))))
        (number "2" (effects (font (size 1.27 1.27))))
      )
      (pin passive line (at 10.16 -2.54 180) (length 2.54)
        (name "RING1" (effects (font (size 0 0))))
        (number "3" (effects (font (size 1.27 1.27))))
      )
      (pin passive line (at 10.16 5.08 180) (length 2.54)
        (name "RING2" (effects (font (size 0 0))))
        (number "4" (effects (font (size 1.27 1.27))))
      )
    )
  )
  (symbol "SJ1-42514" (in_bom yes) (on_board yes)
    (property "Reference" "J" (at -7.6282 10.6796 0)
      (effects (font (size 1.7799 1.5129)) (justify left bottom))
    )
    (property "Value" "" (at -7.6325 -9.6678 0)
      (effects (font (size 1.7809 1.5137)) (justify left bottom))
    )
    (property "Footprint" "Riser_EIB:CUI_SJ1-42514" (at 0 0 0)
      (effects (font (size 1.27 1.27)) hide)
    )
    (property "Datasheet" "" (at 0 0 0)
      (effects (font (size 1.27 1.27)) hide)
    )
    (property "ki_locked" "" (at 0 0 0)
      (effects (font (size 1.27 1.27)))
    )
    (symbol "SJ1-42514_1_0"
      (polyline
        (pts
          (xy -7.62 -7.62)
          (xy 7.62 -7.62)
        )
        (stroke (width 0.254) (type solid))
        (fill (type none))
      )
      (polyline
        (pts
          (xy -7.62 10.16)
          (xy -7.62 -7.62)
        )
        (stroke (width 0.254) (type solid))
        (fill (type none))
      )
      (polyline
        (pts
          (xy -4.8895 -2.413)
          (xy -4.8895 3.429)
        )
        (stroke (width 0.1524) (type solid))
        (fill (type none))
      )
      (polyline
        (pts
          (xy -4.8895 3.429)
          (xy -4.0005 3.429)
        )
        (stroke (width 0.1524) (type solid))
        (fill (type none))
      )
      (polyline
        (pts
          (xy -4.0005 3.429)
          (xy -3.1115 3.429)
        )
        (stroke (width 0.1524) (type solid))
        (fill (type none))
      )
      (polyline
        (pts
          (xy -4.0005 7.62)
          (xy -4.0005 3.429)
        )
        (stroke (width 0.1524) (type solid))
        (fill (type none))
      )
      (polyline
        (pts
          (xy -3.1115 -2.413)
          (xy -4.8895 -2.413)
        )
        (stroke (width 0.1524) (type solid))
        (fill (type none))
      )
      (polyline
        (pts
          (xy -3.1115 3.429)
          (xy -3.1115 -2.413)
        )
        (stroke (width 0.1524) (type solid))
        (fill (type none))
      )
      (polyline
        (pts
          (xy -1.5875 3.81)
          (xy -2.54 5.08)
        )
        (stroke (width 0.1524) (type solid))
        (fill (type none))
      )
      (polyline
        (pts
          (xy -0.635 5.08)
          (xy -1.5875 3.81)
        )
        (stroke (width 0.1524) (type solid))
        (fill (type none))
      )
      (polyline
        (pts
          (xy -0.3175 1.27)
          (xy -1.27 2.54)
        )
        (stroke (width 0.1524) (type solid))
        (fill (type none))
      )
      (polyline
        (pts
          (xy 0.4445 -3.81)
          (xy -0.508 -5.08)
        )
        (stroke (width 0.1524) (type solid))
        (fill (type none))
      )
      (polyline
        (pts
          (xy 0.635 2.54)
          (xy -0.3175 1.27)
        )
        (stroke (width 0.1524) (type solid))
        (fill (type none))
      )
      (polyline
        (pts
          (xy 1.397 -5.08)
          (xy 0.4445 -3.81)
        )
        (stroke (width 0.1524) (type solid))
        (fill (type none))
      )
      (polyline
        (pts
          (xy 7.62 -7.62)
          (xy 7.62 2.54)
        )
        (stroke (width 0.254) (type solid))
        (fill (type none))
      )
      (polyline
        (pts
          (xy 7.62 2.54)
          (xy 0.635 2.54)
        )
        (stroke (width 0.1524) (type solid))
        (fill (type none))
      )
      (polyline
        (pts
          (xy 7.62 2.54)
          (xy 7.62 7.62)
        )
        (stroke (width 0.254) (type solid))
        (fill (type none))
      )
      (polyline
        (pts
          (xy 7.62 5.08)
          (xy -0.635 5.08)
        )
        (stroke (width 0.1524) (type solid))
        (fill (type none))
      )
      (polyline
        (pts
          (xy 7.62 7.62)
          (xy -4.0005 7.62)
        )
        (stroke (width 0.1524) (type solid))
        (fill (type none))
      )
      (polyline
        (pts
          (xy 7.62 7.62)
          (xy 7.62 10.16)
        )
        (stroke (width 0.254) (type solid))
        (fill (type none))
      )
      (polyline
        (pts
          (xy 7.62 10.16)
          (xy -7.62 10.16)
        )
        (stroke (width 0.254) (type solid))
        (fill (type none))
      )
      (polyline
        (pts
          (xy 8.255 -5.08)
          (xy 1.397 -5.08)
        )
        (stroke (width 0.1524) (type solid))
        (fill (type none))
      )
      (pin passive line (at 12.7 7.62 180) (length 5.08)
        (name "1" (effects (font (size 0 0))))
        (number "1" (effects (font (size 1.27 1.27))))
      )
      (pin passive line (at 12.7 -5.08 180) (length 5.08)
        (name "2" (effects (font (size 0 0))))
        (number "2" (effects (font (size 1.27 1.27))))
      )
      (pin passive line (at 12.7 2.54 180) (length 5.08)
        (name "3" (effects (font (size 0 0))))
        (number "3" (effects (font (size 1.27 1.27))))
      )
      (pin passive line (at 12.7 5.08 180) (length 5.08)
        (name "4" (effects (font (size 0 0))))
        (number "4" (effects (font (size 1.27 1.27))))
      )
    )
  )
)
