(kicad_pcb (version 20221018) (generator pcbnew)

  (general
    (thickness 1.6)
  )

  (paper "A4")
  (layers
    (0 "F.Cu" signal)
    (31 "B.Cu" signal)
    (32 "B.Adhes" user "B.Adhesive")
    (33 "F.Adhes" user "F.Adhesive")
    (34 "B.Paste" user)
    (35 "F.Paste" user)
    (36 "B.SilkS" user "B.Silkscreen")
    (37 "F.SilkS" user "F.Silkscreen")
    (38 "B.Mask" user)
    (39 "F.Mask" user)
    (40 "Dwgs.User" user "User.Drawings")
    (41 "Cmts.User" user "User.Comments")
    (42 "Eco1.User" user "User.Eco1")
    (43 "Eco2.User" user "User.Eco2")
    (44 "Edge.Cuts" user)
    (45 "Margin" user)
    (46 "B.CrtYd" user "B.Courtyard")
    (47 "F.CrtYd" user "F.Courtyard")
    (48 "B.Fab" user)
    (49 "F.Fab" user)
    (50 "User.1" user)
    (51 "User.2" user)
    (52 "User.3" user)
    (53 "User.4" user)
    (54 "User.5" user)
    (55 "User.6" user)
    (56 "User.7" user)
    (57 "User.8" user)
    (58 "User.9" user)
  )

  (setup
    (pad_to_mask_clearance 0)
    (pcbplotparams
      (layerselection 0x00010fc_ffffffff)
      (plot_on_all_layers_selection 0x0000000_00000000)
      (disableapertmacros false)
      (usegerberextensions false)
      (usegerberattributes true)
      (usegerberadvancedattributes true)
      (creategerberjobfile true)
      (dashed_line_dash_ratio 12.000000)
      (dashed_line_gap_ratio 3.000000)
      (svgprecision 4)
      (plotframeref false)
      (viasonmask false)
      (mode 1)
      (useauxorigin false)
      (hpglpennumber 1)
      (hpglpenspeed 20)
      (hpglpendiameter 15.000000)
      (dxfpolygonmode true)
      (dxfimperialunits true)
      (dxfusepcbnewfont true)
      (psnegative false)
      (psa4output false)
      (plotreference true)
      (plotvalue true)
      (plotinvisibletext false)
      (sketchpadsonfab false)
      (subtractmaskfromsilk false)
      (outputformat 1)
      (mirror false)
      (drillshape 1)
      (scaleselection 1)
      (outputdirectory "")
    )
  )

  (net 0 "")
  (net 1 "GND")
  (net 2 "+5V")
  (net 3 "SENSOR_SIG1")
  (net 4 "SENSOR_SIG2")
  (net 5 "LED2_SIG")
  (net 6 "LED1_SIG")
  (net 7 "N$2")

  (footprint "Riser_EIB:CUI_SJ-43514" (layer "F.Cu")
    (tstamp 0fc22d3e-01fc-480f-984b-1d6c1c66ff77)
    (at 145.0721 99.5586)
    (fp_text reference "UNK3.5MM_JACK0" (at 6.4944 4.49191 90) (layer "F.SilkS")
        (effects (font (size 0.565437 0.565437) (thickness 0.044922)) (justify left))
      (tstamp 45ad42ae-1dea-46bd-a02f-481e7905fef7)
    )
    (fp_text value "SJ-43514" (at -4.75835 6.511432) (layer "F.Fab")
        (effects (font (size 0.565726 0.565726) (thickness 0.044945)) (justify left))
      (tstamp 1797be85-b4f1-4c58-955f-b7ea0dd89fd1)
    )
    (fp_text user "PCB EDGE" (at -5.753318 8.5049 90) (layer "F.Fab")
        (effects (font (size 0.561157 0.561157) (thickness 0.048796)) (justify left bottom))
      (tstamp 38b0b478-8397-4bb7-a7b9-277b88df1819)
    )
    (fp_line (start -8.5 -3) (end -5.5 -3)
      (stroke (width 0.127) (type solid)) (layer "F.SilkS") (tstamp 3ea32f70-d714-46c5-8d88-051d6c8509dd))
    (fp_line (start -8.5 3) (end -8.5 -3)
      (stroke (width 0.127) (type solid)) (layer "F.SilkS") (tstamp 78b9cffd-c5a4-48ac-b6d4-3529ae7fff86))
    (fp_line (start -5.5 -4.7) (end -5.5 -3)
      (stroke (width 0.127) (type solid)) (layer "F.SilkS") (tstamp b83bc634-8aa3-47b2-beec-8862ddf27348))
    (fp_line (start -5.5 -3) (end -5.5 -2.25)
      (stroke (width 0.127) (type solid)) (layer "F.SilkS") (tstamp 92fe6f14-0c5b-4ae4-abb9-e89396cad0c4))
    (fp_line (start -5.5 -2.25) (end -4.2 -2.25)
      (stroke (width 0.127) (type solid)) (layer "F.SilkS") (tstamp ea6430a3-b04a-44be-be0e-a534a30f4ced))
    (fp_line (start -5.5 2.25) (end -5.5 3)
      (stroke (width 0.127) (type solid)) (layer "F.SilkS") (tstamp 6f0bd33c-dd54-41c4-b8aa-5f8b3117b7ed))
    (fp_line (start -5.5 3) (end -8.5 3)
      (stroke (width 0.127) (type solid)) (layer "F.SilkS") (tstamp 3a01220d-6ce1-4b87-9378-d86a69082dbb))
    (fp_line (start -5.5 3) (end -5.5 4.3)
      (stroke (width 0.127) (type solid)) (layer "F.SilkS") (tstamp 00fb0a32-7386-4265-b131-27cc7888a886))
    (fp_line (start -5.5 4.3) (end -3.75 4.3)
      (stroke (width 0.127) (type solid)) (layer "F.SilkS") (tstamp eaa6f71b-7aa0-4349-b72a-380d1fd77fc5))
    (fp_line (start -4.2 -2.25) (end -4.2 2.25)
      (stroke (width 0.127) (type solid)) (layer "F.SilkS") (tstamp 16bdc7ba-187d-4775-9fc7-1514f9410bef))
    (fp_line (start -4.2 2.25) (end -5.5 2.25)
      (stroke (width 0.127) (type solid)) (layer "F.SilkS") (tstamp fbd0f4e8-9b63-467d-955b-c713fe3e9a5d))
    (fp_line (start -3.8 -4.7) (end -5.5 -4.7)
      (stroke (width 0.127) (type solid)) (layer "F.SilkS") (tstamp 1e96aff9-68b9-4a6f-9431-c4faa69945a5))
    (fp_line (start -1.4 -4.7) (end 5.5 -4.7)
      (stroke (width 0.127) (type solid)) (layer "F.SilkS") (tstamp 8f24e0fc-5c1a-42a9-8a3a-bc98423054d8))
    (fp_line (start 1.5 4.3) (end -1.55 4.3)
      (stroke (width 0.127) (type solid)) (layer "F.SilkS") (tstamp e6fa26cb-e493-4827-b0cd-1b28669f0f31))
    (fp_line (start 5.5 -4.7) (end 5.5 -2.7)
      (stroke (width 0.127) (type solid)) (layer "F.SilkS") (tstamp baa93213-1e36-4d63-8a03-76790d1adcf1))
    (fp_line (start 5.5 -0.35) (end 5.5 4.3)
      (stroke (width 0.127) (type solid)) (layer "F.SilkS") (tstamp c447c423-ff12-4c11-a76f-6aec0b77ec40))
    (fp_line (start 5.5 4.3) (end 3.4 4.3)
      (stroke (width 0.127) (type solid)) (layer "F.SilkS") (tstamp 404d151c-c650-4218-b080-c1ebc278744b))
    (fp_circle (center -4 -5.5) (end -3.8 -5.5)
      (stroke (width 0.4) (type solid)) (fill none) (layer "F.SilkS") (tstamp 47840ed9-dc7b-43e2-b43a-23864a8ac43d))
    (fp_line (start -8.75 -3.25) (end -5.75 -3.25)
      (stroke (width 0.05) (type solid)) (layer "F.CrtYd") (tstamp 908a97cb-f4a9-440a-a26f-54c4e33fa4a0))
    (fp_line (start -8.75 3.25) (end -8.75 -3.25)
      (stroke (width 0.05) (type solid)) (layer "F.CrtYd") (tstamp 56b8642b-577e-43d0-aaad-b9613ac56af7))
    (fp_line (start -5.75 -5) (end -3.65 -5)
      (stroke (width 0.05) (type solid)) (layer "F.CrtYd") (tstamp d78b26bd-fcfe-4853-af9b-98d19963ebf4))
    (fp_line (start -5.75 -3.25) (end -5.75 -5)
      (stroke (width 0.05) (type solid)) (layer "F.CrtYd") (tstamp b3bd0685-34b1-4121-b8ad-a6d0362a8a8e))
    (fp_line (start -5.75 3.25) (end -8.75 3.25)
      (stroke (width 0.05) (type solid)) (layer "F.CrtYd") (tstamp dee468d0-f3ac-4d5a-bef9-26a17768537b))
    (fp_line (start -5.75 4.5) (end -5.75 3.25)
      (stroke (width 0.05) (type solid)) (layer "F.CrtYd") (tstamp 92600100-5440-4d93-a115-b6e31156c9fd))
    (fp_line (start -3.75 4.5) (end -5.75 4.5)
      (stroke (width 0.05) (type solid)) (layer "F.CrtYd") (tstamp 524f6980-d4fe-4b1b-b3c8-41ce6e33e580))
    (fp_line (start -3.75 5.55) (end -3.75 4.5)
      (stroke (width 0.05) (type solid)) (layer "F.CrtYd") (tstamp adad6c2e-0090-4e42-bb6a-d48ea94ff92c))
    (fp_line (start -3.65 -5.85) (end -1.5 -5.85)
      (stroke (width 0.05) (type solid)) (layer "F.CrtYd") (tstamp 8100c433-5355-42fd-8e5d-53937ac5e74a))
    (fp_line (start -3.65 -5) (end -3.65 -5.85)
      (stroke (width 0.05) (type solid)) (layer "F.CrtYd") (tstamp 9db45c54-47a6-40c4-ba72-312e5ddd77fc))
    (fp_line (start -1.5 -5.85) (end -1.5 -5)
      (stroke (width 0.05) (type solid)) (layer "F.CrtYd") (tstamp 02fe91ea-996c-4d09-81d2-1063e5a58178))
    (fp_line (start -1.5 -5) (end 5.75 -5)
      (stroke (width 0.05) (type solid)) (layer "F.CrtYd") (tstamp 69389d58-5e23-4312-bf12-29a65234491e))
    (fp_line (start -1.5 4.75) (end -1.5 5.55)
      (stroke (width 0.05) (type solid)) (layer "F.CrtYd") (tstamp a00f1049-61e7-4ca3-b5e6-c865d0c95d55))
    (fp_line (start -1.5 5.55) (end -3.75 5.55)
      (stroke (width 0.05) (type solid)) (layer "F.CrtYd") (tstamp 658127bd-e02b-4940-9781-19bfcd195304))
    (fp_line (start 5.75 -5) (end 5.75 -2.5)
      (stroke (width 0.05) (type solid)) (layer "F.CrtYd") (tstamp 4e147a26-c91d-4c6d-9d2e-2a047bf07de4))
    (fp_line (start 5.75 -2.5) (end 6.5 -2.5)
      (stroke (width 0.05) (type solid)) (layer "F.CrtYd") (tstamp 328ea325-67a4-4cab-b388-6ea4b1bede55))
    (fp_line (start 5.75 -0.5) (end 5.75 4.75)
      (stroke (width 0.05) (type solid)) (layer "F.CrtYd") (tstamp 8a64fd55-c0c7-4642-a5f1-b38cb72ce7e3))
    (fp_line (start 5.75 4.75) (end -1.5 4.75)
      (stroke (width 0.05) (type solid)) (layer "F.CrtYd") (tstamp 79cf1a53-5dcc-4bfa-a612-c0f811686d4a))
    (fp_line (start 6.5 -2.5) (end 6.5 -0.5)
      (stroke (width 0.05) (type solid)) (layer "F.CrtYd") (tstamp 60735c4f-bfdc-4550-828f-c0a8d623faf0))
    (fp_line (start 6.5 -0.5) (end 5.75 -0.5)
      (stroke (width 0.05) (type solid)) (layer "F.CrtYd") (tstamp 1176e962-e99b-4628-a92c-2bf43d09656a))
    (fp_line (start -8.5 -3) (end -8.5 3)
      (stroke (width 0.127) (type solid)) (layer "F.Fab") (tstamp 2775e951-2135-4007-a8ab-2f5df6f592fc))
    (fp_line (start -8.5 3) (end -5.5 3)
      (stroke (width 0.127) (type solid)) (layer "F.Fab") (tstamp 592d530b-00eb-4a3d-9e60-52751c9e804d))
    (fp_line (start -5.5 -4.7) (end -5.5 -3)
      (stroke (width 0.127) (type solid)) (layer "F.Fab") (tstamp 689c6190-2cb0-4310-9ee2-11dd9de8f139))
    (fp_line (start -5.5 -4.7) (end 5.5 -4.7)
      (stroke (width 0.127) (type solid)) (layer "F.Fab") (tstamp a7d26097-2e53-41c8-b9f8-1089e9c5cb39))
    (fp_line (start -5.5 -3) (end -8.5 -3)
      (stroke (width 0.127) (type solid)) (layer "F.Fab") (tstamp e7319ec6-c762-4aeb-962f-3cbaded24a83))
    (fp_line (start -5.5 -3) (end -5.5 -2.25)
      (stroke (width 0.127) (type solid)) (layer "F.Fab") (tstamp a59e8ac1-5678-4682-a142-1cb890568e62))
    (fp_line (start -5.5 -2.25) (end -4.2 -2.25)
      (stroke (width 0.127) (type solid)) (layer "F.Fab") (tstamp 77616030-77f6-46d0-a7f2-32e6c76adf09))
    (fp_line (start -5.5 2.25) (end -5.5 3)
      (stroke (width 0.127) (type solid)) (layer "F.Fab") (tstamp a7ed3725-3ac1-4b34-9e63-a449bd128ddf))
    (fp_line (start -5.5 3) (end -5.5 4.3)
      (stroke (width 0.127) (type solid)) (layer "F.Fab") (tstamp 130667c2-e8c7-4178-8563-dd9ad222af9f))
    (fp_line (start -5.5 4.3) (end 5.5 4.3)
      (stroke (width 0.127) (type solid)) (layer "F.Fab") (tstamp 5005fcae-339c-46fc-87de-dae05aede830))
    (fp_line (start -4.2 -2.25) (end -4.2 2.25)
      (stroke (width 0.127) (type solid)) (layer "F.Fab") (tstamp 6a8d78f0-7c52-4dcf-8888-aa3fc29b5428))
    (fp_line (start -4.2 2.25) (end -5.5 2.25)
      (stroke (width 0.127) (type solid)) (layer "F.Fab") (tstamp cd800c64-f50f-4cea-adb5-91e6819aef07))
    (fp_line (start 5.5 -4.7) (end 5.5 4.3)
      (stroke (width 0.127) (type solid)) (layer "F.Fab") (tstamp 1b7107d0-4fbf-42d7-b725-b09857dc5f2b))
    (pad "" np_thru_hole circle (at -2.6 0) (size 1.1 1.1) (drill 1.1) (layers "*.Cu" "*.Mask") (tstamp f5cd0ef6-29ff-4637-8e27-b64f1ad2e94e))
    (pad "" np_thru_hole circle (at 2.4 0) (size 1.1 1.1) (drill 1.1) (layers "*.Cu" "*.Mask") (tstamp e25f6d7c-cad0-4a28-a68c-fcec4f663147))
    (pad "1" thru_hole rect (at -2.6 -4.8) (size 1.65 1.65) (drill 1.1) (layers "*.Cu" "*.Mask")
      (net 1 "GND") (solder_mask_margin 0.1016) (thermal_bridge_angle 45) (tstamp 3b4a760f-0125-4448-bf9e-fb5f0e7c19bb))
    (pad "2" thru_hole circle (at 2.4 3.6) (size 1.65 1.65) (drill 1.1) (layers "*.Cu" "*.Mask")
      (net 2 "+5V") (solder_mask_margin 0.1016) (tstamp 7e2bccd9-431f-4907-b01c-03c1effa0bc3))
    (pad "3" thru_hole circle (at 5.5 -1.6) (size 1.65 1.65) (drill 1.1) (layers "*.Cu" "*.Mask")
      (net 3 "SENSOR_SIG1") (solder_mask_margin 0.1016) (tstamp 02967bf1-4d31-4bcf-a07e-a743976517fc))
    (pad "4" thru_hole circle (at -2.6 4.5) (size 1.65 1.65) (drill 1.1) (layers "*.Cu" "*.Mask")
      (net 4 "SENSOR_SIG2") (solder_mask_margin 0.1016) (tstamp f98a3f17-fa6e-4ee1-8c74-1b69c51cacc1))
  )

  (footprint "Riser_EIB:CUI_SJ1-42514" (layer "F.Cu")
    (tstamp 17ac246e-89bf-4d87-8b82-dcc50accb3e3)
    (at 142.1511 115.0336)
    (fp_text reference "UNK2.5MM_JACK0" (at 9.109581 -1.671659 90) (layer "F.SilkS")
        (effects (font (size 0.504709 0.504709) (thickness 0.104891)) (justify left))
      (tstamp 19eef408-239f-48b7-a255-589560b607c3)
    )
    (fp_text value "SJ1-42514" (at -1.780469 3.085819) (layer "F.Fab")
        (effects (font (size 1.318064 1.318064) (thickness 0.104717)) (justify left))
      (tstamp 7f0b7ee7-6e5f-49a2-a972-7c16d54a2c10)
    )
    (fp_line (start -3.8 -6.7) (end -3.8 -2.7)
      (stroke (width 0.127) (type solid)) (layer "F.SilkS") (tstamp 2cc3d415-365a-4698-9b01-52fd35c4ca02))
    (fp_line (start -3.8 -2.7) (end -1.8 -2.7)
      (stroke (width 0.127) (type solid)) (layer "F.SilkS") (tstamp e33c346a-f73f-4c7f-ba6b-99af13c5b40e))
    (fp_line (start -1.8 -9.2) (end -0.5 -9.2)
      (stroke (width 0.127) (type solid)) (layer "F.SilkS") (tstamp 8a9b3548-1cd5-4197-b0a2-1b2ad24cf5e0))
    (fp_line (start -1.8 -6.7) (end -3.8 -6.7)
      (stroke (width 0.127) (type solid)) (layer "F.SilkS") (tstamp c4bf7c51-abda-411e-be2f-c3addf8661bf))
    (fp_line (start -1.8 -6.7) (end -1.8 -9.2)
      (stroke (width 0.127) (type solid)) (layer "F.SilkS") (tstamp 745b119b-9f5d-4348-9565-b7968e8cb7b1))
    (fp_line (start -1.8 -2.7) (end -1.8 -6.7)
      (stroke (width 0.127) (type solid)) (layer "F.SilkS") (tstamp 197c9fdf-fb35-4ff1-84f8-cb841cfab73e))
    (fp_line (start -1.8 0.8) (end -1.8 -2.7)
      (stroke (width 0.127) (type solid)) (layer "F.SilkS") (tstamp d2184446-dc12-47cc-bf99-2d9857349159))
    (fp_line (start 2.5 -9.2) (end 8.2 -9.2)
      (stroke (width 0.127) (type solid)) (layer "F.SilkS") (tstamp 247bf445-6610-4d0f-99fc-83e885e7f411))
    (fp_line (start 8.2 -9.2) (end 8.2 0.8)
      (stroke (width 0.127) (type solid)) (layer "F.SilkS") (tstamp 6dbc0574-49b0-4ec6-b3c1-fe6e26fd2df8))
    (fp_line (start 8.2 0.8) (end -1.8 0.8)
      (stroke (width 0.127) (type solid)) (layer "F.SilkS") (tstamp fa7b92c8-e1b5-4748-b3ba-649f04c87d4d))
    (fp_circle (center -0.122 1.315) (end -0.022 1.315)
      (stroke (width 0.2) (type solid)) (fill none) (layer "F.SilkS") (tstamp 7c09f712-0ddd-45db-b85c-463e3d99e87d))
    (fp_line (start -4.05 -6.95) (end -2.05 -6.95)
      (stroke (width 0.05) (type solid)) (layer "F.CrtYd") (tstamp 5ea2bb98-c347-4810-8d72-83424f625305))
    (fp_line (start -4.05 -2.45) (end -4.05 -6.95)
      (stroke (width 0.05) (type solid)) (layer "F.CrtYd") (tstamp 9ce8bfb4-381f-428a-bdd9-9d70a98c454d))
    (fp_line (start -2.05 -9.55) (end 8.45 -9.55)
      (stroke (width 0.05) (type solid)) (layer "F.CrtYd") (tstamp bf8ac94e-cf9f-4d52-b91f-ab1f228c37f0))
    (fp_line (start -2.05 -6.95) (end -2.05 -9.55)
      (stroke (width 0.05) (type solid)) (layer "F.CrtYd") (tstamp a69e50c4-5896-41c6-ae34-94a84620b259))
    (fp_line (start -2.05 -2.45) (end -4.05 -2.45)
      (stroke (width 0.05) (type solid)) (layer "F.CrtYd") (tstamp 78ebc110-1a1f-46c5-bb31-9fabc540dbda))
    (fp_line (start -2.05 1.05) (end -2.05 -2.45)
      (stroke (width 0.05) (type solid)) (layer "F.CrtYd") (tstamp a2f18867-5d8a-4feb-8fb3-665929fab16f))
    (fp_line (start 8.45 -9.55) (end 8.45 1.05)
      (stroke (width 0.05) (type solid)) (layer "F.CrtYd") (tstamp c43241fd-17ba-459f-bea6-f2e3d69ca4c0))
    (fp_line (start 8.45 1.05) (end -2.05 1.05)
      (stroke (width 0.05) (type solid)) (layer "F.CrtYd") (tstamp 6ec61e44-e517-47c2-9eff-856b97f3d49d))
    (fp_line (start -3.8 -6.7) (end -1.8 -6.7)
      (stroke (width 0.127) (type solid)) (layer "F.Fab") (tstamp 66001b71-17e0-4ec6-a19c-5b35f7c79780))
    (fp_line (start -3.8 -2.7) (end -3.8 -6.7)
      (stroke (width 0.127) (type solid)) (layer "F.Fab") (tstamp 90936b43-5562-437a-828f-df535ddbee1b))
    (fp_line (start -1.8 -9.2) (end 8.2 -9.2)
      (stroke (width 0.127) (type solid)) (layer "F.Fab") (tstamp 42609c69-0886-4276-a09e-4a59c47190a2))
    (fp_line (start -1.8 -6.7) (end -1.8 -9.2)
      (stroke (width 0.127) (type solid)) (layer "F.Fab") (tstamp 30e361f9-72e3-4e6a-972c-61c6e9ad57e1))
    (fp_line (start -1.8 -2.7) (end -3.8 -2.7)
      (stroke (width 0.127) (type solid)) (layer "F.Fab") (tstamp 37beb85f-1dc8-4ba2-b7e4-4d192bb92fb0))
    (fp_line (start -1.8 -2.7) (end -1.8 -6.7)
      (stroke (width 0.127) (type solid)) (layer "F.Fab") (tstamp 49ea7617-60ce-4669-b3a4-8db15ea58bae))
    (fp_line (start -1.8 0.8) (end -1.8 -2.7)
      (stroke (width 0.127) (type solid)) (layer "F.Fab") (tstamp 7a42f30a-0140-49ac-9aab-83babad397ef))
    (fp_line (start 8.2 -9.2) (end 8.2 0.8)
      (stroke (width 0.127) (type solid)) (layer "F.Fab") (tstamp 83fea352-04f0-4fe3-8213-27d6d0173b38))
    (fp_line (start 8.2 0.8) (end -1.8 0.8)
      (stroke (width 0.127) (type solid)) (layer "F.Fab") (tstamp f84eb80d-8b94-4c2c-a775-6fd21e7ae3f8))
    (fp_circle (center -0.467 -1.175) (end -0.367 -1.175)
      (stroke (width 0.2) (type solid)) (fill none) (layer "F.Fab") (tstamp 7e9e4d1c-1a27-45ff-980f-bd130279ae97))
    (pad "" np_thru_hole circle (at 1.2 -4.7) (size 1.6 1.6) (drill 1.6) (layers "*.Cu" "*.Mask") (tstamp d660ae7a-e759-4d37-929b-f0eb5ad89983))
    (pad "" np_thru_hole circle (at 6.2 -4.7) (size 1.6 1.6) (drill 1.6) (layers "*.Cu" "*.Mask") (tstamp a9df8d90-fc83-4c90-b1be-1ab70b1356f4))
    (pad "1" thru_hole oval (at 0 0) (size 2.1 1.2) (drill 0.8) (layers "*.Cu" "*.Mask")
      (net 1 "GND") (solder_mask_margin 0.1016) (thermal_bridge_angle 45) (tstamp 28f84301-b23f-4140-b6af-ec2735c273d3))
    (pad "2" thru_hole oval (at 5.7 -1.1) (size 2.1 1.2) (drill 0.8) (layers "*.Cu" "*.Mask")
      (net 7 "N$2") (solder_mask_margin 0.1016) (thermal_bridge_angle 45) (tstamp b32a4770-576f-410f-ad12-9d58d9060bdc))
    (pad "3" thru_hole oval (at 5.7 -8.3 180) (size 2.1 1.2) (drill 0.8) (layers "*.Cu" "*.Mask")
      (net 6 "LED1_SIG") (solder_mask_margin 0.1016) (thermal_bridge_angle 45) (tstamp a0f00a17-2509-4f64-a27b-4db9bf2f5651))
    (pad "4" thru_hole oval (at 1 -8.7) (size 2.1 1.2) (drill 0.8) (layers "*.Cu" "*.Mask")
      (net 5 "LED2_SIG") (solder_mask_margin 0.1016) (thermal_bridge_angle 45) (tstamp b7888fa1-0985-46d5-b1eb-3361cff4e39b))
  )

  (footprint "Riser_EIB:53047-08" (layer "F.Cu")
    (tstamp 244b1bf9-49f3-430f-b091-abfab9697a1b)
    (at 155.6131 100.0196 90)
    (descr "<b>1.25mm Pitch PicoBlade™ Wire-to-Board Header, Vertical, with Friction Lock, 8 Circuits</b><p><a href =http://www.molex.com/pdm_docs/sd/530470810_sd.pdf>Datasheet </a>")
    (fp_text reference "MOLEX0" (at -5.625 -1.75 90) (layer "F.SilkS")
        (effects (font (size 1.176528 1.176528) (thickness 0.093472)) (justify left))
      (tstamp 207decba-60e4-482c-8530-90619e0fc42c)
    )
    (fp_text value "53047-08" (at 1.125 -1.75 90) (layer "F.Fab")
        (effects (font (size 1.176528 1.176528) (thickness 0.093472)) (justify left))
      (tstamp 9b3c366a-4bb1-4d0b-82d5-786489763df4)
    )
    (fp_line (start -5.775 -1.5) (end -5.775 1.5)
      (stroke (width 0.2032) (type solid)) (layer "F.SilkS") (tstamp ca982e90-b843-4a55-b495-a7f08a12473e))
    (fp_line (start -5.775 1.5) (end 5.775 1.5)
      (stroke (width 0.2032) (type solid)) (layer "F.SilkS") (tstamp e1478338-d5cc-4f36-adcb-147d55818a52))
    (fp_line (start -5.75 -0.375) (end -5.375 -0.375)
      (stroke (width 0.0508) (type solid)) (layer "F.SilkS") (tstamp 7af526e8-e959-44d3-8ead-e372896e25eb))
    (fp_line (start -5.75 0.25) (end -5.375 0.25)
      (stroke (width 0.0508) (type solid)) (layer "F.SilkS") (tstamp 988aa829-3e0c-42ac-89fd-d21d585b315e))
    (fp_line (start -5.375 -1.125) (end -5.625 -1.375)
      (stroke (width 0.0508) (type solid)) (layer "F.SilkS") (tstamp 1c788b32-f9bb-4cc9-bbe1-e0907b2dc2de))
    (fp_line (start -5.375 -1.125) (end 5.375 -1.125)
      (stroke (width 0.0508) (type solid)) (layer "F.SilkS") (tstamp 2012b03e-b1ca-4ca7-bbfd-a7b7fa49fde6))
    (fp_line (start -5.375 -0.375) (end -5.375 -1.125)
      (stroke (width 0.0508) (type solid)) (layer "F.SilkS") (tstamp e29374ec-f003-4a9f-8861-1e533dd9ece8))
    (fp_line (start -5.375 0.25) (end -5.375 1.25)
      (stroke (width 0.0508) (type solid)) (layer "F.SilkS") (tstamp 993a09c4-ab74-47dc-9123-7c35a5d9c9c7))
    (fp_line (start 5.375 -1.125) (end 5.375 -0.375)
      (stroke (width 0.0508) (type solid)) (layer "F.SilkS") (tstamp 6036f693-f195-40d6-a4dc-aac55c1f1add))
    (fp_line (start 5.375 -1.125) (end 5.625 -1.375)
      (stroke (width 0.0508) (type solid)) (layer "F.SilkS") (tstamp 2ed6e882-4164-4fb0-ac4e-e94ead27a54c))
    (fp_line (start 5.375 -0.375) (end 5.75 -0.375)
      (stroke (width 0.0508) (type solid)) (layer "F.SilkS") (tstamp b1dd37b7-561a-41ea-93b2-7dbedd74ec4d))
    (fp_line (start 5.375 0.25) (end 5.375 1.25)
      (stroke (width 0.0508) (type solid)) (layer "F.SilkS") (tstamp 68364b99-e543-4019-bd70-f729fd4d2198))
    (fp_line (start 5.375 0.25) (end 5.75 0.25)
      (stroke (width 0.0508) (type solid)) (layer "F.SilkS") (tstamp 097de4eb-74c7-4516-a8ff-bc215ac68e30))
    (fp_line (start 5.775 -1.5) (end -5.775 -1.5)
      (stroke (width 0.2032) (type solid)) (layer "F.SilkS") (tstamp 51ce85d5-218a-4ebd-8431-e2546f95f18d))
    (fp_line (start 5.775 1.5) (end 5.775 -1.5)
      (stroke (width 0.2032) (type solid)) (layer "F.SilkS") (tstamp aa95dca2-aab6-4eca-a4bc-1d6368d9266e))
    (fp_poly
      (pts
        (xy -5.75 1.5)
        (xy 5.75 1.5)
        (xy 5.75 1.125)
        (xy -5.75 1.125)
      )

      (stroke (width 0) (type default)) (fill solid) (layer "F.SilkS") (tstamp cc5d0198-8cce-4843-b520-71ddf0c2f60d))
    (pad "1" thru_hole oval (at 4.375 -0.45 180) (size 1.2222 0.6984) (drill 0.5) (layers "*.Cu" "*.Mask")
      (net 1 "GND") (solder_mask_margin 0.1016) (thermal_bridge_angle 45) (tstamp 5696540f-9fe8-43c0-832d-8b29ac119146))
    (pad "2" thru_hole oval (at 3.125 -0.45 180) (size 1.2222 0.6984) (drill 0.5) (layers "*.Cu" "*.Mask")
      (net 3 "SENSOR_SIG1") (solder_mask_margin 0.1016) (thermal_bridge_angle 45) (tstamp 66eef2e7-9062-402b-861e-e5373e0fa659))
    (pad "3" thru_hole oval (at 1.875 -0.45 180) (size 1.2222 0.6984) (drill 0.5) (layers "*.Cu" "*.Mask")
      (net 4 "SENSOR_SIG2") (solder_mask_margin 0.1016) (thermal_bridge_angle 45) (tstamp 2e632acc-d2ff-4026-ae3c-c6b4622da009))
    (pad "4" thru_hole oval (at 0.625 -0.45 180) (size 1.2222 0.6984) (drill 0.5) (layers "*.Cu" "*.Mask")
      (net 2 "+5V") (solder_mask_margin 0.1016) (thermal_bridge_angle 45) (tstamp 704825d0-1534-4902-84b4-9a60877329be))
    (pad "5" thru_hole oval (at -0.625 -0.45 180) (size 1.2222 0.6984) (drill 0.5) (layers "*.Cu" "*.Mask")
      (net 1 "GND") (solder_mask_margin 0.1016) (thermal_bridge_angle 45) (tstamp 7903b1d3-58c2-41fc-a727-a1b1cc5821c1))
    (pad "6" thru_hole oval (at -1.875 -0.45 180) (size 1.2222 0.6984) (drill 0.5) (layers "*.Cu" "*.Mask")
      (net 6 "LED1_SIG") (solder_mask_margin 0.1016) (thermal_bridge_angle 45) (tstamp 06b8ff26-1b43-4859-b35b-32c123db451e))
    (pad "7" thru_hole oval (at -3.125 -0.45 180) (size 1.2222 0.6984) (drill 0.5) (layers "*.Cu" "*.Mask")
      (net 5 "LED2_SIG") (solder_mask_margin 0.1016) (thermal_bridge_angle 45) (tstamp 68882561-2663-487c-bbfe-6fcdd162343e))
    (pad "8" thru_hole oval (at -4.375 -0.45 180) (size 1.2222 0.6984) (drill 0.5) (layers "*.Cu" "*.Mask")
      (net 7 "N$2") (solder_mask_margin 0.1016) (thermal_bridge_angle 45) (tstamp be272b65-fb02-45f1-8423-94516f63d4f6))
  )

  (gr_line (start 139.6111 91.0036) (end 139.6111 119.0036)
    (stroke (width 0.05) (type solid)) (layer "Edge.Cuts") (tstamp 058cb4a9-dbc9-49f4-b547-99e9989e38f4))
  (gr_line (start 157.3911 91.0036) (end 139.6111 91.0036)
    (stroke (width 0.05) (type solid)) (layer "Edge.Cuts") (tstamp 50a2f3d9-bde4-45f9-a80a-18f3aa1d586f))
  (gr_line (start 139.6111 119.0036) (end 157.3911 119.0036)
    (stroke (width 0.05) (type solid)) (layer "Edge.Cuts") (tstamp 60563a6f-092f-4a55-b44c-90affcba4704))
  (gr_line (start 157.3911 119.0036) (end 157.3911 91.0036)
    (stroke (width 0.05) (type solid)) (layer "Edge.Cuts") (tstamp e88bafee-34be-4e18-b7d8-5cededa95486))
  (gr_text "AdaptAMaze" (at 141.8971 93.0956) (layer "F.SilkS") (tstamp 17e0caa8-b87d-4034-8cad-7a6c9a282c12)
    (effects (font (size 1.63576 1.63576) (thickness 0.14224)) (justify left bottom))
  )
  (gr_text "1" (at 153.8621 94.9846 90) (layer "F.SilkS") (tstamp 3ee89839-8b78-400f-b63c-9eb9290061a3)
    (effects (font (size 1.1684 1.1684) (thickness 0.1016)) (justify left bottom))
  )
  (gr_text "Conn PCB v0.2" (at 140.3731 118.6226) (layer "F.SilkS") (tstamp 58d04967-d98f-4814-a60f-65be5c09d751)
    (effects (font (size 1.63576 1.4) (thickness 0.14224)) (justify left bottom))
  )

  (segment (start 148.3403 102.2904) (end 149.240568 102.2904) (width 0.3048) (layer "F.Cu") (net 2) (tstamp 12effe8b-1e06-4820-a411-4c53385e843e))
  (segment (start 147.4721 103.1586) (end 148.3403 102.2904) (width 0.3048) (layer "F.Cu") (net 2) (tstamp 46bbe2cc-7caa-4202-89e7-c1fd17238c9c))
  (segment (start 152.136368 99.3946) (end 155.1631 99.3946) (width 0.3048) (layer "F.Cu") (net 2) (tstamp d385278b-ab9e-49e9-89e8-485a6993d084))
  (segment (start 149.240568 102.2904) (end 152.136368 99.3946) (width 0.3048) (layer "F.Cu") (net 2) (tstamp d7106333-bb6c-406b-9565-b6c095702044))
  (segment (start 155.1631 96.8946) (end 151.6361 96.8946) (width 0.3048) (layer "F.Cu") (net 3) (tstamp 600ae354-a19e-4452-a416-607797c31f32))
  (segment (start 151.6361 96.8946) (end 150.5721 97.9586) (width 0.3048) (layer "F.Cu") (net 3) (tstamp 679bb888-630f-4b80-ab79-91f8264eb94c))
  (segment (start 155.1631 98.1446) (end 152.5961 98.1446) (width 0.3048) (layer "F.Cu") (net 4) (tstamp 01525f7b-3402-458f-9d7c-09629f7bd8bd))
  (segment (start 152.5961 98.1446) (end 149.0091 101.7316) (width 0.3048) (layer "F.Cu") (net 4) (tstamp 06ba3aa8-ea0f-4733-9c6f-575261956c6a))
  (segment (start 144.7991 101.7316) (end 142.4721 104.0586) (width 0.3048) (layer "F.Cu") (net 4) (tstamp 80ce0879-b26e-42e1-9298-5c592982e239))
  (segment (start 149.0091 101.7316) (end 144.7991 101.7316) (width 0.3048) (layer "F.Cu") (net 4) (tstamp ad9c660f-7bed-4136-bff2-7b6a53ba7c6c))
  (segment (start 153.9461 103.1446) (end 155.1631 103.1446) (width 0.3048) (layer "F.Cu") (net 5) (tstamp b432de08-ebba-4e68-a89b-ceec3abcf9a4))
  (segment (start 143.1511 106.3336) (end 144.8991 108.0816) (width 0.3048) (layer "F.Cu") (net 5) (tstamp b483be48-4017-4a5a-b594-1a7a55f737fa))
  (segment (start 144.8991 108.0816) (end 149.0091 108.0816) (width 0.3048) (layer "F.Cu") (net 5) (tstamp b6432308-db19-4f6b-924f-d3541972374c))
  (segment (start 149.0091 108.0816) (end 153.9461 103.1446) (width 0.3048) (layer "F.Cu") (net 5) (tstamp f2b92ca7-8583-46d4-b2be-434476ed3665))
  (segment (start 152.6901 101.8946) (end 155.1631 101.8946) (width 0.3048) (layer "F.Cu") (net 6) (tstamp 819ff91e-3165-49fd-bf8f-cb285d993d75))
  (segment (start 147.8511 106.7336) (end 152.6901 101.8946) (width 0.3048) (layer "F.Cu") (net 6) (tstamp a6f30519-4a3a-4926-bc87-a5d2f03d5e0b))
  (segment (start 155.1631 106.6216) (end 155.1631 104.3946) (width 0.3048) (layer "F.Cu") (net 7) (tstamp 73bd57ba-c93e-4b0e-9426-1ebbfc6e144f))
  (segment (start 147.8511 113.9336) (end 155.1631 106.6216) (width 0.3048) (layer "F.Cu") (net 7) (tstamp d8455bec-5811-4d47-bbac-a1a0910946c9))

  (zone (net 1) (net_name "GND") (layer "F.Cu") (tstamp a3e42259-7456-4192-9d3e-da6f7bb09ba0) (hatch edge 0.5)
    (priority 6)
    (connect_pads (clearance 0.000001))
    (min_thickness 0.1524) (filled_areas_thickness no)
    (fill (thermal_gap 0.3548) (thermal_bridge_width 0.3548))
    (polygon
      (pts
        (xy 157.5435 119.156)
        (xy 139.4587 119.156)
        (xy 139.4587 83.4512)
        (xy 157.5435 83.4512)
      )
    )
  )
  (zone (net 1) (net_name "GND") (layer "B.Cu") (tstamp 417ed662-5217-484f-8e21-b196af5abafa) (hatch edge 0.5)
    (priority 6)
    (connect_pads (clearance 0.000001))
    (min_thickness 0.1524) (filled_areas_thickness no)
    (fill (thermal_gap 0.3548) (thermal_bridge_width 0.3548))
    (polygon
      (pts
        (xy 157.5435 119.156)
        (xy 139.4587 119.156)
        (xy 139.4587 83.4512)
        (xy 157.5435 83.4512)
      )
    )
  )
)
