(footprint "CUI_SJ1-42514" (version 20221018) (generator pcbnew)
  (layer "F.Cu")
  (fp_text reference "REF**" (at -1.255418 -9.671659) (layer "F.SilkS")
      (effects (font (size 1.311138 1.311138) (thickness 0.114012)) (justify left bottom))
    (tstamp 5d58394a-480d-40bd-ba1e-205c0aea2a7d)
  )
  (fp_text value "CUI_SJ1-42514" (at -1.780468 3.085818) (layer "F.Fab")
      (effects (font (size 1.308959 1.308959) (thickness 0.113822)) (justify left bottom))
    (tstamp 9f2d08fb-812d-4b30-9899-c8cc99abe1e4)
  )
  (fp_line (start -3.8 -6.7) (end -3.8 -2.7)
    (stroke (width 0.127) (type solid)) (layer "F.SilkS") (tstamp 03102f35-e1ed-4a60-a5ba-4cf7a4155866))
  (fp_line (start -3.8 -2.7) (end -1.8 -2.7)
    (stroke (width 0.127) (type solid)) (layer "F.SilkS") (tstamp b4092760-263c-4251-89e5-38fa4c6a48fb))
  (fp_line (start -1.8 -9.2) (end -0.5 -9.2)
    (stroke (width 0.127) (type solid)) (layer "F.SilkS") (tstamp 3cebe4ab-45e0-445c-a81e-530084df4c57))
  (fp_line (start -1.8 -6.7) (end -3.8 -6.7)
    (stroke (width 0.127) (type solid)) (layer "F.SilkS") (tstamp cea06182-13f2-450e-9a37-0aef1df86964))
  (fp_line (start -1.8 -6.7) (end -1.8 -9.2)
    (stroke (width 0.127) (type solid)) (layer "F.SilkS") (tstamp 4d25c89d-547b-4142-9f3e-f3929ca9929a))
  (fp_line (start -1.8 -2.7) (end -1.8 -6.7)
    (stroke (width 0.127) (type solid)) (layer "F.SilkS") (tstamp bcc0fe0e-403a-487f-903d-6e974688f577))
  (fp_line (start -1.8 0.8) (end -1.8 -2.7)
    (stroke (width 0.127) (type solid)) (layer "F.SilkS") (tstamp de4d9d13-3034-48a8-9a13-8845eecbe51d))
  (fp_line (start 2.5 -9.2) (end 8.2 -9.2)
    (stroke (width 0.127) (type solid)) (layer "F.SilkS") (tstamp b9419653-da34-44d9-bd3a-ab98602d350a))
  (fp_line (start 8.2 -9.2) (end 8.2 0.8)
    (stroke (width 0.127) (type solid)) (layer "F.SilkS") (tstamp 0459da69-f299-4fa2-9d54-9da8433691b9))
  (fp_line (start 8.2 0.8) (end -1.8 0.8)
    (stroke (width 0.127) (type solid)) (layer "F.SilkS") (tstamp d49b3f29-9d0c-4d36-84ba-649fea14329e))
  (fp_circle (center -0.122 1.315) (end -0.022 1.315)
    (stroke (width 0.2) (type solid)) (fill none) (layer "F.SilkS") (tstamp cafd44e3-8bf2-4f42-9b02-4d9802c7b86d))
  (fp_line (start -4.05 -6.95) (end -2.05 -6.95)
    (stroke (width 0.05) (type solid)) (layer "F.CrtYd") (tstamp 304fef70-1c5c-4418-8cf0-94165164f9a6))
  (fp_line (start -4.05 -2.45) (end -4.05 -6.95)
    (stroke (width 0.05) (type solid)) (layer "F.CrtYd") (tstamp 54a96b4d-2fd8-408b-aba8-798a8c76c04e))
  (fp_line (start -2.05 -9.55) (end 8.45 -9.55)
    (stroke (width 0.05) (type solid)) (layer "F.CrtYd") (tstamp 9cfa7842-4cc9-4fab-bc18-ca4f5b22e2dd))
  (fp_line (start -2.05 -6.95) (end -2.05 -9.55)
    (stroke (width 0.05) (type solid)) (layer "F.CrtYd") (tstamp 322cc8f1-327e-499e-91c3-fbea4dc30968))
  (fp_line (start -2.05 -2.45) (end -4.05 -2.45)
    (stroke (width 0.05) (type solid)) (layer "F.CrtYd") (tstamp 506ffd44-5df9-451f-b0c0-04845b025588))
  (fp_line (start -2.05 1.05) (end -2.05 -2.45)
    (stroke (width 0.05) (type solid)) (layer "F.CrtYd") (tstamp abb12141-42b4-4da0-85b4-052282cc4d0d))
  (fp_line (start 8.45 -9.55) (end 8.45 1.05)
    (stroke (width 0.05) (type solid)) (layer "F.CrtYd") (tstamp ca621299-e617-4230-bf19-1f6db6862783))
  (fp_line (start 8.45 1.05) (end -2.05 1.05)
    (stroke (width 0.05) (type solid)) (layer "F.CrtYd") (tstamp 4b2bf455-46a1-4e81-9ab8-0e843e21c6d2))
  (fp_line (start -3.8 -6.7) (end -1.8 -6.7)
    (stroke (width 0.127) (type solid)) (layer "F.Fab") (tstamp 40fc2514-424f-4bf9-95d2-32ec29076336))
  (fp_line (start -3.8 -2.7) (end -3.8 -6.7)
    (stroke (width 0.127) (type solid)) (layer "F.Fab") (tstamp 4340e054-efb5-4efe-a73d-5ffdc2070713))
  (fp_line (start -1.8 -9.2) (end 8.2 -9.2)
    (stroke (width 0.127) (type solid)) (layer "F.Fab") (tstamp 53a3cd73-2a4d-454d-bc62-e9a683a80f94))
  (fp_line (start -1.8 -6.7) (end -1.8 -9.2)
    (stroke (width 0.127) (type solid)) (layer "F.Fab") (tstamp 673dee48-5433-417c-bd11-0d8425ee45ef))
  (fp_line (start -1.8 -2.7) (end -3.8 -2.7)
    (stroke (width 0.127) (type solid)) (layer "F.Fab") (tstamp 8a6bfef4-6141-442d-bf3b-7a1c06aa0a97))
  (fp_line (start -1.8 -2.7) (end -1.8 -6.7)
    (stroke (width 0.127) (type solid)) (layer "F.Fab") (tstamp 18946339-9e7d-4111-98e7-ce16d1515a54))
  (fp_line (start -1.8 0.8) (end -1.8 -2.7)
    (stroke (width 0.127) (type solid)) (layer "F.Fab") (tstamp cb12c009-dd34-4e1f-9063-3b3798768236))
  (fp_line (start 8.2 -9.2) (end 8.2 0.8)
    (stroke (width 0.127) (type solid)) (layer "F.Fab") (tstamp 3d6c0359-3e04-479d-83e7-45cecdf16c0c))
  (fp_line (start 8.2 0.8) (end -1.8 0.8)
    (stroke (width 0.127) (type solid)) (layer "F.Fab") (tstamp 5abc3024-574a-4f89-8655-15d37ac053d7))
  (fp_circle (center -0.467 -1.175) (end -0.367 -1.175)
    (stroke (width 0.2) (type solid)) (fill none) (layer "F.Fab") (tstamp 407b9930-3c72-4b01-80ee-7fa8c240a69a))
  (pad "" np_thru_hole circle (at 1.2 -4.7) (size 1.6 1.6) (drill 1.6) (layers "*.Cu" "*.Mask") (tstamp 50a2e416-509d-4cb8-82a2-b7b7c7f230b7))
  (pad "" np_thru_hole circle (at 6.2 -4.7) (size 1.6 1.6) (drill 1.6) (layers "*.Cu" "*.Mask") (tstamp 0ee09a2c-2c16-475f-a619-b8fd68a920df))
  (pad "1" thru_hole oval (at 0 0) (size 2.1 1.2) (drill 0.8) (layers "*.Cu" "*.Mask")
    (solder_mask_margin 0.1016) (thermal_bridge_angle 45) (tstamp 088564a4-11dd-4095-a758-05c14ef81041))
  (pad "2" thru_hole oval (at 5.7 -1.1) (size 2.1 1.2) (drill 0.8) (layers "*.Cu" "*.Mask")
    (solder_mask_margin 0.1016) (thermal_bridge_angle 45) (tstamp 03f93d30-8eb3-4a83-98a9-f5e75b4f6557))
  (pad "3" thru_hole oval (at 5.7 -8.3 180) (size 2.1 1.2) (drill 0.8) (layers "*.Cu" "*.Mask")
    (solder_mask_margin 0.1016) (thermal_bridge_angle 45) (tstamp d63fb5af-a463-4e08-a286-62cc4e8307bc))
  (pad "4" thru_hole oval (at 1 -8.7) (size 2.1 1.2) (drill 0.8) (layers "*.Cu" "*.Mask")
    (solder_mask_margin 0.1016) (thermal_bridge_angle 45) (tstamp b6527b01-1039-453c-8161-572e9b0a1333))
)
